fac_no_faction|Sin facción
fac_commoners|Plebeyos
fac_outlaws|Forajidos
fac_neutral|Neutral
fac_innocents|Inocentes
fac_merchants|Mercaderes
fac_player_faction|Facción del Jugador
fac_player_supporters_faction|Facción del Jugador
fac_kingdom_1|Reino de Francia
fac_kingdom_2|Reino de Inglaterra
fac_kingdom_3|Reino de Borgoña
fac_black_khergits|Rebeldes
fac_sang_lys|Compañía del Lirio de Sangre
fac_vilandrandro|La gran Compañía de Villandrando
fac_manhunters|Cazahombres
fac_deserters|Desertores
fac_mountain_bandits|Bandidos de la montaña
fac_forest_bandits|Bandidos del bosque
fac_convoi_weapons|Convoy de armas inglés
fac_viland_quest_bourges|La gran Compañía de Villandrando
