qst_deliver_message|Entregad el mensaje a {s13}
qst_deliver_message_to_enemy_lord|Entregad el mensaje a {s13}
qst_raise_troops|Reunid {reg1} {s14}
qst_escort_lady|Escoltad a {s13} a {s14}
qst_deal_with_bandits_at_lords_village|Salvad a la aldea de {s15} de los Bandidos Merodeadores
qst_collect_taxes|Recaudad los impuestos de {s3}
qst_hunt_down_fugitive|Dad caza a {s4}.
qst_kill_local_merchant|Asesinad a un mercader local en {s3}.
qst_bring_back_runaway_serfs|Capturad a los siervos fugitivos.
qst_follow_spy|Seguid al espía.
qst_capture_enemy_hero|Capturad a un Señor de {s13}.
qst_lend_companion|Prestad a vuestro compañero {s3} a {s9}.
qst_collect_debt|Recaudad la deuda que {s3} debe a {s9}
qst_incriminate_loyal_commander|Incriminad al Comandante leal de {s13}, {s16}.
qst_meet_spy_in_enemy_town|Encontraos con el espía en {s13}.
qst_capture_prisoners|Traed {reg1} prisioneros {s3}.
qst_lend_surgeon|Prestad a vuestro cirujano, {s3}, a {s1}.
qst_follow_army|Seguid al ejército de {s9}.
qst_report_to_army|Reportad ante {s13}, el Mariscal.
qst_deliver_cattle_to_army|Entregad {reg3} cabezas de ganado a {s13}.
qst_join_siege_with_army|Uníos al asedio de {s14}.
qst_screen_army|Investigad el avance del ejército de {s13}.
qst_scout_waypoints|Explorad {s13}, {s14} y {s15}.
qst_rescue_lord_by_replace|Rescatad a {s13} de {s14}.
qst_deliver_message_to_prisoner_lord|Entregad el mensaje de {s13} en {s14}.
qst_duel_for_lady|Retad a {s13} a un Juicio de Armas.
qst_duel_courtship_rival|Retad a {s13} a un Juicio de Armas (opcional)
qst_duel_avenge_insult|Retad a {s13} a un Juicio de Armas
qst_move_cattle_herd|Trasladad el rebaño de ganado a {s13}.
qst_escort_merchant_caravan|Escoltad la caravana de mercancías hasta {s8}.
qst_deliver_wine|Entregad {reg5} unidades de {s6} a {s4}.
qst_troublesome_bandits|Dad caza a los bandidos problemáticos.
qst_kidnapped_girl|Pagad a los bandidos por el rescate de la doncella. 
qst_persuade_lords_to_make_peace|Aseguraos de que los Señores no impidan la paz.
qst_deal_with_looters|Ocupaos de los saqueadores.
qst_deal_with_night_bandits|Ocupaos de los bandidos nocturnos.
qst_deliver_grain|Llevad trigo a {s3}.
qst_deliver_cattle|Entregad {reg5} cabezas de ganado en {s3}
qst_train_peasants_against_bandits|Entrenad a los campesinos de {s13} para defenderse contra los bandidos.
qst_eliminate_bandits_infesting_village|Rescatad a la aldea de {s7} de los bandidos merodeadores.
qst_visit_lady|Visitad a la dama
qst_formal_marriage_proposal|Propuesta formal de matrimonio
qst_obtain_liege_blessing|Propuesta formal de matrimonio
qst_wed_betrothed|Desposad a vuestro prometido
qst_wed_betrothed_female|Desposad a vuestra prometida
qst_join_faction|Jurad lealtad a {s1}.
qst_rebel_against_kingdom|Ayudad a {s13} a reclamar el trono de {s14}.
qst_consult_with_minister|Consulta con el administrador
qst_organize_feast|Organizad el banquete
qst_resolve_dispute|Resolved la disputa
qst_offer_gift|Procurad un regalo
qst_denounce_lord|Denunciad a un Señor
qst_intrigue_against_lord|Tramad contra un Señor
qst_track_down_bandits|Rastread a los bandidos
qst_track_down_provocateurs|Rastread a los provocadores
qst_retaliate_for_border_incident|Tomad represalias por el incidente fronterizo
qst_raid_caravan_to_start_war|Atacad a una caravana neutral para provocar una guerra
qst_cause_provocation|Provocad a un reino para que ataque a otro
qst_rescue_prisoner|Rescatad o pagad el rescate de un prisionero
qst_destroy_bandit_lair|Destruid la guarida de los bandidos
qst_collect_men|Reclutad cinco hombres
qst_learn_where_merchant_brother_is|Descubrid la localización de los rehenes.
qst_save_relative_of_merchant|Atacad la guarida de los bandidos
qst_save_town_from_bandits|Salvad a la ciudad de los bandidos
qst_rebelc1|[Rebeldes] Encontrar al lider de los rebeldes de Montpellier.
qst_rebelvivre_montpelier|[Rebeldes] Encontrar provisiones para los rebeldes de Montpellier        
qst_rebel_attack_c1|[Rebeldes] Atacar el convoy de armas cerca de la aldea de Rodez.
qst_sl_1caserne|[Compañia del lirio de sangre] Pasar la prueba de admisión para trabajar con los lirios de sangre.
qst_sl_patrouil1|[Compañia del lirio de sangre] Ir a Bourges para reforzar la milicia.
qst_sl_ivrogne1|[Compañia del lirio de sangre] Limpiar la taberna Los Tres Lirios, de Bourges, de mercenarios borrachos.
qst_sl_viland_troop1|[Compañia del lirio de sangre] Limpiar Bourges de los bandidos que merodean los alrededores de la ciudad.
qst_sl_viland_attack1|[Compañia del lirio de sangre] Unirse a la batalla de los almacenes de Bourges.
qst_sl_deffensse_benezet|[Compañia del lirio de sangre] Ir a Avignon defendido por el Lirio de sangre para mantener el asedio.
qst_rebel_camp_atck1|[Rebeldes] Atacar el campamento Inglés que espera refuerzos cerca del castillo de Le Puy.
qst_rebel_toul|[Rebeldes] Juntar a los rebeldes en la aldea de Toul una vez se haya erradicado la peste.
qst_rebel_chearchcamp|[Rebeldes] Explorar las ruinas de Toul para encontrar a los rebeldes de Borgoña.
qst_rebel_entrepmetz|[Rebeldes] Atacar al almacén de comida de Metz.
qst_rebel_placeforte|[Rebeldes] Tomar la fortaleza Borgoñona.
qst_rebel_shearchlico|[El Unicornio] Encontrar al héroe rebelde que todo el mundo llama El Unicornio.
qst_rebel_assas_comtcaen|[El Unicornio] Asesinar a los personajes enemigos importantes.
qst_rebel_asassin_chasse|[El Unicornio] Matar al gobernador Inglés en su campamento de tiro.
qst_rebel_manoir|[El Unicornio] Envenenar al banquero en su palacio de Reims.
qst_rodrig_vol_cle|[Bandidos] Recuperar una llave para Villandrando.
qst_cambriolage_chateau|[Bandidos] Robar el castillo a Tours.
qst_extorsion|[Bandidos] Reclamar el pago de los comerciantes de París.
qst_kill_mathieu|[Bandidos] Matar al traidor.
qst_conffes_chevalier|[El Unicornio] Confesar tus pecados para convertirte en caballero.
qst_rebel_catahugry|[Rebeldes] Buscar los víveres para los rebeldes de París ocultos en las catacumbas.
qst_rebel_cataparang|[Rebeldes] Esconder a los rebeldes de las catacumbas de París de la patrulla Inglesa.
qst_crypt_sworr|Encontrar la espada del caballero.
qst_find_epeepour_jeanne|[Jeanne la Lorraine] Encontrar una misteriosa espada.
qst_foret_filleroeun|Encontrar a la hija del rico comerciante de Rouen.
qst_cata_compagnon|Encontrar al marido de Madeleine de Montpellier.
qst_messager_qst0|[Gremio de los Mensajeros de Francia] Traiga la carta al Maestro del gremio de los Mercaderes de Montpellier.
qst_messager_qst1|[Gremio de los Mensajeros de Francia] Traiga la carta al Maestro del gremio de los Mercaderes de Marsella.
qst_messager_qst2|[Gremio de los Mensajeros de Francia] Traiga la carta al Maestro del gremio de los Mercaderes de París.
qst_messager_qst3|[Gremio de los Mensajeros de Francia] Traiga la carta al Maestro del gremio de los Mercaderes de Dijon.
qst_messager_qst4|[Gremio de los Mensajeros de Francia] Traiga la carta al Maestro del gremio de los Mercaderes de Caen.
qst_messager_qst5|[Gremio de los Mensajeros de Francia] Traiga la carga al vendedor de libros de Bordeau.
qst_messager_qst6|[Gremio de los Mensajeros de Francia] Traiga la carga al armero de Paris.
qst_messager_qst7|[Gremio de los Mensajeros de Francia] Traiga la carga al armero de Avignon.
qst_messager_qst9|[Gremio de los Mensajeros de Francia] Traiga la carga al herrero de Reims.
qst_messager_qst0b|[Gremio de los Mensajeros de Francia] Traiga la carta al Maestro del gremio de los Mercaderes de Montpellier.
qst_messager_qst1b|[Gremio de los Mensajeros de Francia] Traiga la carta al Maestro del gremio de los Mercaderes de Marsella.
qst_messager_qst2b|[Gremio de los Mensajeros de Francia] Traiga la carta al Maestro del gremio de los Mercaderes de Paris.
qst_messager_qst3b|[Gremio de los Mensajeros de Francia] Traiga la carta al Maestro del gremio de los Mercaderes de Dijon.
qst_messager_qst4b|[Gremio de los Mensajeros de Francia] Traiga la carta al Maestro del gremio de los Mercaderes de Caen.
qst_messager_qst5b|[Gremio de los Mensajeros de Francia] Traiga la carga al vendedor de libros de Bordeau.
qst_messager_qst6b|[Gremio de los Mensajeros de Francia] Traiga la carga al armero de Paris.
qst_messager_qst7b|[Gremio de los Mensajeros de Francia] Traiga la carga al armero de Avignon.
qst_messager_qst9b|[Gremio de los Mensajeros de Francia] Traiga la carga al herrero de Reims.
qst_messager_qst0d|[Gremio de los Mensajeros de Francia] Traiga la carta al Maestro del gremio de los Mercaderes de Montpellier.
qst_messager_qst1d|[Gremio de los Mensajeros de Francia] Traiga la carta al Maestro del gremio de los Mercaderes de Marsella.
qst_messager_qst2d|[Gremio de los Mensajeros de Francia] Traiga la carta al Maestro del gremio de los Mercaderes de Paris.
qst_messager_qst3d|[Gremio de los Mensajeros de Francia] Traiga la carta al Maestro del gremio de los Mercaderes de Dijon.
qst_messager_qst4d|[Gremio de los Mensajeros de Francia] Traiga la carta al Maestro del gremio de los Mercaderes de Caen.
qst_messager_qst5d|[Gremio de los Mensajeros de Francia] Traiga la carga al vendedor de libros de Bordeau.
qst_messager_qst6d|[Gremio de los Mensajeros de Francia] Traiga la carga al armero de Paris.
qst_messager_qst7d|[Gremio de los Mensajeros de Francia] Traiga la carga al armero de Avignon.
qst_messager_qst9d|[Gremio de los Mensajeros de Francia] Traiga la carga al herrero de Reims.
qst_messager_qst0m|[Gremio de los Mensajeros de Francia] Traiga la carta al Maestro del gremio de los Mercaderes de Montpellier.
qst_messager_qst1m|[Gremio de los Mensajeros de Francia] Traiga la carta al Maestro del gremio de los Mercaderes de Marsella.
qst_messager_qst2m|[Gremio de los Mensajeros de Francia] Traiga la carta al Maestro del gremio de los Mercaderes de Paris.
qst_messager_qst3m|[Gremio de los Mensajeros de Francia] Traiga la carta al Maestro del gremio de los Mercaderes de Dijon.
qst_messager_qst4m|[Gremio de los Mensajeros de Francia] Traiga la carta al Maestro del gremio de los Mercaderes de Caen.
qst_messager_qst5m|[Gremio de los Mensajeros de Francia] Traiga la carga al vendedor de libros de Bordeau.
qst_messager_qst6m|[Gremio de los Mensajeros de Francia] Traiga la carga al armero de Paris.
qst_messager_qst7m|[Gremio de los Mensajeros de Francia] Traiga la carga al armero de Avignon.
qst_messager_qst9m|[Gremio de los Mensajeros de Francia] Traiga la carga al herrero de Reims.
qst_banque30|[Banqueros] Pagar 3300 escudos a los Banqueros.
qst_banque60|[Banqueros] Pagar 6600 escudos a los Banqueros.
qst_banque90|[Banqueros] Pagar 9900 escudos a los Banqueros.
qst_banque14|[Banqueros] Pagar 15.400 escudos a los Banqueros.
qst_quests_end|Final de misión.
