trp_multiplayer_profile_troop_male|perfil tropa multijugador hombre
trp_multiplayer_profile_troop_male_pl|perfil tropa multijugador hombre
trp_multiplayer_profile_troop_female|perfil tropa multijugador mujer
trp_multiplayer_profile_troop_female_pl|perfil tropa multijugador mujer
trp_temp_troop|Tropa temporal
trp_temp_troop_pl|Tropa temporal
trp_find_item_cheat|encontrar objeto trampa
trp_find_item_cheat_pl|encontrar objeto trampa
trp_random_town_sequence|Secuencia al azar de la ciudad
trp_random_town_sequence_pl|Secuencia al azar de la ciudad
trp_tournament_participants|Participantes del torneo
trp_tournament_participants_pl|Participantes del torneo
trp_tutorial_maceman|Macero
trp_tutorial_maceman_pl|Macero
trp_tutorial_archer|Arquero
trp_tutorial_archer_pl|Arquero
trp_tutorial_swordsman|Espadachín
trp_tutorial_swordsman_pl|Espadachín
trp_novice_fighter|Luchador novicio
trp_novice_fighter_pl|Luchadores novicios
trp_regular_fighter|Luchador con experiencia
trp_regular_fighter_pl|Luchadores con experiencia
trp_veteran_fighter|Luchador veterano
trp_veteran_fighter_pl|Luchadores veteranos
trp_champion_fighter|Luchador campeón
trp_champion_fighter_pl|Luchadores campeones
trp_arena_training_fighter_1|Luchador novicio
trp_arena_training_fighter_1_pl|Luchadores novicios
trp_arena_training_fighter_2|Luchador novicio
trp_arena_training_fighter_2_pl|Luchadores novicios
trp_arena_training_fighter_3|Luchador con experiencia
trp_arena_training_fighter_3_pl|Luchadores con experiencia
trp_arena_training_fighter_4|Luchador con experiencia
trp_arena_training_fighter_4_pl|Luchadores con experiencia
trp_arena_training_fighter_5|Luchador con experiencia
trp_arena_training_fighter_5_pl|Luchadores con experiencia
trp_arena_training_fighter_6|Luchador veterano
trp_arena_training_fighter_6_pl|Luchadores veteranos
trp_arena_training_fighter_7|Luchador veterano
trp_arena_training_fighter_7_pl|Luchadores veteranos
trp_arena_training_fighter_8|Luchador veterano
trp_arena_training_fighter_8_pl|Luchadores veteranos
trp_arena_training_fighter_9|Luchador campeón
trp_arena_training_fighter_9_pl|Luchadores campeones
trp_arena_training_fighter_10|Luchador campeón
trp_arena_training_fighter_10_pl|Luchadores campeones
trp_cattle|Ganado
trp_cattle_pl|Ganado
trp_farmer|Granjero
trp_farmer_pl|Granjeros
trp_townsman|Ciudadano
trp_townsman_pl|Ciudadanos
trp_watchman|Vigilante
trp_watchman_pl|Vigilantes
trp_caravan_guard|Guardia de caravanas
trp_caravan_guard_pl|Guardias de caravanas
trp_mercenary_horseman|Jinete mercenario
trp_mercenary_horseman_pl|Jinetes mercenarios
trp_mercenary_cavalry|Caballero mercenario
trp_mercenary_cavalry_pl|Caballero mercenario
trp_mercenary_swordsman|Espadachín mercenario
trp_mercenary_swordsman_pl|Espadachines mercenarios
trp_genoese_crossbowman|Ballestero genovés
trp_genoese_crossbowman_pl|Ballestero genovés
trp_german_knight|Mercenario alemán
trp_german_knight_pl|Mercenarios alemanes
trp_hired_blade|Espada contratada
trp_hired_blade_pl|Espadas contratadas
trp_swiss_veteran_halberdier|Alabardero suizo
trp_swiss_veteran_halberdier_pl|Alabardero suizo
trp_coulveriners|Culebrinero
trp_coulveriners_pl|Culebrineros
trp_arquebusier|Arcabucero
trp_arquebusier_pl|Arcabuceros
trp_sang_lysrecruit|Mercenario del Lirio de sangre
trp_sang_lysrecruit_pl|Mercenario del Lirio de sangre
trp_mercenaries_end|fin mercenarios
trp_mercenaries_end_pl|fin mercenarios
trp_recruiter|Recluta
trp_recruiter_pl|Recluta
trp_monk|Monje
trp_monk_pl|Monjes
trp_lumberman|Leñador
trp_lumberman_pl|Leñadores
trp_priest|Sacerdote
trp_priest_pl|Sacerdotes
trp_executioner|Torturador
trp_executioner_pl|Torturador
trp_sentry|Centinela
trp_sentry_pl|Centinelas
trp_chaplain|Capellán
trp_chaplain_pl|Capellanes
trp_torturer|Verdugo
trp_torturer_pl|Verdugos
trp_bishop|Obispo
trp_bishop_pl|Obispos
trp_caravan_master|Maestro de caravanas
trp_caravan_master_pl|Maestros de caravanas
trp_rider|Jinete
trp_rider_pl|Jinetes
trp_mercenary_crossbowman|Ballestero mercenario
trp_mercenary_crossbowman_pl|Ballesteros mercenarios
trp_swadian_recruit|French Campesino
trp_swadian_recruit_pl|Campesinos franceses
trp_swadian_militia|Miliciano francés
trp_swadian_militia_pl|Milicianos franceses
trp_swadian_skirmisher|Escaramuzador francés
trp_swadian_skirmisher_pl|Escaramuzadores franceses
trp_french_javelinier|Arquero campesino francés
trp_french_javelinier_pl|Arqueros campesinos franceses
trp_french_bowmen|Arquero francés
trp_french_bowmen_pl|Arqueros franceses
trp_swadian_crossbowman|Ballesteros campesinos franceses
trp_swadian_crossbowman_pl|Ballestero campesino francés
trp_swadian_sharpshooter|Ballestero francés
trp_swadian_sharpshooter_pl|Ballesteros franceses
trp_swadian_footman|Hombre de armas francés
trp_swadian_footman_pl|Hombres de armas franceses
trp_french_spearmen|Piquero francés
trp_french_spearmen_pl|Piqueros franceses
trp_swadian_infantry|Sargento de armas francés
trp_swadian_infantry_pl|Sargentos de armas franceses
trp_french_hallebardier|Sargento archero francés
trp_french_hallebardier_pl|Sargentos archeros franceses
trp_french_pikemen|Sargento francés pesado
trp_french_pikemen_pl|Sargentos franceses pesados
trp_swadian_sergeant|Sargento montado francés
trp_swadian_sergeant_pl|Sargentos montados franceses
trp_swadian_man_at_arms|Escudero francés
trp_swadian_man_at_arms_pl|Escuderos franceses
trp_swadian_knight|Caballero francés graduado
trp_swadian_knight_pl|Caballeros franceses graduados
trp_french_chevalier_banneret|Caballero francés banneret
trp_french_chevalier_banneret_pl|Caballeros franceses bannerets
trp_french_chevalier_lancier|Lancero francés
trp_french_chevalier_lancier_pl|Lanceros franceses
trp_french_chevalier_bachelier_a_pied|Caballero francés graduado a pie
trp_french_chevalier_bachelier_a_pied_pl|Caballeros franceses graduados a pie
trp_french_chevalier_banneret_a_pied|Caballero francés banneret a pie
trp_french_chevalier_banneret_a_pied_pl|Caballeros franceses bannerets a pie
trp_french_chevalier_lancier_a_pied|Lancero francés a pie
trp_french_chevalier_lancier_a_pied_pl|Lanceros franceses a pie
trp_swadian_messenger|Mensajero francés
trp_swadian_messenger_pl|Mensajeros franceses
trp_swadian_deserter|Desertor francés
trp_swadian_deserter_pl|Desertores franceses
trp_swadian_prison_guard|Guardia de la prisión
trp_swadian_prison_guard_pl|Guardias de la prisión
trp_swadian_castle_guard|Guardia del castillo
trp_swadian_castle_guard_pl|Guardias del castillo
trp_coulveriners_f|Culebrinero francés
trp_coulveriners_f_pl|Culebrineros franceses
trp_arquebusier_f|Arcabuceros francés
trp_arquebusier_f_pl|Arcabuceros francés
trp_vaegir_recruit|Campesino inglés
trp_vaegir_recruit_pl|Campesinos ingleses
trp_vaegir_footman|Milicia urbana inglesa
trp_vaegir_footman_pl|Milicia urbana inglesa
trp_vaegir_skirmisher|Campesino arquero inglés
trp_vaegir_skirmisher_pl|Arqueros ingleses campesinos
trp_vaegir_archer|Arqueros hacendados ingleses
trp_vaegir_archer_pl|Arqueros hacendados ingleses
trp_vaegir_marksman|Arquero largo inglés
trp_vaegir_marksman_pl|Arqueros largos ingleses
trp_english_peasant_crossbowman|Ballestero campesino inglés
trp_english_peasant_crossbowman_pl|Ballesteros campesinos ingleses
trp_english_spearman|Lancero de leva inglés
trp_english_spearman_pl|Lanceros de leva ingleses
trp_vaegir_veteran|Hombre de armas inglés
trp_vaegir_veteran_pl|Hombres de armas ingleses
trp_english_pikeman|Sargento armado inglés
trp_english_pikeman_pl|Sargentos armados ingleses
trp_english_halberdier|Alabardero inglés
trp_english_halberdier_pl|Alabarderos ingleses
trp_vaegir_infantry|Sargento montado inglés
trp_vaegir_infantry_pl|Sargentos montados ingleses
trp_vaegir_guard|Sargento de armas inglés
trp_vaegir_guard_pl|Sargentos de armas ingleses
trp_vaegir_horseman|Escudero inglés
trp_vaegir_horseman_pl|Escuderos ingleses
trp_vaegir_knight|Caballero inglés
trp_vaegir_knight_pl|Caballeros ingleses
trp_english_dismounted_knight|Caballero desmontado inglés
trp_english_dismounted_knight_pl|Caballeros desmontados ingleses
trp_vaegir_messenger|Mensajero inglés
trp_vaegir_messenger_pl|Mensajeros ingleses
trp_vaegir_deserter|Desertor inglés
trp_vaegir_deserter_pl|Desertores ingleses
trp_vaegir_prison_guard|Guardia de la prisión
trp_vaegir_prison_guard_pl|Guardias de la prisión
trp_vaegir_castle_guard|Guardia del castillo
trp_vaegir_castle_guard_pl|Guardias del castillos
trp_coulveriners_anglais|Culebrinero inglés
trp_coulveriners_anglais_pl|Culebrineros ingleses
trp_bourg_recruit|Recluta borgoñón
trp_bourg_recruit_pl|Reclutas borgoñones
trp_bourg_veteran|Borgoñón veterano
trp_bourg_veteran_pl|Borgoñones veteranos
trp_bourg_archer|Arquero borgoñón
trp_bourg_archer_pl|Arqueros borgoñones
trp_bourg_skirmisher|Arquero campesino borgoñón
trp_bourg_skirmisher_pl|Arqueros campesinos borgoñones
trp_bourg_marksman|Arquero pesado borgoñón
trp_bourg_marksman_pl|Arqueros pesados borgoñones
trp_bourg_pikeman|Piquero borgoñón
trp_bourg_pikeman_pl|Piqueros pesados borgoñones
trp_bourg_horseman|Escudero borgoñón
trp_bourg_horseman_pl|Escuderos borgoñones
trp_bourg_dismounted_knight|Caballero borgoñón a pie
trp_bourg_dismounted_knight_pl|Caballeros borgoñones a pie
trp_bourg_halberdier|Alabardero borgoñón
trp_bourg_halberdier_pl|Alabarderos borgoñones
trp_bourg_infantry|Sargento caballero borgoñón
trp_bourg_infantry_pl|Sargentos caballeros borgoñones
trp_bourg_footman|Miliciano borgoñón
trp_bourg_footman_pl|Milicianos borgoñones
trp_bourg_guard|Guardia borgoñón
trp_bourg_guard_pl|Guardias borgoñones
trp_bourg_peasant_crossbowman|Ballestero borgoñón
trp_bourg_peasant_crossbowman_pl|Ballesteros borgoñones
trp_bourg_spearman|Archero borgoñón
trp_bourg_spearman_pl|Archeros borgoñones
trp_bourg_knight|Caballero borgoñón
trp_bourg_knight_pl|Caballeros borgoñones
trp_bourg_messenger|Mensajero borgoñón
trp_bourg_messenger_pl|Mensajeros borgoñones
trp_bourg_deserter|Desertor borgoñón
trp_bourg_deserter_pl|Desertores borgoñones
trp_bourg_prison_guard|Guardia de mazmorra borgoñón
trp_bourg_prison_guard_pl|Guardias de mazmorra borgoñones
trp_bourg_castle_guard|Guardia de mazmorra borgoñón
trp_bourg_castle_guard_pl|Guardias de mazmorra borgoñones
trp_looter|Saqueador
trp_looter_pl|Saqueadores
trp_bandit|Bandido
trp_bandit_pl|Bandidos
trp_brigand|Bandido
trp_brigand_pl|Bandidos
trp_mountain_bandit|Bandido de las montañas
trp_mountain_bandit_pl|Bandidos de las montañas
trp_forest_bandit|Bandido del bosque
trp_forest_bandit_pl|Bandidos del bosque
trp_sea_raider|Pirata
trp_sea_raider_pl|Piratas
trp_steppe_bandit|Bandido saqueador
trp_steppe_bandit_pl|Bandidos saqueadores
trp_taiga_bandit|Bandido de la taiga
trp_taiga_bandit_pl|Bandidos de la taiga
trp_desert_bandit|Bandido del desierto
trp_desert_bandit_pl|Bandidos del desierto
trp_black_khergit_horseman|Jinete negro khergita
trp_black_khergit_horseman_pl|Jinetes negros khergitas
trp_manhunter|Cazahombres
trp_manhunter_pl|Cazahombres
trp_slave_driver|Esclavista
trp_slave_driver_pl|Esclavistas
trp_slave_hunter|Cazador de esclavos
trp_slave_hunter_pl|Cazadores de esclavos
trp_slave_crusher|Castigador
trp_slave_crusher_pl|Castigador
trp_slaver_chief|Jefe esclavista
trp_slaver_chief_pl|Jefe esclavista
trp_follower_woman|Combatiente aprendiz
trp_follower_woman_pl|Combatientes aprendices
trp_hunter_woman|defensor
trp_hunter_woman_pl|defensores
trp_fighter_woman|Vengador
trp_fighter_woman_pl|Vengadores
trp_sword_sister|Héroe incorruptible
trp_sword_sister_pl|Héroes incorruptibles
trp_refugee|Refugiado
trp_refugee_pl|Refugiados
trp_peasant_woman|Campesino revolucionario
trp_peasant_woman_pl|Campesinos revolucionarios
trp_kidnapped_girl|Chica raptada
trp_kidnapped_girl_pl|Chica raptada
trp_town_walker_1|Aldeano
trp_town_walker_1_pl|Aldeanas
trp_town_walker_2|Aldeana
trp_town_walker_2_pl|Aldeanas
trp_khergit_townsman|Aldeano
trp_khergit_townsman_pl|Aldeanos
trp_khergit_townswoman|Aldeana
trp_khergit_townswoman_pl|Aldeanas
trp_sarranid_townsman|Aldeano
trp_sarranid_townsman_pl|Aldeanos
trp_sarranid_townswoman|Aldeana
trp_sarranid_townswoman_pl|Aldeanas
trp_village_walker_1|Aldeano
trp_village_walker_1_pl|Aldeanos
trp_village_walker_2|Aldeano
trp_village_walker_2_pl|Aldeanos
trp_spy_walker_1|Aldeano
trp_spy_walker_1_pl|Aldeanas
trp_spy_walker_2|Aldeana
trp_spy_walker_2_pl|Aldeanas
trp_tournament_master|Maestro de torneos
trp_tournament_master_pl|Maestro de torneos
trp_trainer|Entrenador
trp_trainer_pl|Entrenador
trp_constable_hareck|Condestable Hareck
trp_constable_hareck_pl|Condestable Hareck
trp_ramun_the_slave_trader|Ramun, el comerciante de esclavos
trp_ramun_the_slave_trader_pl|Ramun, el comerciante de esclavos
trp_guide|Quick Jimmy
trp_guide_pl|Quick Jimmy
trp_xerina|Xerina
trp_xerina_pl|Xerina
trp_dranton|Dranton
trp_dranton_pl|Dranton
trp_kradus|Kradus
trp_kradus_pl|Kradus
trp_tutorial_trainer|Instructor
trp_tutorial_trainer_pl|Instructor
trp_galeas|Galeas
trp_galeas_pl|Galeas
trp_farmer_from_bandit_village|Granjero
trp_farmer_from_bandit_village_pl|Granjeros
trp_trainer_1|Entrenador
trp_trainer_1_pl|Entrenador
trp_trainer_2|Entrenador
trp_trainer_2_pl|Entrenador
trp_trainer_3|Entrenador
trp_trainer_3_pl|Entrenador
trp_trainer_4|Entrenador
trp_trainer_4_pl|Entrenador
trp_trainer_5|Entrenador
trp_trainer_5_pl|Entrenador
trp_ransom_broker_1|Comisionista de rescates
trp_ransom_broker_1_pl|Comisionista de rescates
trp_ransom_broker_2|Comisionista de rescates
trp_ransom_broker_2_pl|Comisionista de rescates
trp_ransom_broker_3|Comisionista de rescates
trp_ransom_broker_3_pl|Comisionista de rescates
trp_ransom_broker_4|Comisionista de rescates
trp_ransom_broker_4_pl|Comisionista de rescates
trp_ransom_broker_5|Comisionista de rescates
trp_ransom_broker_5_pl|Comisionista de rescates
trp_ransom_broker_6|Comisionista de rescates
trp_ransom_broker_6_pl|Comisionista de rescates
trp_ransom_broker_7|Comisionista de rescates
trp_ransom_broker_7_pl|Comisionista de rescates
trp_ransom_broker_8|Comisionista de rescates
trp_ransom_broker_8_pl|Comisionista de rescates
trp_ransom_broker_9|Comisionista de rescates
trp_ransom_broker_9_pl|Comisionista de rescates
trp_ransom_broker_10|Comisionista de rescates
trp_ransom_broker_10_pl|Comisionista de rescates
trp_tavern_traveler_1|Viajero
trp_tavern_traveler_1_pl|Viajero
trp_tavern_traveler_2|Viajero
trp_tavern_traveler_2_pl|Viajero
trp_tavern_traveler_3|Viajero
trp_tavern_traveler_3_pl|Viajero
trp_tavern_traveler_4|Viajero
trp_tavern_traveler_4_pl|Viajero
trp_tavern_traveler_5|Viajero
trp_tavern_traveler_5_pl|Viajero
trp_tavern_traveler_6|Viajero
trp_tavern_traveler_6_pl|Viajero
trp_tavern_traveler_7|Viajero
trp_tavern_traveler_7_pl|Viajero
trp_tavern_traveler_8|Viajero
trp_tavern_traveler_8_pl|Viajero
trp_tavern_traveler_9|Viajero
trp_tavern_traveler_9_pl|Viajero
trp_tavern_traveler_10|Viajero
trp_tavern_traveler_10_pl|Viajero
trp_tavern_bookseller_1|Mercader de libros
trp_tavern_bookseller_1_pl|Mercader de libros
trp_tavern_bookseller_2|Mercader de libros
trp_tavern_bookseller_2_pl|Mercader de libros
trp_tavern_minstrel_1|Juglar
trp_tavern_minstrel_1_pl|Minstrel
trp_tavern_minstrel_2|Bardo
trp_tavern_minstrel_2_pl|Minstrel
trp_tavern_minstrel_3|Poeta
trp_tavern_minstrel_3_pl|Minstrel
trp_tavern_minstrel_4|Escaldo
trp_tavern_minstrel_4_pl|Minstrel
trp_tavern_minstrel_5|Trovador
trp_tavern_minstrel_5_pl|Minstrel
trp_kingdom_heroes_including_player_begin|Comienzo héroes del reino incluyendo al jugador
trp_kingdom_heroes_including_player_begin_pl|Comienzo héroes del reino incluyendo al jugador
trp_npc1|Ulrich
trp_npc1_pl|Ulrich
trp_npc2|Nicholas
trp_npc2_pl|Nicholas
trp_npc3|Red Stewart
trp_npc3_pl|Red Stewart
trp_npc4|Rolf
trp_npc4_pl|Rolf
trp_npc5|Marius
trp_npc5_pl|Marius
trp_npc6|Hugues
trp_npc6_pl|Hugues
trp_npc7|Deshavi
trp_npc7_pl|Deshavi
trp_npc8|Black Stewart
trp_npc8_pl|Black Stewart
trp_npc9|Enguerrand
trp_npc9_pl|Enguerrand
trp_npc10|Sir John
trp_npc10_pl|Sir John
trp_npc11|Katrin
trp_npc11_pl|Katrin
trp_npc12|Padre Anthony
trp_npc12_pl|Padre Anthony
trp_npc13|Guillaume
trp_npc13_pl|Guillaume
trp_npc14|Michel
trp_npc14_pl|Michel
trp_npc15|Jacques
trp_npc15_pl|Jacques
trp_npc16|Klethi
trp_npc16_pl|Klethi
trp_kingdom_1_lord|Carlos V, Rey de Francia
trp_kingdom_1_lord_pl|Kingdom 1 Lord
trp_kingdom_2_lord|Eduardo lll, Rey de Inglaterra
trp_kingdom_2_lord_pl|Eduardo lll, Rey de Inglaterra
trp_kingdom_3_lord|Philip le bon duque de Borgoña
trp_kingdom_3_lord_pl|Philip le bon
trp_knight_1_1|Alain de Rohan
trp_knight_1_1_pl|Alain de Rohan
trp_knight_1_2|Allain de La Houssoye
trp_knight_1_2_pl|Allain de La Houssoye
trp_knight_1_3|Gilles de rais
trp_knight_1_3_pl|Gilles de rais
trp_knight_1_4|Arnaud-Amanieu d'Albret
trp_knight_1_4_pl|Arnaud-Amanieu d'Albret
trp_knight_1_5|Juana de Arco
trp_knight_1_5_pl|Juana de Arco
trp_knight_1_6|Aymon de Pommiers
trp_knight_1_6_pl|Aymon de Pommiers
trp_knight_1_7|Baudoin d'Ennequin
trp_knight_1_7_pl|Baudoin d'Ennequin
trp_knight_1_8|Beraud d'Agrain
trp_knight_1_8_pl|Beraud d'Agrain
trp_knight_1_9|Bertrand du Guesclin
trp_knight_1_9_pl|Bertrand du Guesclin
trp_knight_1_10|Bouchard de Vendome
trp_knight_1_10_pl|Bouchard de Vendome
trp_knight_1_11|Bureau de La Riviere
trp_knight_1_11_pl|Bureau de La Riviere
trp_knight_1_12|Gilles de montmorencie
trp_knight_1_12_pl|Gilles de montmorencie
trp_knight_1_13|Charles de Dinan
trp_knight_1_13_pl|Charles de Dinan
trp_knight_1_14|Charles de Montmorency
trp_knight_1_14_pl|Charles de Montmorency
trp_knight_1_15|Charles de Trie
trp_knight_1_15_pl|Charles de Trie
trp_knight_1_16|Enguerrand de Coucy
trp_knight_1_16_pl|Enguerrand de Coucy
trp_knight_1_17|Enguerrand d'Eudin
trp_knight_1_17_pl|Enguerrand d'Eudin
trp_knight_1_18|Gauvain de Bailleul
trp_knight_1_18_pl|Gauvain de Bailleul
trp_knight_1_19|Gui de Laval
trp_knight_1_19_pl|Gui de Laval
trp_knight_1_20|Hector de Bailleul
trp_knight_1_20_pl|Hector de Bailleul
trp_knight_2_1|Nigel Loring
trp_knight_2_1_pl|Nigel Loring
trp_knight_2_2|Amaury de Craon
trp_knight_2_2_pl|Amaury de Craon
trp_knight_2_3|Bartholomew de Burghersh
trp_knight_2_3_pl|Bartholomew de Burghersh
trp_knight_2_4|Charles de Chatillon
trp_knight_2_4_pl|Charles de Chatillon
trp_knight_2_5|Edmund de Langley
trp_knight_2_5_pl|Edmund de Langley
trp_knight_2_6|Edward Le Despencer
trp_knight_2_6_pl|Edward Le Despencer
trp_knight_2_7|Eduardo, el Principe Negro
trp_knight_2_7_pl|Eduardo, el Principe Negro
trp_knight_2_8|Guichard d'Angle
trp_knight_2_8_pl|Guichard d'Angle
trp_knight_2_9|Guillaume de Beauchamp
trp_knight_2_9_pl|Guillaume de Beauchamp
trp_knight_2_10|Guy de Gauville
trp_knight_2_10_pl|Guy de Gauville
trp_knight_2_11|Hugh Calveley
trp_knight_2_11_pl|Hugh Calveley
trp_knight_2_12|Humphrey de Bohun
trp_knight_2_12_pl|Humphrey de Bohun
trp_knight_2_13|James Audeley
trp_knight_2_13_pl|James Audeley
trp_knight_2_14|Jean de Bretaña
trp_knight_2_14_pl|Jean de Bretaña
trp_knight_2_15|Jean de Harpedanne
trp_knight_2_15_pl|Jean de Harpedanne
trp_knight_2_16|Jean d'Harcourt
trp_knight_2_16_pl|Jean d'Harcourt
trp_knight_2_17|Johan de Grailly
trp_knight_2_17_pl|Johan de Grailly
trp_knight_2_18|John Chandos
trp_knight_2_18_pl|John Chandos
trp_knight_2_19|John Hastings
trp_knight_2_19_pl|John Hastings
trp_knight_2_20|John Hawkwood
trp_knight_2_20_pl|John Hawkwood
trp_knight_3_1|Jean d'Armagnac
trp_knight_3_1_pl|Jean d'Armagnac
trp_knight_3_2|Jean d'Artois
trp_knight_3_2_pl|Jean d'Artois
trp_knight_3_3|Jean de Beaumanoir
trp_knight_3_3_pl|Jean de Beaumanoir
trp_knight_3_4|Jean de Berry
trp_knight_3_4_pl|Jean de Berry
trp_knight_3_5|Jean de Beu
trp_knight_3_5_pl|Jean de Beu
trp_knight_3_6|Jean de Beuil
trp_knight_3_6_pl|Jean de Beuil
trp_knight_3_7|Jean de Bourbon-La Marche
trp_knight_3_7_pl|Jean de Bourbon-La Marche
trp_knight_3_8|Jean de Chalon
trp_knight_3_8_pl|Jean de Chalon
trp_knight_3_9|Jean de Chatillon
trp_knight_3_9_pl|Jean de Chatillon
trp_knight_3_10|Jean de Landas
trp_knight_3_10_pl|Jean de Landas
trp_knight_3_11|Jean de Mauquenchy
trp_knight_3_11_pl|Jean de Mauquenchy
trp_knight_3_12|Jean de Melun
trp_knight_3_12_pl|Jean de Melun
trp_knight_3_13|Jean de Sancerre
trp_knight_3_13_pl|Jean de Sancerre
trp_knight_3_14|Jean de Sempy
trp_knight_3_14_pl|Jean de Sempy
trp_knight_3_15|Jean de Vienne
trp_knight_3_15_pl|ean de Vienne
trp_knight_3_16|Louis d'Anjou
trp_knight_3_16_pl|Louis d'Anjou
trp_knight_3_17|Louis de Bourbon
trp_knight_3_17_pl|Louis de Bourbon
trp_knight_3_18|Louis de Haveskerques
trp_knight_3_18_pl|Louis de Haveskerques
trp_knight_3_19|Louis de Rochechouart
trp_knight_3_19_pl|Louis de Rochechouart
trp_knight_3_20|Louis de Sancerre
trp_knight_3_20_pl|Louis de Sancerre
trp_knight_4_1|John Montacute
trp_knight_4_1_pl|John Montacute
trp_knight_4_2|John of Gaunt
trp_knight_4_2_pl|John of Gaunt
trp_knight_4_3|Leger d'Orgesy
trp_knight_4_3_pl|Leger d'Orgesy
trp_knight_4_4|Lionel of Antwerp
trp_knight_4_4_pl|Lionel of Antwerp
trp_knight_4_5|Lord de La Ware
trp_knight_4_5_pl|Lord de La Ware
trp_knight_4_6|Maurice de Berkeley
trp_knight_4_6_pl|Maurice de Berkeley
trp_knight_4_7|Nicolas d'Agworth
trp_knight_4_7_pl|Nicolas d'Agworth
trp_knight_4_8|Oudart de Renty
trp_knight_4_8_pl|Oudart de Renty
trp_knight_4_9|Perceval de Coulanges
trp_knight_4_9_pl|Perceval de Coulanges
trp_knight_4_10|Pierre Raymond de Comminges
trp_knight_4_10_pl|Pierre Raymond de Comminges
trp_knight_4_11|Ralph Stafford
trp_knight_4_11_pl|Ralph Stafford
trp_knight_4_12|Regnault de Cobham
trp_knight_4_12_pl|Regnault de Cobham
trp_knight_4_13|Robert de Scales
trp_knight_4_13_pl|Robert de Scales
trp_knight_4_14|Robert de Vere
trp_knight_4_14_pl|Robert de Vere
trp_knight_4_15|Robert Knolles
trp_knight_4_15_pl|Robert Knolles
trp_knight_4_16|Robert Morton
trp_knight_4_16_pl|Robert Morton
trp_knight_4_17|Seguin de Badefol
trp_knight_4_17_pl|Seguin de Badefol
trp_knight_4_18|Sennebrun de Curton
trp_knight_4_18_pl|Sennebrun de Curton
trp_knight_4_19|Thomas de Beauchamp
trp_knight_4_19_pl|Thomas de Beauchamp
trp_knight_4_20|Thomas Holland
trp_knight_4_20_pl|Thomas Holland
trp_knight_5_1|Thomas Percy
trp_knight_5_1_pl|Thomas Percy
trp_knight_5_2|Walter de Manny
trp_knight_5_2_pl|Walter de Manny
trp_knight_5_3|William Montacute
trp_knight_5_3_pl|William Montacute
trp_knight_5_4|William of Namur
trp_knight_5_4_pl|William of Namur
trp_knight_5_5|William wales
trp_knight_5_5_pl|William wales
trp_knight_5_6|Arnaud Amanieu
trp_knight_5_6_pl|Arnaud Amanieu
trp_knight_5_7|Alfred Mauny
trp_knight_5_7_pl|Alfred Mauny
trp_knight_5_8|Georges de La Tremoille
trp_knight_5_8_pl|Georges de La Tremoille
trp_knight_5_9|Arnaud Guilhem
trp_knight_5_9_pl|Arnaud Guilhem
trp_knight_5_11|Olivier de Clisson
trp_knight_5_11_pl|Olivier de Clisson
trp_knight_5_12|Olivier de Mauny
trp_knight_5_12_pl|Olivier de Mauny
trp_knight_5_13|Olivier de Miniac
trp_knight_5_13_pl|Olivier de Miniac
trp_knight_5_14|Petiton de Curton
trp_knight_5_14_pl|Petiton de Curton
trp_knight_5_15|Philippe d'Orleans
trp_knight_5_15_pl|Philippe d'Orleans
trp_knight_5_16|Philippe le Hardi
trp_knight_5_16_pl|Philippe le Hardi
trp_knight_5_17|Pierre d'Alencon
trp_knight_5_17_pl|Pierre d'Alencon
trp_knight_5_18|Pierre de Villiers
trp_knight_5_18_pl|Pierre de Villiers
trp_knight_5_19|Robert de Bar
trp_knight_5_19_pl|Robert de Bar
trp_knight_5_20|Robert de Beaumanoir
trp_knight_5_20_pl|Robert de Beaumanoir
trp_knight_6_1|Robert de Fiennes
trp_knight_6_1_pl|Robert de Fiennes
trp_knight_6_2|Robert de Saint Pere
trp_knight_6_2_pl|Robert de Saint Pere
trp_knight_6_3|Silvestre Bude
trp_knight_6_3_pl|Silvestre Bude
trp_knight_6_4|Thibaut du Pont
trp_knight_6_4_pl|Thibaut du Pont
trp_knight_6_5|charles le temeraire
trp_knight_6_5_pl|charles le temeraire
trp_knight_6_6|jacques de savoie
trp_knight_6_6_pl|jacques de savoie
trp_knight_6_7|rené de Loraine
trp_knight_6_7_pl|rené de Loraine
trp_knight_6_8|nicolas de Montfort
trp_knight_6_8_pl|nicolas de Montfort
trp_knight_6_9|thomas basin
trp_knight_6_9_pl|thomas basin
trp_knight_6_10|Simon Wales
trp_knight_6_10_pl|Simon Wales
trp_knight_6_11|Edward Moring
trp_knight_6_11_pl|Edward Moring
trp_knight_6_12|Jhon Campt
trp_knight_6_12_pl|Jhon Campt
trp_knight_6_13|Hugues Andres
trp_knight_6_13_pl|Hugues Andres
trp_knight_6_14|Marcus Hiwan
trp_knight_6_14_pl|Marcus Hiwan
trp_knight_6_15|James Hartley
trp_knight_6_15_pl|James Hartley
trp_knight_6_16|James Handrew
trp_knight_6_16_pl|James Handrew
trp_knight_6_17|Jhon Liman
trp_knight_6_17_pl|Jhon Liman
trp_knight_6_18|Richard Tilsman
trp_knight_6_18_pl|Richard Tilsman
trp_knight_6_19|Jean Bursh
trp_knight_6_19_pl|Jean Bursh
trp_knight_6_20|Pierre de Montferrand
trp_knight_6_20_pl|Pierre de Montferrand
trp_knight_6_21|Walter Hungerford
trp_knight_6_21_pl|Walter Hungerford
trp_knight_6_22|William Phelip
trp_knight_6_22_pl|William Phelip
trp_knight_6_23|Nicolas Rolin
trp_knight_6_23_pl|Nicolas Rolin
trp_knight_6_24|Jean V de Bretaña
trp_knight_6_24_pl|Jean V de Bretaña
trp_knight_6_25|Jean II de Luxemburgo
trp_knight_6_25_pl|Jean II de Luxemburgo
trp_knight_6_26|Jean de Fourneille
trp_knight_6_26_pl|Jean de Fourneille
trp_knight_6_27|Claude de Chastellux
trp_knight_6_27_pl|Claude de Chastellux
trp_knight_6_28|Guillaume IV de Viena
trp_knight_6_28_pl|Guillaume IV de Viena
trp_knight_6_29|Regnier Pot
trp_knight_6_29_pl|Regnier Pot
trp_knight_6_30|Albert de Macon
trp_knight_6_30_pl|Albert de Macon
trp_kingdom_1_pretender|Blanca I de Navarra
trp_kingdom_1_pretender_pl|Blanca I de Navarra
trp_kingdom_2_pretender|Owain Lawgoch
trp_kingdom_2_pretender_pl|Owain Lawgoch
trp_kingdom_3_pretender|Hugues de Lannoy
trp_kingdom_3_pretender_pl|Hugues de Lannoy
trp_knight_1_1_wife|Error - knight 1 1 wife should not appear in game
trp_knight_1_1_wife_pl|knight 1 1 wife
trp_kingdom_1_lady_1|Lady Beatrice de Clisson
trp_kingdom_1_lady_1_pl|Beatrice de Clisson
trp_kingdom_1_lady_2|Joan de Kent
trp_kingdom_1_lady_2_pl|Joan de Kent
trp_knight_1_lady_3|Lady Beatrice de Chalon
trp_knight_1_lady_3_pl|Beatrice de Chalon
trp_knight_1_lady_4|Lady Margaret de Bourbon
trp_knight_1_lady_4_pl|Margaret de Bourbon
trp_kingdom_l_lady_5|Lady Constanis
trp_kingdom_l_lady_5_pl|Constanis
trp_kingdom_1_lady_6|Philippa de Hainault
trp_kingdom_1_lady_6_pl|Philippa de Hainault
trp_kingdom_1_lady_7|Lady Isabella de Coucy
trp_kingdom_1_lady_7_pl|Isabella de Coucy
trp_kingdom_1_lady_8|Lady Violante
trp_kingdom_1_lady_8_pl|Violante
trp_kingdom_1_lady_9|Infanta Isabela de Castilla
trp_kingdom_1_lady_9_pl|Isabela de Castilla
trp_kingdom_1_lady_10|Catherine de Vernon
trp_kingdom_1_lady_10_pl|Catherine de Vernon
trp_kingdom_1_lady_11|Lady Alice Holland
trp_kingdom_1_lady_11_pl|Alice Holland
trp_kingdom_1_lady_12|Joanna de Bourbon
trp_kingdom_1_lady_12_pl|Joanna de Bourbon
trp_kingdom_l_lady_13|Lady Isabella de Valois
trp_kingdom_l_lady_13_pl|Isabella de Valois
trp_kingdom_1_lady_14|Lady Tiphaine
trp_kingdom_1_lady_14_pl|Tiphaine
trp_kingdom_1_lady_15|Lady Isabelle de Bourbon
trp_kingdom_1_lady_15_pl|Isabelle de Bourbon
trp_kingdom_1_lady_16|Lady Jeanne de Coucy
trp_kingdom_1_lady_16_pl|Jeanne de Coucy
trp_kingdom_1_lady_17|Lady Petronille ou Pernelle de Villiers
trp_kingdom_1_lady_17_pl|Petronille ou Pernelle de Villiers
trp_kingdom_1_lady_18|Lady Isabeau de Craon
trp_kingdom_1_lady_18_pl|Isabeau de Craon
trp_kingdom_1_lady_19|Lady Cecily de Weyland
trp_kingdom_1_lady_19_pl|Cecily de Weyland
trp_kingdom_1_lady_20|Lady Elizabeth Burghersh
trp_kingdom_1_lady_20_pl|Elizabeth Burghersh
trp_kingdom_2_lady_1|Lady Cicely
trp_kingdom_2_lady_1_pl|Cicely
trp_kingdom_2_lady_2|Lady Katia
trp_kingdom_2_lady_2_pl|Katia
trp_kingdom_2_lady_3|Lady Seomis
trp_kingdom_2_lady_3_pl|Seomis
trp_kingdom_2_lady_4|Lady Drina
trp_kingdom_2_lady_4_pl|Drina
trp_kingdom_2_lady_5|Lady Nesha
trp_kingdom_2_lady_5_pl|Nesha
trp_kingdom_2_lady_6|Lady Tabath
trp_kingdom_2_lady_6_pl|Tabath
trp_kingdom_2_lady_7|Lady Pelaeka
trp_kingdom_2_lady_7_pl|Pelaeka
trp_kingdom_2_lady_8|Lady Haris
trp_kingdom_2_lady_8_pl|Haris
trp_kingdom_2_lady_9|Lady Vayen
trp_kingdom_2_lady_9_pl|Vayen
trp_kingdom_2_lady_10|Lady Joaka
trp_kingdom_2_lady_10_pl|Joaka
trp_kingdom_2_lady_11|Lady Tejina
trp_kingdom_2_lady_11_pl|Tejina
trp_kingdom_2_lady_12|Lady Olekseia
trp_kingdom_2_lady_12_pl|Olekseia
trp_kingdom_2_lady_13|Lady Myntha
trp_kingdom_2_lady_13_pl|Myntha
trp_kingdom_2_lady_14|Lady Akilina
trp_kingdom_2_lady_14_pl|Akilina
trp_kingdom_2_lady_15|Lady Sepana
trp_kingdom_2_lady_15_pl|Sepana
trp_kingdom_2_lady_16|Lady Iarina
trp_kingdom_2_lady_16_pl|Iarina
trp_kingdom_2_lady_17|Lady Sihavan
trp_kingdom_2_lady_17_pl|Sihavan
trp_kingdom_2_lady_18|Lady Erenchina
trp_kingdom_2_lady_18_pl|Erenchina
trp_kingdom_2_lady_19|Lady Tamar
trp_kingdom_2_lady_19_pl|Tamar
trp_kingdom_2_lady_20|Lady Valka
trp_kingdom_2_lady_20_pl|Valka
trp_kingdom_3_lady_1|Lady Borge
trp_kingdom_3_lady_1_pl|Borge
trp_kingdom_3_lady_2|Lady Tuan
trp_kingdom_3_lady_2_pl|Tuan
trp_kingdom_3_lady_3|Lady Mahraz
trp_kingdom_3_lady_3_pl|Mahraz
trp_kingdom_3_lady_4|Lady Ayasu
trp_kingdom_3_lady_4_pl|Ayasu
trp_kingdom_3_lady_5|Lady Ravin
trp_kingdom_3_lady_5_pl|Ravin
trp_kingdom_3_lady_6|Lady Ruha
trp_kingdom_3_lady_6_pl|Ruha
trp_kingdom_3_lady_7|Lady Chedina
trp_kingdom_3_lady_7_pl|Chedina
trp_kingdom_3_lady_8|Lady Kefra
trp_kingdom_3_lady_8_pl|Kefra
trp_kingdom_3_lady_9|Lady Nirvaz
trp_kingdom_3_lady_9_pl|Nirvaz
trp_kingdom_3_lady_10|Lady Dulua
trp_kingdom_3_lady_10_pl|Dulua
trp_kingdom_3_lady_11|Lady Selik
trp_kingdom_3_lady_11_pl|Selik
trp_kingdom_3_lady_12|Lady Thalatha
trp_kingdom_3_lady_12_pl|Thalatha
trp_kingdom_3_lady_13|Lady Yasreen
trp_kingdom_3_lady_13_pl|Yasreen
trp_kingdom_3_lady_14|Lady Nadha
trp_kingdom_3_lady_14_pl|Nadha
trp_kingdom_3_lady_15|Lady Zenur
trp_kingdom_3_lady_15_pl|Zenur
trp_kingdom_3_lady_16|Lady Arjis
trp_kingdom_3_lady_16_pl|Zenur
trp_kingdom_3_lady_17|Lady Atjahan
trp_kingdom_3_lady_17_pl|Atjahan
trp_kingdom_3_lady_18|Lady Qutala
trp_kingdom_3_lady_18_pl|Qutala
trp_kingdom_3_lady_19|Lady Hindal
trp_kingdom_3_lady_19_pl|Hindal
trp_kingdom_3_lady_20|Lady Mechet
trp_kingdom_3_lady_20_pl|Mechet
trp_kingdom_4_lady_1|Lady Jadeth
trp_kingdom_4_lady_1_pl|Jadeth
trp_kingdom_4_lady_2|Lady Miar
trp_kingdom_4_lady_2_pl|Miar
trp_kingdom_4_lady_3|Lady Dria
trp_kingdom_4_lady_3_pl|Dria
trp_kingdom_4_lady_4|Lady Glunde
trp_kingdom_4_lady_4_pl|Glunde
trp_kingdom_4_lady_5|Lady Loeka
trp_kingdom_4_lady_5_pl|Loeka
trp_kingdom_4_lady_6|Lady Bryn
trp_kingdom_4_lady_6_pl|Bryn
trp_kingdom_4_lady_7|Lady Eir
trp_kingdom_4_lady_7_pl|Eir
trp_knight_4_2b_daughter_1|Lady Thera
trp_knight_4_2b_daughter_1_pl|Thera
trp_kingdom_4_lady_9|Lady Hild
trp_kingdom_4_lady_9_pl|Hild
trp_knight_4_2c_wife_1|Lady Endegrid
trp_knight_4_2c_wife_1_pl|Endegrid
trp_kingdom_4_lady_11|Lady Herjasa
trp_kingdom_4_lady_11_pl|Herjasa
trp_knight_4_2c_daughter|Lady Svipul
trp_knight_4_2c_daughter_pl|Svipul
trp_knight_4_1b_wife|Lady Ingunn
trp_knight_4_1b_wife_pl|Ingunn
trp_kingdom_4_lady_14|Lady Kaeteli
trp_kingdom_4_lady_14_pl|Kaeteli
trp_knight_4_1b_daughter|Lady Eilif
trp_knight_4_1b_daughter_pl|Eilif
trp_knight_4_2b_daughter_2|Lady Gudrun
trp_knight_4_2b_daughter_2_pl|Gudrun
trp_kingdom_4_lady_17|Lady Bergit
trp_kingdom_4_lady_17_pl|Bergit
trp_knight_4_2c_wife_2|Lady Aesa
trp_knight_4_2c_wife_2_pl|Aesa
trp_knight_4_1c_daughter|Lady Alfrun
trp_knight_4_1c_daughter_pl|Alfrun
trp_kingdom_4_lady_20|Lady Afrid
trp_kingdom_4_lady_20_pl|Afrid
trp_kingdom_5_lady_1|Lady Brina
trp_kingdom_5_lady_1_pl|Brina
trp_kingdom_5_lady_2|Lady Aliena
trp_kingdom_5_lady_2_pl|Aliena
trp_kingdom_5_lady_3|Lady Aneth
trp_kingdom_5_lady_3_pl|Aneth
trp_kingdom_5_lady_4|Lady Reada
trp_kingdom_5_lady_4_pl|Reada
trp_kingdom_5_5_wife|Lady Saraten
trp_kingdom_5_5_wife_pl|Saraten
trp_kingdom_5_2b_wife_1|Lady Baotheia
trp_kingdom_5_2b_wife_1_pl|Baotheia
trp_kingdom_5_1c_daughter_1|Lady Eleandra
trp_kingdom_5_1c_daughter_1_pl|Eleandra
trp_kingdom_5_2c_daughter_1|Lady Meraced
trp_kingdom_5_2c_daughter_1_pl|Meraced
trp_kingdom_5_1c_wife_1|Lady Adelisa
trp_kingdom_5_1c_wife_1_pl|Adelisa
trp_kingdom_5_2c_wife_1|Lady Calantina
trp_kingdom_5_2c_wife_1_pl|Calantina
trp_kingdom_5_1c_daughter_2|Lady Forbesa
trp_kingdom_5_1c_daughter_2_pl|Forbesa
trp_kingdom_5_2c_daughter_2|Lady Claudora
trp_kingdom_5_2c_daughter_2_pl|Claudora
trp_kingdom_5_1b_wife|Lady Anais
trp_kingdom_5_1b_wife_pl|Anais
trp_kingdom_5_2b_wife_2|Lady Miraeia
trp_kingdom_5_2b_wife_2_pl|Miraeia
trp_kingdom_5_1c_daughter_3|Lady Agasia
trp_kingdom_5_1c_daughter_3_pl|Agasia
trp_kingdom_5_lady_16|Lady Geneiava
trp_kingdom_5_lady_16_pl|Geneiava
trp_kingdom_5_1c_wife_2|Lady Gwenael
trp_kingdom_5_1c_wife_2_pl|Gwenael
trp_kingdom_5_2c_wife_2|Lady Ysueth
trp_kingdom_5_2c_wife_2_pl|Ysueth
trp_kingdom_5_1c_daughter_4|Lady Ellian
trp_kingdom_5_1c_daughter_4_pl|Ellian
trp_kingdom_5_lady_20|Lady Timethi
trp_kingdom_5_lady_20_pl|Timethi
trp_kingdom_6_lady_1|Lady Rayma
trp_kingdom_6_lady_1_pl|Rayma
trp_kingdom_6_lady_2|Lady Thanaikha
trp_kingdom_6_lady_2_pl|Thanaikha
trp_kingdom_6_lady_3|Lady Sulaha
trp_kingdom_6_lady_3_pl|Sulaha
trp_kingdom_6_lady_4|Lady Shatha
trp_kingdom_6_lady_4_pl|Shatha
trp_kingdom_6_lady_5|Lady Bawthan
trp_kingdom_6_lady_5_pl|Bawthan
trp_kingdom_6_lady_6|Lady Mahayl
trp_kingdom_6_lady_6_pl|Mahayl
trp_kingdom_6_lady_7|Lady Isna
trp_kingdom_6_lady_7_pl|Isna
trp_kingdom_6_lady_8|Lady Siyafan
trp_kingdom_6_lady_8_pl|Siyafan
trp_kingdom_6_lady_9|Lady Ifar
trp_kingdom_6_lady_9_pl|Ifar
trp_kingdom_6_lady_10|Lady Yasmin
trp_kingdom_6_lady_10_pl|Yasmin
trp_kingdom_6_lady_11|Lady Dula
trp_kingdom_6_lady_11_pl|Dula
trp_kingdom_6_lady_12|Lady Ruwa
trp_kingdom_6_lady_12_pl|Ruwa
trp_kingdom_6_lady_13|Lady Luqa
trp_kingdom_6_lady_13_pl|Luqa
trp_kingdom_6_lady_14|Lady Zandina
trp_kingdom_6_lady_14_pl|Zandina
trp_kingdom_6_lady_15|Lady Lulya
trp_kingdom_6_lady_15_pl|Lulya
trp_kingdom_6_lady_16|Lady Zahara
trp_kingdom_6_lady_16_pl|Zahara
trp_kingdom_6_lady_17|Lady Safiya
trp_kingdom_6_lady_17_pl|Safiya
trp_kingdom_6_lady_18|Lady Khalisa
trp_kingdom_6_lady_18_pl|Khalisa
trp_kingdom_6_lady_19|Lady Janab
trp_kingdom_6_lady_19_pl|Janab
trp_kingdom_6_lady_20|Lady Sur
trp_kingdom_6_lady_20_pl|Sur
trp_town_1_arena_master|Maestro de torneos
trp_town_2_arena_master|Maestro de torneos
trp_town_3_arena_master|Maestro de torneos
trp_town_4_arena_master|Maestro de torneos
trp_town_5_arena_master|Maestro de torneos
trp_town_6_arena_master|Maestro de torneos
trp_town_7_arena_master|Maestro de torneos
trp_town_8_arena_master|Maestro de torneos
trp_town_9_arena_master|Maestro de torneos
trp_town_10_arena_master|Maestro de torneos
trp_town_11_arena_master|Maestro de torneos
trp_town_12_arena_master|Maestro de torneos
trp_town_13_arena_master|Maestro de torneos
trp_town_14_arena_master|Maestro de torneos
trp_town_15_arena_master|Maestro de torneos
trp_town_16_arena_master|Maestro de torneos
trp_town_17_arena_master|Maestro de torneos
trp_town_18_arena_master|Maestro de torneos
trp_town_19_arena_master|Maestro de torneos
trp_town_20_arena_master|Maestro de torneos
trp_town_21_arena_master|Maestro de torneos
trp_town_22_arena_master|Maestro de torneos
trp_town_1_armorer|Fabricante de armaduras
trp_town_2_armorer|Fabricante de armaduras
trp_town_3_armorer|Fabricante de armaduras
trp_town_4_armorer|Fabricante de armaduras
trp_town_5_armorer|Fabricante de armaduras
trp_town_6_armorer|Fabricante de armaduras
trp_town_7_armorer|Fabricante de armaduras
trp_town_8_armorer|Fabricante de armaduras
trp_town_9_armorer|Fabricante de armaduras
trp_town_10_armorer|Fabricante de armaduras
trp_town_11_armorer|Fabricante de armaduras
trp_town_12_armorer|Fabricante de armaduras
trp_town_13_armorer|Fabricante de armaduras
trp_town_14_armorer|Fabricante de armaduras
trp_town_15_armorer|Fabricante de armaduras
trp_town_16_armorer|Fabricante de armaduras
trp_town_17_armorer|Fabricante de armaduras
trp_town_18_armorer|Fabricante de armaduras
trp_town_19_armorer|Fabricante de armaduras
trp_town_20_armorer|Fabricante de armaduras
trp_town_21_armorer|Fabricante de armaduras
trp_town_22_armorer|Fabricante de armaduras
trp_town_1_weaponsmith|Armero
trp_town_2_weaponsmith|Armero
trp_town_3_weaponsmith|Armero
trp_town_4_weaponsmith|Armero
trp_town_5_weaponsmith|Armero
trp_town_6_weaponsmith|Armero
trp_town_7_weaponsmith|Armero
trp_town_8_weaponsmith|Armero
trp_town_9_weaponsmith|Armero
trp_town_10_weaponsmith|Armero
trp_town_11_weaponsmith|Armero
trp_town_12_weaponsmith|Armero
trp_town_13_weaponsmith|Armero
trp_town_14_weaponsmith|Armero
trp_town_15_weaponsmith|Armero
trp_town_16_weaponsmith|Armero
trp_town_17_weaponsmith|Armero
trp_town_18_weaponsmith|Armero
trp_town_19_weaponsmith|Armero
trp_town_20_weaponsmith|Armero
trp_town_21_weaponsmith|Armero
trp_town_22_weaponsmith|Armero
trp_town_1_tavernkeeper|Tabernero
trp_town_2_tavernkeeper|Tabernero
trp_town_3_tavernkeeper|Tabernero
trp_town_4_tavernkeeper|Tabernero
trp_town_5_tavernkeeper|Tabernero
trp_town_6_tavernkeeper|Tabernero
trp_town_7_tavernkeeper|Tabernero
trp_town_8_tavernkeeper|Tabernero
trp_town_9_tavernkeeper|Tabernero
trp_town_10_tavernkeeper|Tabernero
trp_town_11_tavernkeeper|Tabernero
trp_town_12_tavernkeeper|Tabernero
trp_town_13_tavernkeeper|Tabernero
trp_town_14_tavernkeeper|Tabernero
trp_town_15_tavernkeeper|Tabernero
trp_town_16_tavernkeeper|Tabernero
trp_town_17_tavernkeeper|Tabernero
trp_town_18_tavernkeeper|Tabernero
trp_town_19_tavernkeeper|Tabernero
trp_town_20_tavernkeeper|Tabernero
trp_town_21_tavernkeeper|Tabernero
trp_town_22_tavernkeeper|Tabernero
trp_town_1_merchant|Mercader
trp_town_2_merchant|Mercader
trp_town_3_merchant|Mercader
trp_town_4_merchant|Mercader
trp_town_5_merchant|Mercader
trp_town_6_merchant|Mercader
trp_town_7_merchant|Mercader
trp_town_8_merchant|Mercader
trp_town_9_merchant|Mercader
trp_town_10_merchant|Mercader
trp_town_11_merchant|Mercader
trp_town_12_merchant|Mercader
trp_town_13_merchant|Mercader
trp_town_14_merchant|Mercader
trp_town_15_merchant|Mercader
trp_town_16_merchant|Mercader
trp_town_17_merchant|Mercader
trp_town_18_merchant|Mercader
trp_town_19_merchant|Mercader
trp_town_20_merchant|Mercader
trp_town_21_merchant|Mercader
trp_town_22_merchant|Mercader
trp_salt_mine_merchant|Barezan
trp_salt_mine_merchant_pl|Barezan
trp_town_1_horse_merchant|Comerciante de caballos
trp_town_2_horse_merchant|Comerciante de caballos
trp_town_3_horse_merchant|Comerciante de caballos
trp_town_4_horse_merchant|Comerciante de caballos
trp_town_5_horse_merchant|Comerciante de caballos
trp_town_6_horse_merchant|Comerciante de caballos
trp_town_7_horse_merchant|Comerciante de caballos
trp_town_8_horse_merchant|Comerciante de caballos
trp_town_9_horse_merchant|Comerciante de caballos
trp_town_10_horse_merchant|Comerciante de caballos
trp_town_11_horse_merchant|Comerciante de caballos
trp_town_12_horse_merchant|Comerciante de caballos
trp_town_13_horse_merchant|Comerciante de caballos
trp_town_14_horse_merchant|Comerciante de caballos
trp_town_15_horse_merchant|Comerciante de caballos
trp_town_16_horse_merchant|Comerciante de caballos
trp_town_17_horse_merchant|Comerciante de caballos
trp_town_18_horse_merchant|Comerciante de caballos
trp_town_19_horse_merchant|Comerciante de caballos
trp_town_20_horse_merchant|Comerciante de caballos
trp_town_21_horse_merchant|Comerciante de caballos
trp_town_22_horse_merchant|Comerciante de caballos
trp_town_1_mayor|Maestro del gremio
trp_town_2_mayor|Maestro del gremio
trp_town_3_mayor|Maestro del gremio
trp_town_4_mayor|Maestro del gremio
trp_town_5_mayor|Maestro del gremio
trp_town_6_mayor|Maestro del gremio
trp_town_7_mayor|Maestro del gremio
trp_town_8_mayor|Maestro del gremio
trp_town_9_mayor|Maestro del gremio
trp_town_10_mayor|Maestro del gremio
trp_town_11_mayor|Maestro del gremio
trp_town_12_mayor|Maestro del gremio
trp_town_13_mayor|Maestro del gremio
trp_town_14_mayor|Maestro del gremio
trp_town_15_mayor|Maestro del gremio
trp_town_16_mayor|Maestro del gremio
trp_town_17_mayor|Maestro del gremio
trp_town_18_mayor|Maestro del gremio
trp_town_19_mayor|Maestro del gremio
trp_town_20_mayor|Maestro del gremio
trp_town_21_mayor|Maestro del gremio
trp_town_22_mayor|Maestro del gremio
trp_village_1_elder|Anciano de la aldea
trp_village_2_elder|Anciano de la aldea
trp_village_3_elder|Anciano de la aldea
trp_village_4_elder|Anciano de la aldea
trp_village_5_elder|Anciano de la aldea
trp_village_6_elder|Anciano de la aldea
trp_village_7_elder|Anciano de la aldea
trp_village_8_elder|Anciano de la aldea
trp_village_9_elder|Anciano de la aldea
trp_village_10_elder|Anciano de la aldea
trp_village_11_elder|Anciano de la aldea
trp_village_12_elder|Anciano de la aldea
trp_village_13_elder|Anciano de la aldea
trp_village_14_elder|Anciano de la aldea
trp_village_15_elder|Anciano de la aldea
trp_village_16_elder|Anciano de la aldea
trp_village_17_elder|Anciano de la aldea
trp_village_18_elder|Anciano de la aldea
trp_village_19_elder|Anciano de la aldea
trp_village_20_elder|Anciano de la aldea
trp_village_21_elder|Anciano de la aldea
trp_village_22_elder|Anciano de la aldea
trp_village_23_elder|Anciano de la aldea
trp_village_24_elder|Anciano de la aldea
trp_village_25_elder|Anciano de la aldea
trp_village_26_elder|Anciano de la aldea
trp_village_27_elder|Anciano de la aldea
trp_village_28_elder|Anciano de la aldea
trp_village_29_elder|Anciano de la aldea
trp_village_30_elder|Anciano de la aldea
trp_village_31_elder|Anciano de la aldea
trp_village_32_elder|Anciano de la aldea
trp_village_33_elder|Anciano de la aldea
trp_village_34_elder|Anciano de la aldea
trp_village_35_elder|Anciano de la aldea
trp_village_36_elder|Anciano de la aldea
trp_village_37_elder|Anciano de la aldea
trp_village_38_elder|Anciano de la aldea
trp_village_39_elder|Anciano de la aldea
trp_village_40_elder|Anciano de la aldea
trp_village_41_elder|Anciano de la aldea
trp_village_42_elder|Anciano de la aldea
trp_village_43_elder|Anciano de la aldea
trp_village_44_elder|Anciano de la aldea
trp_village_45_elder|Anciano de la aldea
trp_village_46_elder|Anciano de la aldea
trp_village_47_elder|Anciano de la aldea
trp_village_48_elder|Anciano de la aldea
trp_village_49_elder|Anciano de la aldea
trp_village_50_elder|Anciano de la aldea
trp_village_51_elder|Anciano de la aldea
trp_village_52_elder|Anciano de la aldea
trp_village_53_elder|Anciano de la aldea
trp_village_54_elder|Anciano de la aldea
trp_village_55_elder|Anciano de la aldea
trp_village_56_elder|Anciano de la aldea
trp_village_57_elder|Anciano de la aldea
trp_village_58_elder|Anciano de la aldea
trp_village_59_elder|Anciano de la aldea
trp_village_60_elder|Anciano de la aldea
trp_village_61_elder|Anciano de la aldea
trp_village_62_elder|Anciano de la aldea
trp_village_63_elder|Anciano de la aldea
trp_village_64_elder|Anciano de la aldea
trp_village_65_elder|Anciano de la aldea
trp_village_66_elder|Anciano de la aldea
trp_village_67_elder|Anciano de la aldea
trp_village_68_elder|Anciano de la aldea
trp_village_69_elder|Anciano de la aldea
trp_village_70_elder|Anciano de la aldea
trp_village_71_elder|Anciano de la aldea
trp_village_72_elder|Anciano de la aldea
trp_village_73_elder|Anciano de la aldea
trp_village_74_elder|Anciano de la aldea
trp_village_75_elder|Anciano de la aldea
trp_village_76_elder|Anciano de la aldea
trp_village_77_elder|Anciano de la aldea
trp_village_78_elder|Anciano de la aldea
trp_village_79_elder|Anciano de la aldea
trp_village_80_elder|Anciano de la aldea
trp_village_81_elder|Anciano de la aldea
trp_village_82_elder|Anciano de la aldea
trp_village_83_elder|Anciano de la aldea
trp_village_84_elder|Anciano de la aldea
trp_village_85_elder|Anciano de la aldea
trp_village_86_elder|Anciano de la aldea
trp_village_87_elder|Anciano de la aldea
trp_village_88_elder|Anciano de la aldea
trp_village_89_elder|Anciano de la aldea
trp_village_90_elder|Anciano de la aldea
trp_village_91_elder|Anciano de la aldea
trp_village_92_elder|Anciano de la aldea
trp_village_93_elder|Anciano de la aldea
trp_village_94_elder|Anciano de la aldea
trp_village_95_elder|Anciano de la aldea
trp_village_96_elder|Anciano de la aldea
trp_village_97_elder|Anciano de la aldea
trp_village_98_elder|Anciano de la aldea
trp_village_99_elder|Anciano de la aldea
trp_village_100_elder|Anciano de la aldea
trp_village_101_elder|Anciano de la aldea
trp_village_102_elder|Anciano de la aldea
trp_village_103_elder|Anciano de la aldea
trp_village_104_elder|Anciano de la aldea
trp_village_105_elder|Anciano de la aldea
trp_village_106_elder|Anciano de la aldea
trp_village_107_elder|Anciano de la aldea
trp_village_108_elder|Anciano de la aldea
trp_village_109_elder|Anciano de la aldea
trp_village_110_elder|Anciano de la aldea
trp_merchants_end|fin de los mercaders
trp_merchants_end_pl|fin de los mercaders
trp_local_merchant|Mercader local
trp_local_merchant_pl|Mercaderes locales
trp_tax_rebel|Campesino rebelde
trp_tax_rebel_pl|Campesinos rebeldes
trp_trainee_peasant|Campesino
trp_trainee_peasant_pl|Campesinos
trp_fugitive|Hombre nervioso
trp_fugitive_pl|Hombres nerviosos
trp_belligerent_drunk|Borracho problemático
trp_belligerent_drunk_pl|Borrachos problemáticos
trp_hired_assassin|Asesino contratado
trp_hired_assassin_pl|Asesino contratado
trp_fight_promoter|Personaje de aspecto rudo
trp_fight_promoter_pl|Personajes de aspecto rudo
trp_spy|Aldeano ordinario
trp_spy_pl|Aldeanos ordinarios
trp_spy_partner|Aldeano
trp_spy_partner_pl|Aldeanos
trp_nurse_for_lady|Criada
trp_nurse_for_lady_pl|Criada
trp_temporary_minister|Ministro
trp_temporary_minister_pl|Ministros
trp_swadian_crossbowman_multiplayer_ai|Swadian Crossbowman
trp_swadian_crossbowman_multiplayer_ai_pl|Swadian Crossbowmen
trp_swadian_infantry_multiplayer_ai|Swadian Infantry
trp_swadian_infantry_multiplayer_ai_pl|Swadian Infantry
trp_swadian_man_at_arms_multiplayer_ai|Swadian Man at Arms
trp_swadian_man_at_arms_multiplayer_ai_pl|Swadian Men at Arms
trp_vaegir_archer_multiplayer_ai|Vaegir Archer
trp_vaegir_archer_multiplayer_ai_pl|Arquero Vaegir
trp_vaegir_spearman_multiplayer_ai|Vaegir Spearman
trp_vaegir_spearman_multiplayer_ai_pl|Vaegir Spearmen
trp_vaegir_horseman_multiplayer_ai|Jinete Vaegir
trp_vaegir_horseman_multiplayer_ai_pl|Jinetes Vaegires
trp_swadian_crossbowman_multiplayer|Swadian Crossbowman
trp_swadian_crossbowman_multiplayer_pl|Swadian Crossbowmen
trp_swadian_infantry_multiplayer|Swadian Infantry
trp_swadian_infantry_multiplayer_pl|Swadian Infantry
trp_swadian_man_at_arms_multiplayer|Swadian Man at Arms
trp_swadian_man_at_arms_multiplayer_pl|Swadian Men at Arms
trp_vaegir_archer_multiplayer|Arquero Vaegir
trp_vaegir_archer_multiplayer_pl|Arquero Vaegir 
trp_vaegir_spearman_multiplayer|Lancero Vaegir
trp_vaegir_spearman_multiplayer_pl|Lancero Vaegir
trp_vaegir_horseman_multiplayer|Jinete Vaegir
trp_vaegir_horseman_multiplayer_pl|Jinetes Vaegires
trp_nurse|Criada
trp_quick_battle_troop_1|Rodrigo de Braganca
trp_quick_battle_troop_1_pl|Rodrigo de Braganca
trp_quick_battle_troop_2|Usiatra
trp_quick_battle_troop_2_pl|Usiatra
trp_quick_battle_troop_3|Hegen
trp_quick_battle_troop_3_pl|Hegen
trp_quick_battle_troop_4|Konrad
trp_quick_battle_troop_4_pl|Konrad
trp_quick_battle_troop_5|Sverre
trp_quick_battle_troop_5_pl|Sverre
trp_quick_battle_troop_6|Borislav
trp_quick_battle_troop_6_pl|Borislav
trp_quick_battle_troop_7|Stavros
trp_quick_battle_troop_7_pl|Stavros
trp_quick_battle_troop_8|Gamara
trp_quick_battle_troop_8_pl|Gamara
trp_quick_battle_troop_9|Aethrod
trp_quick_battle_troop_9_pl|Aethrod
trp_quick_battle_troop_10|Zaira
trp_quick_battle_troop_10_pl|Zaira
trp_quick_battle_troop_11|Argo Sendnar
trp_quick_battle_troop_11_pl|Argo Sendnar
trp_tutorial_fighter_1|Luchador novicio
trp_tutorial_fighter_1_pl|Combatientes
trp_tutorial_fighter_2|Combatiente novicio
trp_tutorial_fighter_2_pl|Luchadores
trp_tutorial_fighter_3|Luchador regular
trp_tutorial_fighter_3_pl|Luchadores
trp_tutorial_fighter_4|Luchador veterano
trp_tutorial_fighter_4_pl|Luchadores
trp_tutorial_archer_1|Arquero
trp_tutorial_archer_1_pl|Arqueros
trp_tutorial_master_archer|Entrenador de arquería
trp_tutorial_master_archer_pl|Entrenador de arquería
trp_tutorial_rider_1|Jinete
trp_tutorial_rider_2|Arquero montado
trp_tutorial_master_horseman|Jinete entrenador
trp_tutorial_master_horseman_pl|Jinete entrenador
trp_swadian_merchant|Monje
trp_vaegir_merchant|Mercader
trp_startup_merchants_end|Inicio del fin de los mercaders
trp_startup_merchants_end_pl|Inicio del fin de los mercaders
trp_sea_raider_leader|Capitán de los piratas
trp_sea_raider_leader_pl|Capitán de los piratas
trp_looter_leader|Ladrón
trp_looter_leader_pl|Saqueadores
trp_bandit_leaders_end|Fin del líder de los bandidos
trp_bandit_leaders_end_pl|Fin del líder de los bandidos
trp_relative_of_merchant|Hermano del monje
trp_relative_of_merchants_end|relativo del fin de los mercaderes
trp_relative_of_merchants_end_pl|relativo del fin de los mercaderes
trp_paris_merchant|Mercader de los barrios bajos
trp_paris_merchant_pl|Mercader de los barrios bajos
trp_paris_mendiant1|Mendigo de los barrios bajos
trp_paris_mendiant1_pl|Mendigo de los barrios bajos
trp_paris_formateurch|Instructor
trp_paris_formateurch_pl|Instructor
trp_paris_vendeurchevauxtop|Maestro entrenador
trp_paris_vendeurchevauxtop_pl|Maestro entrenador
trp_paris_ecuyer|Escudero
trp_paris_ecuyer_pl|Escudero
trp_dijon_moine_guer_troup|Padre Jacob
trp_dijon_moine_guer_troup_pl|Padre Jacob
trp_dijon_moine_discut_troup|Sacerdote
trp_dijon_moine_discut_troup_pl|Sacerdote
trp_dijon_blesse_troop|Herido de guerra
trp_dijon_blesse_troop_pl|Herido de guerra
trp_jacobin_gueris|Padre Michel
trp_jacobin_gueris_pl|Padre Michel
trp_jacobin_vendor|Padre Jaques
trp_jacobin_vendor_pl|Padre Jaques
trp_jacobin_chief|Padre Mathieu
trp_jacobin_chief_pl|Padre Mathieu
trp_jacobin_benis|Padre Guillaume
trp_jacobin_benis_pl|Padre Guillaume
trp_soeur_1d|Hermana
trp_soeur_1d_pl|Hermana
trp_soeur_2d|Hermana
trp_soeur_2d_pl|Hermana
trp_soeur_3d|Madre superiora
trp_soeur_3d_pl|Madre superiora
trp_soeur_4d|Hermana
trp_soeur_4d_pl|Hermana
trp_limoge_artisant1|Ingeniero
trp_limoge_artisant1_pl|Ingeniero
trp_limoge_artisant2|Artesano
trp_limoge_artisant2_pl|Artesano
trp_limoge_artisant3|Jefe ingeniero
trp_limoge_artisant3_pl|Jefe ingeniero
trp_tour_caserne_1|Soldado de guarnición
trp_tour_caserne_1_pl|Soldado de guarnición
trp_tour_caserne_2|Soldado de guarnición
trp_tour_caserne_2_pl|Soldado de guarnición
trp_tour_caserne_3|Soldado de guarnición
trp_tour_caserne_3_pl|Soldado de guarnición
trp_tour_caserne_4|Instructor
trp_tour_caserne_4_pl|Instructor
trp_tour_caserne_5|Soldado de guarnición
trp_tour_caserne_5_pl|Soldado de guarnición
trp_tour_caserne_6|Soldado de guarnición
trp_tour_caserne_6_pl|Soldado de guarnición
trp_orleans_maitre|Maestro herrero
trp_orleans_maitre_pl|Maestro herrero
trp_orleans_aprentis|Compañero herrero
trp_orleans_aprentis_pl|Compañero herrero
trp_bordeau_artisant1|Fabricante de banderas
trp_bordeau_artisant1_pl|Fabricante de banderas
trp_bordeau_artisant2|Sumiller
trp_bordeau_artisant2_pl|Sumiller
trp_bordeau_artisant3|Vendedor de libros
trp_bordeau_artisant3_pl|Vendedor de libros
trp_bordeau_artisant4|Alfarero
trp_bordeau_artisant4_pl|Alfarero
trp_provence|Campesino
trp_provence_pl|Campesino
trp_provence2|Mercader ambulante
trp_provence2_pl|Mercader ambulante
trp_provence3|Mercader de caballos
trp_provence3_pl|Mercader de caballos
trp_provence4|Pasajero
trp_provence4_pl|Pasajero
trp_provence5|Pasajero
trp_provence5_pl|Pasajero
trp_provence6|Capitán
trp_provence6_pl|Capitán
trp_provence7|Equipaje
trp_provence7_pl|Equipaje
trp_anger_baner|Fabricante de banderas
trp_anger_baner_pl|Fabricante de banderas
trp_caen_spec_guard|Guardia del castillo
trp_caen_spec_guard_pl|Guardia del castillo
trp_caen_spec_guard_int1|Guardia del castillo
trp_caen_spec_guard_int1_pl|Guardia del castillo
trp_caen_spec_guard_int2|Guardia del castillo
trp_caen_spec_guard_int2_pl|Guardia del castillo
trp_caen_chateau_conte|Conde
trp_caen_chateau_conte_pl|Conde
trp_caen_chateau_garde1|Guardia del castillo
trp_caen_chateau_garde1_pl|Guardia del castillo
trp_caen_chateau_garde2|Guardia del castillo
trp_caen_chateau_garde2_pl|Guardia del castillo
trp_caen_chateau_armurier|Armero del castillo
trp_caen_chateau_armurier_pl|Armero del castillo
trp_caen_chateau_archer|Guardia del castillo
trp_caen_chateau_archer_pl|Guardia del castillo
trp_caen_chateau_garde3|Guardia del castillo
trp_caen_chateau_garde3_pl|Guardia del castillo
trp_caen_chateau_garde4|Guardia del castillo
trp_caen_chateau_garde4_pl|Guardia del castillo
trp_caen_chateau_garde5|Guardia del castillo
trp_caen_chateau_garde5_pl|Guardia del castillo
trp_caen_chateau_gardecour|Guardia del castillo
trp_caen_chateau_gardecour_pl|Guardia del castillo
trp_caen_chateau_invitespec|Invitado
trp_caen_chateau_invitespec_pl|Invitado
trp_caen_chateau_rebel|Rebelde
trp_caen_chateau_rebel_pl|Rebelde
trp_caen_chateau_invitee1|Invitado
trp_caen_chateau_invitee1_pl|Invitado
trp_caen_chateau_invitee2|Invitado
trp_caen_chateau_invitee2_pl|Invitado
trp_caen_chateau_invitee3|Invitado
trp_caen_chateau_invitee3_pl|Invitado
trp_caen_chateau_invitee4|Invitado
trp_caen_chateau_invitee4_pl|Invitado
trp_caen_chateau_invitee5|Invitado
trp_caen_chateau_invitee5_pl|Invitado
trp_mathieu_farm|Mathieu
trp_mathieu_farm_pl|Mathieu
trp_femme_farm|Mujer de Mathieu
trp_femme_farm_pl|Mujer de Mathieu
trp_chasse_camp_gouv|Gobernador
trp_chasse_camp_gouv_pl|Gobernador
trp_chasse_camp_1|Guardia del gobernador
trp_chasse_camp_1_pl|Guardia del gobernador
trp_chasse_camp_2|Guardia del gobernador
trp_chasse_camp_2_pl|Guardia del gobernador
trp_chasse_camp_cond|Campesino
trp_chasse_camp_cond_pl|Campesino
trp_chasse_camp_bour|Campesino
trp_chasse_camp_bour_pl|Campesino
trp_banquier|Invitado
trp_banquier_pl|Invitado
trp_manoire_conviv_invit1|Invitado
trp_manoire_conviv_invit1_pl|Invitado
trp_manoire_conviv_invit2|Invitado
trp_manoire_conviv_invit2_pl|Invitado
trp_manoire_conviv_medic|Invitado
trp_manoire_conviv_medic_pl|Invitado
trp_manoire_chevalier|Caballero de Borgoña
trp_manoire_chevalier_pl|Caballero de Borgoña
trp_manoire_halberdier1|Alabardero borgoñón
trp_manoire_halberdier1_pl|Alabarderos borgoñones
trp_manoire_halberdier2|Alabardero borgoñón
trp_manoire_halberdier2_pl|Alabarderos borgoñones
trp_manoire_cuistot|Cocinero
trp_manoire_cuistot_pl|Cocinero
trp_cata_miliceparis|Miliciano de París
trp_cata_miliceparis_pl|Miliciano de París
trp_catarebel_dsentinel|Centinela
trp_catarebel_dsentinel_pl|Centinela
trp_catarebel_redid1|Rebelde de París
trp_catarebel_redid1_pl|Rebelde de París
trp_catarebel_redid2|Rebelde de París
trp_catarebel_redid2_pl|Rebelde de París
trp_catarebel_rvend|Rebelde de París
trp_catarebel_rvend_pl|Rebelde de París
trp_catarebel_rchef|Jefe de los rebeldes de París
trp_catarebel_rchef_pl|Jefe de los rebeldes de París
trp_catarebel_womanrebel|Rebelde de París
trp_catarebel_womanrebel_pl|Rebelde de París
trp_catarebel_womanresid|Rebelde de París
trp_catarebel_womanresid_pl|Rebelde de París
trp_catacomando_dsentinel|Centinela
trp_catacomando_dsentinel_pl|Centinela
trp_catacomando_redid1|Rebelde de París
trp_catacomando_redid1_pl|Rebelde de París
trp_catacomando_redid2|Rebelde de París
trp_catacomando_redid2_pl|Rebelde de París
trp_catacomando|Jefe de los rebeldes de París
trp_catacomando_pl|Jefe de los rebeldes de París
trp_catacomando_womanrebel|Rebelde de París
trp_catacomando_womanrebel_pl|Rebelde de París
trp_catacom_serg|Sargento inglés
trp_catacom_serg_pl|Sargento inglés
trp_catacom_serg2|Sargento inglés
trp_catacom_serg2_pl|Sargento inglés
trp_catacom1|Milicia inglesa
trp_catacom1_pl|Milicia inglesa
trp_catacom2|Miliciano inglés
trp_catacom2_pl|Milicia inglesa
trp_catacom3|Miliciano inglés
trp_catacom3_pl|Milicia inglesa
trp_campement_troupe_1|Soldado
trp_campement_troupe_1_pl|Soldado
trp_campement_troupe_2|Soldado
trp_campement_troupe_2_pl|Soldado
trp_campement_troupe_3|Soldado
trp_campement_troupe_3_pl|Soldado
trp_campement_troupe_4|Soldado
trp_campement_troupe_4_pl|Soldado
trp_campement_troupe_5|Soldado
trp_campement_troupe_5_pl|Soldado
trp_campement_troupe_6|Soldado
trp_campement_troupe_6_pl|Soldado
trp_campement_troupe_7|Soldado
trp_campement_troupe_7_pl|Soldado
trp_campement_troupe_8|Soldado
trp_campement_troupe_8_pl|Soldado
trp_campement_troupe_9|Soldado
trp_campement_troupe_9_pl|Soldado
trp_campement_troupe_10|Soldado
trp_campement_troupe_10_pl|Soldado
trp_campement_troupe_11|Soldado
trp_campement_troupe_11_pl|Soldado
trp_campement_troupe_12|Soldado
trp_campement_troupe_12_pl|Soldado
trp_campement_troupe_chant_1|Soldado
trp_campement_troupe_chant_1_pl|Soldado
trp_campement_troupe_chant_2|Soldado
trp_campement_troupe_chant_2_pl|Soldado
trp_campement_troupe_chant_3|Soldado
trp_campement_troupe_chant_3_pl|Soldado
trp_campement_troupe_chant_4|Soldado
trp_campement_troupe_chant_4|Soldado
trp_ribaude_1|Ramera
trp_ribaude_1_pl|Ramera
trp_ribaude_2|Ramera
trp_ribaude_2_pl|Ramera
trp_ribaude_3|Ramera
trp_ribaude_3_pl|Ramera
trp_rebel_montpelier_tower_1|Centinela
trp_rebel_montpelier_tower_1_pl|Centinela
trp_rebel_montpelier_tower_2|Arquero rebelde
trp_rebel_montpelier_tower_2_pl|Arquero rebelde
trp_rebel_montpelier_tower_3|Infante rebelde
trp_rebel_montpelier_tower_3_pl|Infante rebelde
trp_rebel_montpelier_tower_4|Arquero rebelde
trp_rebel_montpelier_tower_4_pl|Arquero rebelde
trp_rebel_montpelier_tower_5|Ballestero rebelde
trp_rebel_montpelier_tower_5_pl|Ballestero rebelde
trp_rebel_montpelier_tower_6|Ballestero rebelde
trp_rebel_montpelier_tower_6_pl|Ballestero rebelde
trp_rebel_montpelier_tower_7|Francis
trp_rebel_montpelier_tower_7_pl|Francis
trp_rebel_montpelier_tower_8|Jefe rebelde
trp_rebel_montpelier_tower_8_pl|Jefe rebelde
trp_covoy_english_guard|Guardia de convoy inglés
trp_covoy_english_guard_pl|Guardia de convoy inglés
trp_covoy_english_guard2|Infante de convoy inglés
trp_covoy_english_guard2_pl|Infante de convoy inglés
trp_covoy_english_guard3|Arquero de convoy inglés
trp_covoy_english_guard3_pl|Arquero de convoy inglés
trp_covoy_english_guard_end|Guardia de convoy inglés
trp_covoy_english_guard_end_pl|Guardia de convoy inglés
trp_pirate_troupe_1|Jefe de los piratas
trp_pirate_troupe_1_pl|Jefe de los piratas
trp_pirate_troupe_2|Pirata
trp_pirate_troupe_2_pl|Pirata
trp_pirate_troupe_3|Pirata
trp_pirate_troupe_3_pl|Pirata
trp_pirate_troupe_4|Pirata
trp_pirate_troupe_4_pl|Pirata
trp_pirate_troupe_5|Pirata
trp_pirate_troupe_5_pl|Pirata
trp_pirate_troupe_6|Pirata
trp_pirate_troupe_6_pl|Pirata
trp_pirate_troupe_7|Pirata
trp_pirate_troupe_7_pl|Pirata
trp_pirate_troupe_8|Pirata
trp_pirate_troupe_8_pl|Pirata
trp_pirate_troupe_9|Pirata
trp_pirate_troupe_9_pl|Pirata
trp_pirate_troupe_10|Pirata
trp_pirate_troupe_10_pl|Pirata
trp_pirate_troupe_11|Pirata
trp_pirate_troupe_11_pl|Pirata
trp_pirate_troupe_12|Pirata
trp_pirate_troupe_12_pl|Pirata
trp_pirate_troupe_13|Pirata
trp_pirate_troupe_13_pl|Pirata
trp_provence2_p|Mercader ambulante
trp_provence2_p_pl|Mercader ambulante
trp_provence3_p|Mercader de caballos
trp_provence3_p_pl|Mercader de caballos
trp_provence4_p|Pasajero
trp_provence4_p_pl|Pasajero
trp_provence5_p|Pasajero
trp_provence5_p_pl|Pasajero
trp_provence6_p|Capitán
trp_provence6_p_pl|Capitán
trp_provence7_p|Equipo
trp_provence7_p_pl|Equipo
trp_sang_lysbateau|Soldado
trp_sang_lysbateau_pl|Soldado
trp_sang_lysbateau_p|Soldado
trp_sang_lysbateau_p_pl|Soldado
trp_gordaine_sang_lys1|Instructor
trp_gordaine_sang_lys1_pl|Instructor
trp_gordaine_sang_lys2|Soldado
trp_gordaine_sang_lys2_pl|Soldado
trp_gordaine_sang_lys3|Soldado
trp_gordaine_sang_lys3_pl|Soldado
trp_gordaine_sang_lys4|Soldado
trp_gordaine_sang_lys4_pl|Soldado
trp_gordaine_sang_lys5|Soldado
trp_gordaine_sang_lys5_pl|Soldado
trp_gordaine_sang_lys6|Soldado
trp_gordaine_sang_lys6_pl|Soldado
trp_gordaine_sang_lys7|Guardia
trp_gordaine_sang_lys7_pl|Guardia
trp_gordaine_sang_lys8|Maestro de la Compañía del Lirio de sangre
trp_gordaine_sang_lys8_pl|Maestro de la Compañía del Lirio de sangre
trp_ressource_merchant_paris|Mercader de materias primas de París
trp_ressource_merchant_paris_pl|Mercader de materias primas de París
trp_ressource_merchant_roen|Mercader de materias primas de Ruán
trp_ressource_merchant_roen_pl|Mercader de materias primas de Ruán
trp_ressource_merchant_caen|Mercader de materias primas de Caen
trp_ressource_merchant_caen_pl|Mercader de materias primas de Caen
trp_ressource_merchant_anger|Mercader de materias primas de Anger
trp_ressource_merchant_anger_pl|Mercader de materias primas de Anger
trp_ressource_merchant_orleans|Mercader de materias primas de Orleans
trp_ressource_merchant_orleans_pl|Mercader de materias primas de Orleans
trp_ressource_merchant_tours|Mercader de materias primas de Tours
trp_ressource_merchant_tours_pl|Mercader de materias primas de Tours
trp_ressource_merchant_bordeau|Mercader de materias primas de Burdeos
trp_ressource_merchant_bordeau_pl|Mercader de materias primas de Burdeos
trp_ressource_merchant_dijon|Mercader de materias primas de Dijón
trp_ressource_merchant_dijon_pl|Mercader de materias primas de Dijón
trp_entrepot_bandit_1|Bandido
trp_entrepot_bandit_1_pl|Bandido
trp_entrepot_bandit_2|Bandido
trp_entrepot_bandit_2_pl|Bandido
trp_entrepot_contremaitre|Capataz
trp_entrepot_contremaitre_pl|Capataz
trp_tlys_bookseller|Mercader de libros
trp_tlys_bookseller_pl|Mercader de libros
trp_sang_lysivretlys|Mercenario borracho
trp_sang_lysivretlys_pl|Mercenario borracho
trp_tlys_tavernkeeper|Tabernero
trp_tlys_tavernkeeper_pl|Tabernero
trp_rebel_paysan|Campesino rebelde
trp_rebel_paysan_pl|Campesino rebelde
trp_rebel_archer|Arquero rebelde
trp_rebel_archer_pl|Arqueros rebeldes
trp_rebel_arbaletier|Ballestero rebelde
trp_rebel_arbaletier_pl|Ballesteros rebeldes
trp_rebel_fantassin|Infantes rebeldes
trp_rebel_fantassin_pl|Infantes rebeldes
trp_rebel_piquier|Piquero rebelde
trp_rebel_piquier_pl|Piqueros rebeldes
trp_rebel_heros|Héroes de la Rebelión
trp_rebel_heros_pl|Héroes de la Rebelión
trp_sang_lysbasetroop|Mercenario del Lirio de sangre
trp_sang_lysbasetroop_pl|Mercenario del Lirio de sangre
trp_serg_sang_lysbasetroop|Sargento mercenario del Lirio de sangre
trp_serg_sang_lysbasetroop_pl|Mercenario del Lirio de sangre
trp_vilandrandro_quest_fanta|Infante de Villandrando
trp_vilandrandro_quest_fanta_pl|Infante de Villandrando
trp_vilandrandro_quest_fanta2|Infante de Villandrando
trp_vilandrandro_quest_fanta2_pl|Infante de Villandrando
trp_vilandrandro_quest_arbaletier|Arquero de Villandrando
trp_vilandrandro_quest_arbaletier_pl|Arquero de Villandrando
trp_vilandrandro_quest_fanta_end|Arquero de Villandrando
trp_vilandrandro_quest_fanta_end_pl|Arquero de Villandrando
trp_sang_lysbatb1|Sargento mercenario del Lirio de sangre
trp_sang_lysbatb1_pl|Mercenario del Lirio de sangre
trp_sang_lysbatb2|Mercenario del Lirio de sangre
trp_sang_lysbatb2_pl|Mercenario del Lirio de sangre
trp_sang_lysbatb3|Mercenario del Lirio de sangre
trp_sang_lysbatb3_pl|Mercenario del Lirio de sangre
trp_sang_lysbatb4|Mercenario del Lirio de sangre
trp_sang_lysbatb4_pl|Mercenario del Lirio de sangre
trp_sang_lysbatb5|Mercenario del Lirio de sangre
trp_sang_lysbatb5_pl|Mercenario del Lirio de sangre
trp_sang_lysbatb6|Mercenario del Lirio de sangre
trp_sang_lysbatb6_pl|Mercenario del Lirio de sangre
trp_sang_lysbatb7|Mercenario del Lirio de sangre
trp_sang_lysbatb7_pl|Mercenario del Lirio de sangre
trp_sang_lysbatb8|Mercenario del Lirio de sangre
trp_sang_lysbatb8_pl|Mercenario del Lirio de sangre
trp_sang_lysbatb9|Mercenario del Lirio de sangre
trp_sang_lysbatb9_pl|Mercenario del Lirio de sangre
trp_sang_lysbatb10|Mercenario del Lirio de sangre
trp_sang_lysbatb10_pl|Mercenario del Lirio de sangre
trp_sang_lysbatb11|Mercenario del Lirio de sangre
trp_sang_lysbatb11_pl|Mercenario del Lirio de sangre
trp_vilandrandro_bat_bourg1|Infante de Villandrando
trp_vilandrandro_bat_bourg1_pl|Infante de Villandrando
trp_vilandrandro_bat_bourg2|Infante de Villandrando
trp_vilandrandro_bat_bourg2_pl|Infante de Villandrando
trp_vilandrandro_bat_bourg3|Infante de Villandrando
trp_vilandrandro_bat_bourg3_pl|Infante de Villandrando
trp_vilandrandro_bat_bourg4|Infante de Villandrando
trp_vilandrandro_bat_bourg4_pl|Infante de Villandrando
trp_vilandrandro_bat_bourg5|Infante de Villandrando
trp_vilandrandro_bat_bourg5_pl|Infante de Villandrando
trp_vilandrandro_bat_bourg6|Infante de Villandrando
trp_vilandrandro_bat_bourg6_pl|Infante de Villandrando
trp_vilandrandro_bat_bourg7|Infante de Villandrando
trp_vilandrandro_bat_bourg7_pl|Infante de Villandrando
trp_vilandrandro_bat_bourg8|Infante de Villandrando
trp_vilandrandro_bat_bourg8_pl|Infante de Villandrando
trp_vilandrandro_bat_bourg9|Infante de Villandrando
trp_vilandrandro_bat_bourg9_pl|Infante de Villandrando
trp_vilandrandro_bat_bourg10|Infante de Villandrando
trp_vilandrandro_bat_bourg10_pl|Infante de Villandrando
trp_vilandrandro_bat_bourg11|Arquero de Villandrando
trp_vilandrandro_bat_bourg11_pl|Arquero de Villandrando
trp_vilandrandro_bat_bourg12|Arquero de Villandrando
trp_vilandrandro_bat_bourg12_pl|Arquero de Villandrando
trp_vilandrandro_bat_bourg13|Arquero de Villandrando
trp_vilandrandro_bat_bourg13_pl|Arquero de Villandrando
trp_vilandrandro_bat_bourg14|Arquero de Villandrando
trp_vilandrandro_bat_bourg14_pl|Arquero de Villandrando
trp_sang_lyspont1|Sargento mercenario del Lirio de sangre
trp_sang_lyspont1_pl|Mercenario del Lirio de sangre
trp_sang_lyspont2|Mercenario del Lirio de sangre}
trp_sang_lyspont2_pl|Mercenario del Lirio de sangre
trp_sang_lyspont3|Mercenario del Lirio de sangre
trp_sang_lyspont3_pl|Mercenario del Lirio de sangre
trp_sang_lyspont4|Mercenario del Lirio de sangre
trp_sang_lyspont4_pl|Mercenario del Lirio de sangre
trp_sang_lyspont5|Mercenario del Lirio de sangre
trp_sang_lyspont5_pl|Mercenario del Lirio de sangre
trp_sang_lyspont6|Mercenario del Lirio de sangre
trp_sang_lyspont6_pl|Mercenario del Lirio de sangre
trp_sang_lyspont7|Mercenario del Lirio de sangre
trp_sang_lyspont7_pl|Mercenario del Lirio de sangre
trp_pontbenezet_troop1|Inquisidor
trp_pontbenezet_troop1_pl|Inquisidor
trp_pontbenezet_troop2|Mercenario
trp_pontbenezet_troop2_pl|Mercenario
trp_pontbenezet_troop3|Mercenario
trp_pontbenezet_troop3_pl|Mercenario
trp_pontbenezet_troop4|Mercenario
trp_pontbenezet_troop4_pl|Mercenario
trp_pontbenezet_troop5|Mercenario
trp_pontbenezet_troop5_pl|Mercenario
trp_pontbenezet_troop6|Mercenario
trp_pontbenezet_troop6_pl|Mercenario
trp_pontbenezet_troop7|Mercenario
trp_pontbenezet_troop7_pl|Mercenario
trp_pontbenezet_troop8|Mercenario
trp_pontbenezet_troop8_pl|Mercenario
trp_pontbenezet_troop9|Mercenario
trp_pontbenezet_troop9_pl|Mercenario
trp_pontbenezet_troop10|Mercenario
trp_pontbenezet_troop10_pl|Mercenario
trp_pontbenezet_troop11|Mercenario
trp_pontbenezet_troop11_pl|Mercenario
trp_pontbenezet_troop12|Mercenario
trp_pontbenezet_troop12_pl|Mercenario
trp_pontbenezet_troop13|Mercenario
trp_pontbenezet_troop13_pl|Mercenario
trp_pontbenezet_troop14|Mercenario
trp_pontbenezet_troop14_pl|Mercenario
trp_pontbenezet_troop15|Mercenario
trp_pontbenezet_troop15_pl|Mercenario
trp_pontbenezet_troop16|Mercenario
trp_pontbenezet_troop16_pl|Mercenario
trp_pontbenezet_troop17|Alabardero Suizo
trp_pontbenezet_troop17_pl|Alabardero Suizo
trp_pontbenezet_troop18|Alabardero Suizo
trp_pontbenezet_troop18_pl|Alabardero Suizo
trp_pontbenezet_troop19|Alabardero Suizo
trp_pontbenezet_troop19_pl|Alabardero Suizo
trp_pontbenezet_troop20|Alabardero suizo
trp_pontbenezet_troop20_pl|Alabardero suizo
trp_pontbenezet_troop21|Alabardero suizo
trp_pontbenezet_troop21_pl|Alabardero suizo
trp_milliceneutre1|Mercenario
trp_milliceneutre1_pl|Mercenario
trp_milliceneutre2|Mercenario
trp_milliceneutre2_pl|Mercenario
trp_rebel_quest_ca1|Ballestero rebelde
trp_rebel_quest_ca1_pl|Ballesteros rebeldes
trp_rebel_quest_ca2|Ballestero rebelde
trp_rebel_quest_ca2_pl|Ballesteros rebeldes
trp_rebel_quest_ca3|Ballestero rebelde
trp_rebel_quest_ca3_pl|Ballesteros rebeldes
trp_rebel_quest_ca4|Ballestero rebelde
trp_rebel_quest_ca4_pl|Ballesteros rebeldes
trp_rebel_quest_ca5|Ballestero rebelde
trp_rebel_quest_ca5_pl|Ballesteros rebeldes
trp_rebel_quest_ca6|Ballestero rebelde
trp_rebel_quest_ca6_pl|Ballesteros rebeldes
trp_rebel_quest_ca7|Arquero rebelde
trp_rebel_quest_ca7_pl|Arqueros rebeldes
trp_rebel_quest_ca8|Arquero rebelde
trp_rebel_quest_ca8_pl|Arqueros rebeldes
trp_rebel_quest_ca9|Infante rebelde
trp_rebel_quest_ca9_pl|Infantes rebeldes
trp_rebel_quest_ca10|Infante rebelde
trp_rebel_quest_ca10_pl|Infantes rebeldes
trp_rebel_quest_ca11|Ballestero rebelde
trp_rebel_quest_ca11_pl|Ballestero rebelde
trp_eng_quest_ca1|Centinela
trp_eng_quest_ca1_pl|Centinela
trp_eng_quest_ca2|Arquero largo inglés
trp_eng_quest_ca2_pl|Arquero largo inglés
trp_eng_quest_ca3|Alabardero inglés
trp_eng_quest_ca3_pl|Alabardero inglés
trp_eng_quest_ca4|Alabardero inglés
trp_eng_quest_ca4_pl|Alabardero inglés
trp_eng_quest_ca5|Sargento inglés
trp_eng_quest_ca5_pl|Sargento inglés
trp_eng_quest_ca6|Caballero inglés
trp_eng_quest_ca6_pl|Caballero inglés
trp_rebel_verzy1|Jefe rebelde
trp_rebel_verzy1_pl|Jefe rebelde
trp_rebel_verzy2|Antoine
trp_rebel_verzy2_pl|Antoine
trp_rebel_verzy3|Daga
trp_rebel_verzy3_pl|Daga
trp_rebel_verzy4|La Ripaille
trp_rebel_verzy4_pl|La Ripaille
trp_rebel_verzy5|Tibaut
trp_rebel_verzy5_pl|Tibaut
trp_rebel_verzy6|Foureau
trp_rebel_verzy6_pl|Foureau
trp_rebel_verzentrep1|Jefe rebelde
trp_rebel_verzentrep1_pl|Jefe rebelde
trp_rebel_verzentrep2|Antoine
trp_rebel_verzentrep2_pl|Antoine
trp_rebel_verzentrep3|Daga
trp_rebel_verzentrep3_pl|Daga
trp_rebel_verzentrep4|La Ripaille
trp_rebel_verzentrep4_pl|La Ripaille
trp_rebel_verzentrep5|Tibaut
trp_rebel_verzentrep5_pl|Tibaut
trp_bourg_entrep_metz1|Alabardero borgoñon
trp_bourg_entrep_metz1_pl|Alabarderos borgoñones
trp_bourg_entrep_metz2|Piquero pesado borgoñon
trp_bourg_entrep_metz2_pl|Piqueros pesados borgoñones
trp_bourg_entrep_metz3|Piquero pesado borgoñon
trp_bourg_entrep_metz3_pl|Piqueros pesados borgoñones
trp_bourg_entrep_metz4|Alabardero borgoñon
trp_bourg_entrep_metz4_pl|Alabarderos borgoñones
trp_bourg_entrep_metz5|Alabardero borgoñon
trp_bourg_entrep_metz5_pl|Alabarderos borgoñones
trp_bourg_entrep_metz6|Arquero borgoñon
trp_bourg_entrep_metz6_pl|Arqueros borgoñones
trp_bourg_entrep_metz7|Arquero borgoñon
trp_bourg_entrep_metz7_pl|Arqueros borgoñones
trp_bourg_entrep_metz8|Arquero borgoñon
trp_bourg_entrep_metz8_pl|Arqueros borgoñones
trp_bourg_entrep_copie1|Alabardero borgoñon
trp_bourg_entrep_copie1_pl|Alabarderos borgoñones
trp_bourg_entrep_copie2|Piquero pesado borgoñon
trp_bourg_entrep_copie2_pl|Piqueros pesados borgoñones
trp_bourg_entrep_copie3|Piquero pesado borgoñon
trp_bourg_entrep_copie3_pl|Piqueros pesados borgoñones
trp_bourg_entrep_copie4|Alabardero borgoñon
trp_bourg_entrep_copie4_pl|Alabarderos borgoñones
trp_bourg_entrep_copie5|Arquero borgoñon
trp_bourg_entrep_copie5_pl|Arqueros borgoñones
trp_bourg_entrep_copie6|Arquero borgoñon
trp_bourg_entrep_copie6_pl|Arqueros borgoñones
trp_bourg_entrep_copie7|Arquero borgoñon
trp_bourg_entrep_copie7_pl|Arqueros borgoñones
trp_bourg_entrep_copie8|Arquero borgoñon
trp_bourg_entrep_copie8_pl|Arqueros borgoñones
trp_caen_foss|Sepulturero de Calais
trp_caen_foss_pl|Sepulturero de Calais
trp_rebel_pfort1|Antoine
trp_rebel_pfort1_pl|Antoine
trp_rebel_pfort2|Daga
trp_rebel_pfort2_pl|Daga
trp_rebel_pfort3|La Ripaille
trp_rebel_pfort3_pl|La Ripaille
trp_rebel_pfort4|Tibaut
trp_rebel_pfort4_pl|Tibaut
trp_rebel_pfort5|Foureau
trp_rebel_pfort5_pl|Foureau
trp_bourg_pfort1|Ballestero pesado borgoñón
trp_bourg_pfort1_pl|Ballestero pesado borgoñón
trp_bourg_pfort2|Ballestero pesado borgoñón
trp_bourg_pfort2_pl|Ballestero pesado borgoñón
trp_bourg_pfort3|Ballestero pesado borgoñón
trp_bourg_pfort3_pl|Ballestero pesado borgoñón
trp_bourg_pfort4|Ballestero pesado borgoñón
trp_bourg_pfort4_pl|Ballestero pesado borgoñón
trp_bourg_pfort5|Guardia borgoñón
trp_bourg_pfort5_pl|Guardias borgoñones
trp_bourg_pfort6|Arquero borgoñón
trp_bourg_pfort6_pl|Arqueros borgoñones
trp_bourg_pfort7|Alabardero borgoñón
trp_bourg_pfort7_pl|Alabarderos borgoñones
trp_bourg_pfort8|Alabardero borgoñón
trp_bourg_pfort8_pl|Alabarderos borgoñones
trp_pfrebel_neutre1|Jefe rebelde
trp_pfrebel_neutre1_pl|Jefe rebelde
trp_pfrebel_neutre2|Infante rebelde
trp_pfrebel_neutre2_pl|Infante rebelde
trp_pfrebel_neutre3|Infante rebelde
trp_pfrebel_neutre3_pl|Infante rebelde
trp_pfrebel_neutre4|Arquero rebelde
trp_pfrebel_neutre4_pl|Arquero rebelde
trp_pfrebel_neutre5|Ballestero rebelde
trp_pfrebel_neutre5_pl|Ballestero rebelde
trp_pfrebel_neutre6|Ballestero rebelde
trp_pfrebel_neutre6_pl|Ballestero rebelde
trp_rebel_licorn|El Unicornio
trp_rebel_licorn_pl|El Unicornio
trp_parisvilan_entry|Hombre sospechoso
trp_parisvilan_entry_pl|Hombre sospechoso
trp_parisvilan_guide|Guía
trp_parisvilan_guide_pl|Guía
trp_rodrigo_villandrandro|Rodrigo de Villandrando
trp_rodrigo_villandrandro_pl|Rodrigo de Villandrando
trp_cata_vilain1|Bandido
trp_cata_vilain1_pl|Bandido
trp_cata_ribaude1|Ramera
trp_cata_ribaude1_pl|Ramera
trp_cata_gard1|Guardaespaldas
trp_cata_gard1_pl|Guardaespaldas
trp_cata_gard2|Guardaespaldas
trp_cata_gard2_pl|Guardaespaldas
trp_sirene_1|Lady Laura
trp_sirene_1_pl|Lady Laura
trp_sirene_2|Dama Catherine
trp_sirene_2_pl|Dama Catherine
trp_sirene_3|La bella Beatrice
trp_sirene_3_pl|La bella Beatrice
trp_sirene_client|Cliente
trp_sirene_client_pl|Cliente
trp_sirene_chambellan|Chambelán
trp_sirene_chambellan_pl|Chambelán
trp_sirene_4|Georgia
trp_sirene_4_pl|Georgia
trp_chateautours_1|Sargento de armas
trp_chateautours_1_pl|Sargento de armas
trp_chateautours_2|Sargento de armas
trp_chateautours_2_pl|Sargento de armas
trp_chateautours_4|Sargento de armas
trp_chateautours_4_pl|Sargento de armas
trp_chateautours_5|Ballestero
trp_chateautours_5_pl|Ballesteros
trp_chateautours_6|Ballestero
trp_chateautours_6_pl|Ballesteros
trp_chateautours_7|Sargento de armas
trp_chateautours_7_pl|Sargento de armas
trp_parisassau_rchef|Jefe de los rebeldes de París
trp_parisassau_rchef_pl|Jefe de los rebeldes de París
trp_parisassau_troop1|Rebelde de París
trp_parisassau_troop1_pl|Rebelde de París
trp_parisassau_troop2|Rebelde de París
trp_parisassau_troop2_pl|Rebelde de París
trp_parisassau_troop_wo|Rebelde de París
trp_parisassau_troop_wo_pl|Rebelde de París
trp_pretre_fierbois1|Sacerdote
trp_pretre_fierbois1_pl|Sacerdote
trp_pretre_fierbois2|Sacerdote
trp_pretre_fierbois2_pl|Sacerdote
trp_pretre_fierbois3|Sacerdote
trp_pretre_fierbois3_pl|Sacerdote
trp_rouen_merchantquest|Mercader
trp_rouen_merchantquest_pl|Mercader
trp_rouen_mercenaire|Guardia del mercader
trp_rouen_mercenaire_pl|Guardia del mercader
trp_rouenf_traire1|Guardia del mercader
trp_rouenf_traire1_pl|Guardia del mercader
trp_rouenf_traire2|Guardia del mercader
trp_rouenf_traire2_pl|Guardia del mercader
trp_rouenf_traire3|Guardia del mercader
trp_rouenf_traire3_pl|Guardia del mercader
trp_rouenf_fill|Hija del mercader
trp_rouenf_fill_pl|Hija del mercader
trp_comp_catas|Caballero solitario
trp_comp_catas_pl|Caballero solitario
trp_dame_jardin|Madeleine
trp_dame_jardin_pl|Madeleine
trp_comp_orleans|Ballestero campeón
trp_comp_orleans_pl|Ballestero campeón
trp_comp_marseille|Mensajero
trp_comp_marseille_pl|Mensajero
trp_comps_bourges|Mercenario del Lirio de sangre
trp_comps_bourges_pl|Mercenario del Lirio de sangre
trp_comps_dijon|Padre Daniel
trp_comps_dijon_pl|Padre Daniel
trp_comps_calais|Aventurero
trp_comps_calais_pl|Aventurero
trp_comps_limoge|Ingeniero Arcabucero
trp_comps_limoge_pl|Ingeniero Arcabucero
trp_messenger_master|Maestro del Gremio de Mensajeros de Calais
trp_messenger_master_pl|Maestro del Gremio de Mensajeros de Calais
trp_messenger_master_bourges|Maestro del Gremio de Mensajeros de Bourges
trp_messenger_master_bourges_pl|Maestro del Gremio de Mensajeros de Bourges
trp_messenger_master_bordeau|Maestro del Gremio de Mensajeros de Burdeos
trp_messenger_master_bordeau_pl|Maestro del Gremio de Mensajeros de Burdeos
trp_messenger_master_calais|Maestro del Gremio de Mensajeros de Marsella
trp_messenger_master_calais_pl|Maestro del Gremio de Mensajeros de Marsella
trp_paris_evec_troop1|Cardenal de París
trp_paris_evec_troop1_pl|Obispo de París
trp_paris_moine_segond|Sacerdote de París
trp_paris_moine_segond_pl|Sacerdote de París
trp_bourges_evec_troop1|Cardenal de Bourges
trp_bourges_evec_troop1_pl|Cardenal de Bourges
trp_bourges_moine_segond|Sacerdote de Bourges
trp_bourges_moine_segond_pl|Sacerdote de Bourges
trp_bourges_banquier|Banquero de Bourges
trp_bourges_banquier_pl|Banquero de Bourges
trp_paris_banquier|Banquero de París
trp_paris_banquier_pl|Banquero de Bourges
trp_marseille_banquier|Banquero de Marsella
trp_marseille_banquier_pl|Banquero de Marsella
trp_mercenary_bourges|Guardia del banquero
trp_mercenary_bourges_pl|Guardia del banquero
trp_mercenary_paris|Guardia del banquero
trp_mercenary_paris_pl|Guardia del banquero
trp_mercenary_marseille|Guardia del banquero
trp_mercenary_marseille_pl|Guardia del banquero
trp_lyon_caserne_1|Guardia de fronteras Lionés
trp_lyon_caserne_1_pl|Soldado en guarnición
trp_lyon_caserne_2|Guardia de fronteras Lionés
trp_lyon_caserne_2_pl|Guardia de fronteras Lionés
trp_lyon_caserne_3|Guardia de fronteras Lionés
trp_lyon_caserne_3_pl|Soldado en guarnición
trp_lyon_caserne_4|Instructor
trp_lyon_caserne_4_pl|Instructor
trp_lyon_caserne_5|Guardia de fronteras Lionés
trp_lyon_caserne_5_pl|Soldado en guarnición
trp_lyon_caserne_6|Guardia de fronteras Lionés
trp_lyon_caserne_6_pl|Soldado en guarnición
