itm_no_item|OBJETO INVALIDO
itm_no_item_pl|OBJETOS INVALIDOS
itm_tutorial_spear|Lanza
itm_tutorial_spear_pl|Lanza
itm_tutorial_club|Palo
itm_tutorial_club_pl|Palo
itm_tutorial_battle_axe|Hacha de batalla
itm_tutorial_battle_axe_pl|Hacha de batalla
itm_tutorial_arrows|Flechas
itm_tutorial_arrows_pl|Flechas
itm_tutorial_bolts|Virotes
itm_tutorial_bolts_pl|Virotes
itm_tutorial_short_bow|Arco corto
itm_tutorial_short_bow_pl|Arco corto
itm_tutorial_crossbow|Ballesta
itm_tutorial_crossbow_pl|Ballesta
itm_tutorial_throwing_daggers|Dagas arrojadizas
itm_tutorial_throwing_daggers_pl|Dagas arrojadizas
itm_tutorial_saddle_horse|Caballo de silla
itm_tutorial_saddle_horse_pl|Caballo de silla
itm_tutorial_shield|Escudo de lágrima
itm_tutorial_shield_pl|Escudo de lágrima
itm_tutorial_staff_no_attack|Bastón
itm_tutorial_staff_no_attack_pl|Bastón
itm_tutorial_staff|Bastón
itm_tutorial_staff_pl|Bastón
itm_tutorial_sword|Espada
itm_tutorial_sword_pl|Espada
itm_tutorial_axe|Hacha
itm_tutorial_axe_pl|Hacha
itm_tutorial_dagger|Daga
itm_tutorial_dagger_pl|Dagas
itm_horse_meat|Carne de caballo
itm_horse_meat_pl|Carnes de caballo
itm_practice_sword|Espada de práctica
itm_practice_sword_pl|Espadas de práctica
itm_heavy_practice_sword|Espada pesada de práctica
itm_heavy_practice_sword_pl|Espadas pesadas de práctica
itm_practice_dagger|Daga de práctica
itm_practice_dagger_pl|Dagas de práctica
itm_practice_axe|Hacha de práctica
itm_practice_axe_pl|Hachas de práctica
itm_arena_axe|Hacha
itm_arena_axe_pl|Hachas
itm_arena_sword|Espada
itm_arena_sword_pl|Espadas
itm_arena_sword_two_handed|Mandoble
itm_arena_sword_two_handed_pl|Mandobles
itm_arena_lance|Lanza de caballería
itm_arena_lance_pl|Lanzas de caballería
itm_practice_staff|Bastón de práctica
itm_practice_staff_pl|Bastones de práctica
itm_practice_lance|Lanza de caballería de práctica
itm_practice_lance_pl|Lanzas de caballería de práctica
itm_practice_shield|Escudo de práctica
itm_practice_shield_pl|Escudos de práctica
itm_practice_bow|Arco de práctica
itm_practice_bow_pl|Arcos de práctica
itm_practice_crossbow|Ballesta de práctica
itm_practice_crossbow_pl|Ballestas de práctica
itm_practice_javelin|Jabalina de práctica
itm_practice_javelin_pl|Jabalinas de práctica
itm_practice_javelin_melee|Jabalinas de práctica cuerpo a cuerpo
itm_practice_javelin_melee_pl|Jabalinas de práctica cuerpo a cuerpo
itm_practice_throwing_daggers|Dagas arrojadizas
itm_practice_throwing_daggers_pl|Dagas arrojadizas
itm_practice_throwing_daggers_100_amount|Dagas arrojadizas
itm_practice_throwing_daggers_100_amount_pl|Dagas arrojadizas
itm_practice_horse|Caballo de práctica
itm_practice_horse_pl|Caballos de práctica
itm_practice_arrows|Flechas de práctica
itm_practice_arrows_pl|Flechas de práctica
itm_practice_bolts|Virotes de práctica
itm_practice_bolts_pl|Virotes de práctica
itm_practice_arrows_10_amount|Flechas de práctica
itm_practice_arrows_10_amount_pl|Flechas de práctica
itm_practice_arrows_100_amount|Flechas de práctica
itm_practice_arrows_100_amount_pl|Flechas de práctica
itm_practice_bolts_9_amount|Virotes de práctica
itm_practice_bolts_9_amount_pl|Virotes de práctica
itm_practice_boots|Botas de práctica
itm_practice_boots_pl|Botas de práctica
itm_red_tourney_armor|Armadura roja de torneos
itm_red_tourney_armor_pl|Armaduras roja de torneos
itm_blue_tourney_armor|Armadura azul de torneos
itm_blue_tourney_armor_pl|Armaduras azul de torneos
itm_green_tourney_armor|Armadura verde de torneos
itm_green_tourney_armor_pl|Armaduras verde de torneos
itm_gold_tourney_armor|Armadura dorada de torneos
itm_gold_tourney_armor_pl|Armaduras dorada de torneos
itm_red_tourney_helmet|Yelmo rojo de torneos
itm_red_tourney_helmet_pl|Yelmos rojo de torneos
itm_blue_tourney_helmet|Yelmo azul de torneos
itm_blue_tourney_helmet_pl|Yelmo azul de torneos
itm_green_tourney_helmet|Yelmo verde de torneos
itm_green_tourney_helmet_pl|Yelmos verde de torneos
itm_gold_tourney_helmet|Yelmo dorado de torneos
itm_gold_tourney_helmet_pl|Yelmos dorado de torneos
itm_arena_shield_red|Escudo
itm_arena_shield_red_pl|Escudos
itm_arena_shield_blue|Escudo
itm_arena_shield_blue_pl|Escudos
itm_arena_shield_green|Escudo
itm_arena_shield_green_pl|Escudos
itm_arena_shield_yellow|Escudo
itm_arena_shield_yellow_pl|Escudos
itm_arena_armor_white|Armadura blanca de la Arena
itm_arena_armor_white_pl|Armaduras blanca de la Arena
itm_arena_armor_red|Armadura roja de la Arena
itm_arena_armor_red_pl|Armaduras rojas de la Arena
itm_arena_armor_blue|Armadura azul de la Arena
itm_arena_armor_blue_pl|Armaduras azules de la Arena
itm_arena_armor_green|Armadura verde de la Arena
itm_arena_armor_green_pl|Armaduras verdes de la Arena
itm_arena_armor_yellow|Armadura amarilla de la Arena
itm_arena_armor_yellow_pl|Armaduras amarillas de la Arena
itm_arena_tunic_white|Túnica blanca de la Arena 
itm_arena_tunic_white_pl|Túnicas blanca de la Arena 
itm_arena_tunic_red|Túnica roja de la Asrena
itm_arena_tunic_red_pl|Túnicas rojas de la Arena
itm_arena_tunic_blue|Túnica azul de la Arena
itm_arena_tunic_blue_pl|Túnicas azules de la Arena
itm_arena_tunic_green|Túnica verde de la Arena
itm_arena_tunic_green_pl|Túnicas verdes de la Arena
itm_arena_tunic_yellow|Túnica amarilla de la Arena
itm_arena_tunic_yellow_pl|Túnicas amarillas de la Arena
itm_arena_helmet_red|Yelmo rojo de la Arena
itm_arena_helmet_red_pl|Yelmos rojos de la Arena
itm_arena_helmet_blue|Yelmo azul de la Arena
itm_arena_helmet_blue_pl|Yelmos azules de la Arena
itm_arena_helmet_green|Yelmo verde de la Arena
itm_arena_helmet_green_pl|Yelmos verdes de la Arena
itm_arena_helmet_yellow|Yelmo amarillo de la Arena
itm_arena_helmet_yellow_pl|Yelmos amarillo de la Arena
itm_steppe_helmet_white|Yelmo blanco de la estepa
itm_steppe_helmet_white_pl|Yelmos blancos de la estepa
itm_steppe_helmet_red|Yelmo rojo de la estepa
itm_steppe_helmet_red_pl|Yelmos rojos de la estepa
itm_steppe_helmet_blue|Yelmo azul de la estepa
itm_steppe_helmet_blue_pl|Yelmos azules de la estepa
itm_steppe_helmet_green|Yelmo verde de la estepa
itm_steppe_helmet_green_pl|Yelmos verdes de la estepa
itm_steppe_helmet_yellow|Yelmo amarillo de la estepa
itm_steppe_helmet_yellow_pl|Yelmos amarillos de la estepa
itm_tourney_helm_white|Yelmo blanco de torneos
itm_tourney_helm_white_pl|Yelmos blancos de torneos
itm_tourney_helm_red|Yelmo rojo de torneos
itm_tourney_helm_red_pl|Yelmos rojos de torneos
itm_tourney_helm_blue|Yelmo azul de torneos
itm_tourney_helm_blue_pl|Yelmos azules de torneos
itm_tourney_helm_green|Yelmo verde de torneos
itm_tourney_helm_green_pl|Yelmos verdes de torneos
itm_tourney_helm_yellow|Yelmo amarillo de torneos
itm_tourney_helm_yellow_pl|Yelmos amarillos de torneos
itm_arena_turban_red|Turbante
itm_arena_turban_red_pl|Turbantes
itm_arena_turban_blue|Turbante
itm_arena_turban_blue_pl|Turbantes
itm_arena_turban_green|Turbante
itm_arena_turban_green_pl|Turbantes
itm_arena_turban_yellow|Turbante
itm_arena_turban_yellow_pl|Turbantes
itm_book_tactics|De Re Militari
itm_book_tactics_pl|De Re Militari
itm_book_persuasion|Rhetorica ad Herennium
itm_book_persuasion_pl|Rhetorica ad Herennium
itm_book_leadership|La vida de Alixenus el Grande
itm_book_leadership_pl|La vida de Alixenus el Grande
itm_book_intelligence|Ensayos de lógica
itm_book_intelligence_pl|Ensayos de lógica
itm_book_trade|Tratado sobre el valor de las cosas
itm_book_trade_pl|Tratado sobre el valor de las cosas
itm_book_weapon_mastery|Sobre el arte de la lucha
itm_book_weapon_mastery_pl|Sobre el arte de la lucha
itm_book_engineering|Método de teoremas mecánicos
itm_book_engineering_pl|Método de teoremas mecánicos
itm_book_wound_treatment_reference|El libro de la sanación
itm_book_wound_treatment_reference_pl|El libro de la sanación
itm_book_training_reference|Manual de armas
itm_book_training_reference_pl|Manual de armas
itm_book_surgery_reference|El gran libro de la cirugía
itm_book_surgery_reference_pl|El gran libro de la cirugía
itm_spice|Especias
itm_spice_pl|Especias
itm_salt|Sal
itm_salt_pl|Sal
itm_oil|Aceite
itm_oil_pl|Aceite
itm_pottery|Cerámica
itm_pottery_pl|Cerámica
itm_raw_flax|Fardo de lino
itm_raw_flax_pl|Fardo de lino
itm_linen|Lino
itm_linen_pl|Lino
itm_wool|Lana
itm_wool_pl|Lana
itm_wool_cloth|Paño de lana
itm_wool_cloth_pl|Paño de lana
itm_raw_silk|Seda sin tratar
itm_raw_silk_pl|Seda sin tratar
itm_raw_dyes|Tintes
itm_raw_dyes_pl|Tintes
itm_velvet|Terciopelo
itm_velvet_pl|Terciopelo
itm_iron|Hierro
itm_iron_pl|Hierro
itm_tools|Herramientas
itm_tools_pl|Herramientas
itm_raw_leather|Pieles
itm_raw_leather_pl|Pieles
itm_leatherwork|Cueros
itm_leatherwork_pl|Cueros
itm_raw_date_fruit|Dátiles
itm_raw_date_fruit_pl|Dátiles
itm_furs|Pieles
itm_furs_pl|Pieles
itm_wine|Vino
itm_wine_pl|Vino
itm_ale|Cerveza
itm_ale_pl|Cerveza
itm_smoked_fish|Pescado ahumado
itm_smoked_fish_pl|Pescado ahumado
itm_cheese|Queso
itm_cheese_pl|Queso
itm_honey|Miel
itm_honey_pl|Miel
itm_sausages|Salchichas
itm_sausages_pl|Salchichas
itm_cabbages|Coles
itm_cabbages_pl|Coles
itm_dried_meat|Carne seca
itm_dried_meat_pl|Carne seca
itm_apples|Fruta
itm_apples_pl|Fruta
itm_raw_grapes|Uvas
itm_raw_grapes_pl|Uvas
itm_raw_olives|Aceitunas
itm_raw_olives_pl|Aceitunas
itm_grain|Cereal
itm_grain_pl|Cereal
itm_cattle_meat|Carne de res
itm_cattle_meat_pl|Carne de res
itm_bread|Pan
itm_bread_pl|Pan
itm_bier|Cerveza
itm_bier_pl|Cerveza
itm_vinn|Vino
itm_vinn_pl|Vino
itm_rhumm|Hidromiel
itm_rhumm_pl|Hidromiel
itm_chicken|Pollo
itm_chicken_pl|Pollo
itm_pork|Carne de cerdo
itm_pork_pl|Carne de cerdo
itm_butter|Manteca
itm_butter_pl|Manteca
itm_oeufss|Huevos
itm_oeufss_pl|Huevos
itm_soup|Caldo
itm_soup_pl|Caldo
itm_maiss|Maíz
itm_maiss_pl|Maíz
itm_pasteques|Sandía
itm_pasteques_pl|Sandía
itm_melons|Melón
itm_melons_pl|Melón
itm_champi|Champiñones
itm_champi_pl|Champiñones
itm_fesan|Faisanes
itm_fesan_pl|Faisanes
itm_legum|Cesta de verduras
itm_legum_pl|Cesta de verduras
itm_potee|Potaje de legumbres
itm_potee_pl|Potaje de legumbres
itm_poiss_soup|Sopa de pescado
itm_poiss_soup_pl|Sopa de pescado
itm_siege_supply|Suministros
itm_siege_supply_pl|Suministros
itm_quest_wine|el vino
itm_quest_wine_pl|el vino
itm_quest_ale|la cerveza
itm_quest_ale_pl|la cerveza
itm_sumpter_horse|Caballo albardón
itm_sumpter_horse_pl|Caballo albardón
itm_sumpter_horse_paris|Caballo enfermo
itm_sumpter_horse_paris_pl|Caballo enfermo
itm_saddle_horse|Caballo de silla
itm_saddle_horse_pl|Caballo de silla
itm_saddle_horseparis|Caballo manso
itm_saddle_horseparis_pl|Caballo manso
itm_saddle_horseparis2|Caballo manso
itm_saddle_horseparis2_pl|Caballo manso
itm_steppe_horse|Caballo estepario
itm_steppe_horse_pl|Caballo estepario
itm_arabian_horse_a|Caballo del desierto
itm_arabian_horse_a_pl|Caballo del desierto
itm_courser|Corcel
itm_courser_pl|Corcel
itm_arabian_horse_b|Caballo sarraní
itm_arabian_horse_b_pl|Caballo sarraní
itm_hunter|Caballo de caza
itm_hunter_pl|Caballo de caza
itm_warhorse|Caballo de guerra
itm_warhorse_pl|Caballo de guerra
itm_charger|Caballo de batalla
itm_charger_pl|Caballo de batalla
itm_hunter_f|Caballo de caza francés
itm_hunter_f_pl|Caballo de caza francés
itm_hunter_e|Caballo de caza francés
itm_hunter_e_pl|Caballo de caza francés
itm_warhorse_en1|Caballo de guerra inglés
itm_warhorse_en1_pl|Caballo de guerra inglés
itm_warhorse_en2|Caballo de guerra inglés
itm_warhorse_en2_pl|Caballo de guerra inglés
itm_warhorse_en3|Caballo de guerra inglés
itm_warhorse_en3_pl|Caballo de guerra inglés
itm_warhorse_f1|Caballo de guerra francés
itm_warhorse_f1_pl|Caballo de guerra francés
itm_warhorse_f2|Caballo de guerra francés
itm_warhorse_f2_pl|Caballo de guerra francés
itm_warhorse_f3|Caballo de guerra francés
itm_warhorse_f3_pl|Caballo de guerra francés
itm_war_horse_teu|Caballo de guerra teutónico
itm_war_horse_teu_pl|Caballo de guerra teutónico
itm_horse1|Caballo de caza
itm_horse1_pl|Caballo de caza
itm_horse6|Caballo de caza
itm_horse6_pl|Caballo de caza
itm_horse7|Caballo de caza
itm_horse7_pl|Caballo de caza
itm_horse8|Caballo de caza
itm_horse8_pl|Caballo de caza
itm_horse1e01|Corcel inglés
itm_horse1e01_pl|Corcel inglés
itm_horse6e01|Caballo de caza inglés
itm_horse6e01_pl|Caballo de caza inglés
itm_horse7e01|Caballo de caza inglés
itm_horse7e01_pl|Caballo de caza inglés
itm_horse8e01|Caballo de caza inglés
itm_horse8e01_pl|Caballo de caza inglés
itm_hunting_horsee01|Caballo de caza inglés
itm_hunting_horsee01_pl|Caballo de caza inglés
itm_horse1f01|Caballo de caza francés
itm_horse1f01_pl|Caballo de caza francés
itm_horse7f01|Caballo de caza francés
itm_horse7f01_pl|Caballo de caza francés
itm_courserf01|Caballo de caza francés
itm_courserf01_pl|Caballo de caza francés
itm_hunting_horsef01|Caballo de caza francés
itm_hunting_horsef01_pl|Caballo de caza francés
itm_horse_bardede01|Caballo armado inglés
itm_horse_bardede01_pl|Caballo armado inglés
itm_horse_bardede02|Caballo armado inglés
itm_horse_bardede02_pl|Caballo armado inglés
itm_horse_bardede03|Caballo armado inglés
itm_horse_bardede03_pl|Caballo armado inglés
itm_horse_bardedf01|Caballo armado francés
itm_horse_bardedf01_pl|Caballo armado francés
itm_horse_bardedf02|Caballo armado francés
itm_horse_bardedf02_pl|Caballo armado francés
itm_warhorse2lys|Caballo de guerra francés
itm_warhorse2lys_pl|Caballo de guerra francés
itm_warhorsebluewhite|Caballo de guerra francés
itm_warhorsebluewhite_pl|Caballo de guerra francés
itm_warhorseblueyellow|Caballo de guerra francés
itm_warhorseblueyellow_pl|Caballo de guerra francés
itm_warhorsebluecross|Caballo de guerra francés
itm_warhorsebluecross_pl|Caballo de guerra francés
itm_warhorse3lions|Caballo de guerra inglés
itm_warhorse3lions_pl|Caballo de guerra inglés
itm_warhorseredwhite|Caballo de guerra inglés
itm_warhorseredwhite_pl|Caballo de guerra inglés
itm_warhorseredyellow|Caballo de guerra inglés
itm_warhorseredyellow_pl|Caballo de guerra inglés
itm_warhorseredblack|Caballo de guerra inglés
itm_warhorseredblack_pl|Caballo de guerra inglés
itm_warhorseboar|Caballo de guerra
itm_warhorseboar_pl|Caballo de guerra
itm_warhorsehre|Caballo de guerra
itm_warhorsehre_pl|Caballo de guerra
itm_warhorsecharlesv|Caballo de Carlos V
itm_warhorsecharlesv_pl|Caballo de Carlos V
itm_warhorseduguesclin|Caballo de Du Guesclin
itm_warhorseduguesclin_pl|Caballo de Du Guesclin
itm_warhorseedwardiii|Caballo de Eduardo III
itm_warhorseedwardiii_pl|Caballo de Eduardo III
itm_warhorseblackprince|Caballo del Príncipe Negro
itm_warhorseblackprince_pl|Caballo del Príncipe Negro
itm_warhorsechandos|Caballo de John Chandos
itm_warhorsechandos_pl|Caballo de John Chandos
itm_warhorsedeer|Caballo de guerra
itm_warhorsedeer_pl|Caballo de guerra
itm_warhorsegreen|Caballo de guerra verde
itm_warhorsegreen_pl|Caballo de guerra verde
itm_warhorseredcross|Caballo de guerra inglés
itm_warhorseredcross_pl|Caballo de guerra inglés
itm_warhorseeagle|Caballo de guerra francés
itm_warhorseeagle_pl|Caballo de guerra francés
itm_warhorsefish|Caballo de guerra francés
itm_warhorsefish_pl|Caballo de guerra francés
itm_warhorsedablade|Caballo de guerra
itm_warhorsedablade_pl|Caballo de guerra
itm_chargerplainblue|Caballo pesado francés
itm_chargerplainblue_pl|Caballo pesado francés
itm_chargershinyblue|Caballo pesado francés
itm_chargershinyblue_pl|Caballo pesado francés
itm_chargerred|Caballo pesado inglés
itm_chargerred_pl|Caballo pesado inglés
itm_chargerplainred|Caballo pesado inglés
itm_chargerplainred_pl|Caballo pesado inglés
itm_chargershinyred|Caballo pesado inglés
itm_chargershinyred_pl|Caballo pesado inglés
itm_arrows|Flechas
itm_arrows_pl|Flechas
itm_khergit_arrows|Flechas Khergitas
itm_khergit_arrows_pl|Flechas Khergitas
itm_barbed_arrows|Flechas dentadas
itm_barbed_arrows_pl|Flechas dentadas
itm_bodkin_arrows|Flechas punzantes
itm_bodkin_arrows_pl|Flechas punzantes
itm_bolts|Virotes
itm_bolts_pl|Virotes
itm_steel_bolts|Virotes de acero
itm_steel_bolts_pl|Virotes de acero
itm_cartridges|Cartuchos
itm_cartridges_pl|Cartuchos
itm_pilgrim_disguise|Disfraz de peregrino
itm_pilgrim_disguise_pl|Disfraz de peregrino
itm_pilgrim_hood|Capucha de peregrino
itm_pilgrim_hood_pl|Capucha de peregrino
itm_leather_gloves|Guantes de cuero
itm_leather_gloves_pl|Guantes de cuero
itm_mail_mittens|Guantes de malla
itm_mail_mittens_pl|Guantes de malla
itm_scale_gauntlets|Guantes de escamas
itm_scale_gauntlets_pl|Guantes de escamas
itm_lamellar_gauntlets|Guantes laminados
itm_lamellar_gauntlets_pl|Guantes laminados
itm_gauntlets|Guanteletes
itm_gauntlets_pl|Guanteletes
itm_wisby_gauntlets_black|Guantes de cuero reforzados
itm_wisby_gauntlets_black_pl|Guantes de cuero reforzados
itm_wisby_gauntlets_red|Guantes de cuero reforzados
itm_wisby_gauntlets_red_pl|Guantes de cuero reforzados
itm_mail_gauntlets|Guantes de malla
itm_mail_gauntlets_pl|Guantes de malla
itm_hourglass_gauntlets_ornate|Guantaletes pesados ornamentados
itm_hourglass_gauntlets_ornate_pl|Guantaletes pesados ornamentados
itm_hourglass_gauntlets|Guantaletes pesados
itm_hourglass_gauntlets_pl|Guantaletes pesados
itm_wrapping_boots|Polainas
itm_wrapping_boots_pl|Polainas
itm_woolen_hose|Calzas de lana
itm_woolen_hose_pl|Calzas de lana
itm_blue_hose|Calzas azules
itm_blue_hose_pl|Calzas azules
itm_hunter_boots|Botas de cazador
itm_hunter_boots_pl|Botas de cazador
itm_hide_boots|Botas de piel
itm_hide_boots_pl|Botas de piel
itm_ankle_boots|Botines
itm_ankle_boots_pl|Botines
itm_nomad_boots|Botas de nómada
itm_nomad_boots_pl|Botas de nómada
itm_leather_boots|Botas de cuero
itm_leather_boots_pl|Botas de cuero
itm_splinted_leather_greaves|Canilleras de cuero laminado
itm_splinted_leather_greaves_pl|Canilleras de cuero laminado
itm_mail_chausses|Medias de malla
itm_mail_chausses_pl|Medias de malla
itm_splinted_greaves|Canilleras laminadas
itm_splinted_greaves_pl|Canilleras laminadas
itm_mail_boots|Botas de malla
itm_mail_boots_pl|Botas de malla
itm_iron_greaves|Canilleras de hierro
itm_iron_greaves_pl|Canilleras de hierro
itm_black_greaves|Canilleras negras
itm_black_greaves_pl|Canilleras negras
itm_khergit_leather_boots|Botas khergitas de cuero
itm_khergit_leather_boots_pl|Botas khergitas de cuero
itm_sarranid_boots_a|Zapatos sarraníes
itm_sarranid_boots_a_pl|Zapatos sarraníes
itm_sarranid_boots_b|Botas de cuero sarraníes
itm_sarranid_boots_b_pl|Botas de cuero sarraníes
itm_sarranid_boots_c|Botas de placas sarraníes
itm_sarranid_boots_c_pl|Botas de placas sarraníes
itm_sarranid_boots_d|Botas de malla sarraníes
itm_sarranid_boots_d_pl|Botas de malla sarraníes
itm_sarranid_head_cloth|Bandana de dama
itm_sarranid_head_cloth_pl|Bandana de dama
itm_sarranid_head_cloth_b|Bandana de dama
itm_sarranid_head_cloth_b_pl|Bandana de dama
itm_sarranid_felt_head_cloth|Bandana
itm_sarranid_felt_head_cloth_pl|Bandana
itm_sarranid_felt_head_cloth_b|Bandana
itm_sarranid_felt_head_cloth_b_pl|Bandana
itm_splinted_greaves_e1|Grebas inglesas reforzadas
itm_splinted_greaves_e1_pl|Grebas inglesas reforzadas
itm_splinted_greaves_f1|Grebas francesas reforzadas
itm_splinted_greaves_f1_pl|Grebas francesas reforzadas
itm_mail_chausses_e1|Grebas de malla inglesas
itm_mail_chausses_e1_pl|Grebas de malla inglesas
itm_mail_chausses_f1|Grebas de malla francesas
itm_mail_chausses_f1_pl|Grebas de malla francesas
itm_splinted_greaves_nospurs|Grebas reforzadas
itm_splinted_greaves_nospurs_pl|Grebas reforzadas
itm_splinted_greaves_spurs|Grebas con espuelas reforzadas
itm_splinted_greaves_spurs_pl|Grebas con espuelas reforzadas
itm_shynbaulds|Shynbaulds
itm_shynbaulds_pl|Shynbaulds
itm_steel_greaves|Grebas con canilleras
itm_steel_greaves_pl|Grebas con canilleras
itm_lady_dress_ruby|Vestido de dama
itm_lady_dress_ruby_pl|Vestido de dama
itm_lady_dress_green|Vestido de dama
itm_lady_dress_green_pl|Vestido de dama
itm_lady_dress_blue|Vestido de dama
itm_lady_dress_blue_pl|Vestido de dama
itm_red_dress|Vestido rojo
itm_red_dress_pl|Vestido rojo
itm_brown_dress|Vestido marrón
itm_brown_dress_pl|Vestido marrón
itm_green_dress|Vestido verde
itm_green_dress_pl|Vestido verde
itm_khergit_lady_dress|Vestido de dama Khergita
itm_khergit_lady_dress_pl|Vestido de dama Khergita
itm_khergit_lady_dress_b|Vestido de dama Khergita
itm_khergit_lady_dress_b_pl|Vestido de dama Khergita
itm_sarranid_lady_dress|Vestido de dama Sarraní
itm_sarranid_lady_dress_pl|Vestido de dama Sarraní
itm_sarranid_lady_dress_b|Vestido de dama Sarraní
itm_sarranid_lady_dress_b_pl|Vestido de dama Sarraní
itm_sarranid_common_dress|Vestido Sarraní
itm_sarranid_common_dress_pl|Vestido Sarraní
itm_sarranid_common_dress_b|Vestido Sarraní
itm_sarranid_common_dress_b_pl|Vestido Sarraní
itm_courtly_outfit|Vestimentas de corte
itm_courtly_outfit_pl|Vestimentas de corte
itm_nobleman_outfit|Vestimentas de noble
itm_nobleman_outfit_pl|Vestimentas de noble
itm_nomad_armor|Armadura de nómada
itm_nomad_armor_pl|Armadura de nómada
itm_khergit_armor|Armadura Khergita
itm_khergit_armor_pl|Armadura Khergita
itm_leather_jacket|Chaqueta de cuero
itm_leather_jacket_pl|Chaqueta de cuero
itm_rawhide_coat|Gabán de cuero sin curtir
itm_rawhide_coat_pl|Gabán de cuero sin curtir
itm_leather_armor|Armadura de cuero
itm_leather_armor_pl|Armadura de cuero
itm_fur_coat|Gabán de piel
itm_fur_coat_pl|Gabán de piel
itm_ribaude_dresss|Vestido de doncella
itm_ribaude_dresss_pl|Vestido de doncella
itm_ribaude_dress6bluues|Vestido de doncella
itm_ribaude_dress6bluues_pl|Vestido de doncella
itm_coat|Gabán
itm_coat_pl|Gabán
itm_leather_coat|Gabán de cuero
itm_leather_coat_pl|Gabán de cuero
itm_mail_coat|Gabán de malla
itm_mail_coat_pl|Gabán de malla
itm_long_mail_coat|Gabán largo de malla
itm_long_mail_coat_pl|Gabán largo de malla
itm_sleeveless_mail_coat|Cota de malla sin mangas
itm_sleeveless_mail_coat_pl|Cota de malla sin mangas
itm_sleeveless_coat|Abrigo sin mangas
itm_sleeveless_coat_pl|Abrigo sin mangas
itm_hide_coat|Gabán de piel
itm_hide_coat_pl|Gabán de piel
itm_merchant_outfit|Vestimenta de mercader
itm_merchant_outfit_pl|Vestimenta de mercader
itm_homespun_dress|Vestido sencillo
itm_homespun_dress_pl|Vestido sencillo
itm_thick_coat|Gabán grueso
itm_thick_coat_pl|Gabán grueso
itm_coat_with_cape|Gabán con capa
itm_coat_with_cape_pl|Gabán con capa
itm_steppe_outfit|Vestimenta esteparia
itm_steppe_outfit_pl|Vestimenta esteparia
itm_nordic_outfit|Vestimenta nórdica
itm_nordic_outfit_pl|Vestimenta nórdica
itm_nordic_armor|Armadura nórdica
itm_nordic_armor_pl|Armadura nórdica
itm_hide_armor|Armadura de pieles
itm_hide_armor_pl|Armadura de pieles
itm_cloaked_tunic|Túnica con capucha
itm_cloaked_tunic_pl|Túnica con capucha
itm_sleeveless_tunic|Túnica sin mangas
itm_sleeveless_tunic_pl|Túnica sin mangas
itm_sleeveless_leather_tunic|Túnica de cuero sin mangas
itm_sleeveless_leather_tunic_pl|Túnica de cuero sin mangas
itm_linen_shirt|Camisa de hilo
itm_linen_shirt_pl|Camisa de hilo
itm_wool_coat|Gabán de lana
itm_wool_coat_pl|Gabán de lana
itm_dress|Vestido
itm_dress_pl|Vestido
itm_blue_dress|Vestido azul
itm_blue_dress_pl|Vestido azul
itm_peasant_dress|Vestido de campesino
itm_peasant_dress_pl|Vestido de campesino
itm_woolen_dress|Vestido de lana
itm_woolen_dress_pl|Vestido de lana
itm_shirt|Camisa
itm_shirt_pl|Camisa
itm_linen_tunic|Túnica de lino
itm_linen_tunic_pl|Túnica de lino
itm_short_tunic|Túnica elegante
itm_short_tunic_pl|Túnica elegante
itm_red_shirt|Camisa roja
itm_red_shirt_pl|Camisa roja
itm_red_tunic|Túnica roja
itm_red_tunic_pl|Túnica roja
itm_green_tunic|Túnica verde
itm_green_tunic_pl|Túnica verde
itm_blue_tunic|Túnica azul
itm_blue_tunic_pl|Túnica azul
itm_robe|Hábito
itm_robe_pl|Hábito
itm_coarse_tunic|Túnica burda
itm_coarse_tunic_pl|Túnica burda
itm_leather_apron|Delantal de cuero
itm_leather_apron_pl|Delantal de cuero
itm_tabard|Tabardo
itm_tabard_pl|Tabardo
itm_leather_vest|Chaleco de cuero
itm_leather_vest_pl|Chaleco de cuero
itm_steppe_armor|Armadura esteparia
itm_steppe_armor_pl|Armadura esteparia
itm_gambeson|Gambeson
itm_gambeson_pl|Gambeson
itm_blue_gambeson|Gambeson azul
itm_blue_gambeson_pl|Gambeson azul
itm_red_gambeson|Gambeson rojo
itm_red_gambeson_pl|Gambeson rojo
itm_padded_cloth|Aketon
itm_padded_cloth_pl|Aketon
itm_aketon_green|Tela acolchada
itm_aketon_green_pl|Tela acolchada
itm_leather_jerkin|Jubón de cuero
itm_leather_jerkin_pl|Jubón de cuero
itm_nomad_vest|Chaleco nómada
itm_nomad_vest_pl|Chaleco nómada
itm_ragged_outfit|Vestimenta raída
itm_ragged_outfit_pl|Vestimenta raída
itm_padded_leather|Cuero acolchado
itm_padded_leather_pl|Cuero acolchado
itm_tribal_warrior_outfit|Vestimenta de guerrero tribal
itm_tribal_warrior_outfit_pl|Vestimenta de guerrero tribal
itm_nomad_robe|Túnica nómada
itm_nomad_robe_pl|Túnica nómada
itm_studded_leather_coat|Gabán de cuero tachonado
itm_studded_leather_coat_pl|Gabán de cuero tachonado
itm_byrnie|Byrnie
itm_byrnie_pl|Byrnie
itm_haubergeon|Haubergeon
itm_haubergeon_pl|Haubergeon
itm_lamellar_vest|Chaleco de láminas
itm_lamellar_vest_pl|Chaleco de láminas
itm_lamellar_vest_khergit|Chaleco de láminas 
itm_lamellar_vest_khergit_pl|Chaleco de láminas 
itm_mail_shirt|Camisa de malla
itm_mail_shirt_pl|Camisa de malla
itm_mail_hauberk|Loriga de mallas
itm_mail_hauberk_pl|Loriga de mallas
itm_mail_with_surcoat|Mallas con sobretodo
itm_mail_with_surcoat_pl|Mallas con sobretodo
itm_surcoat_over_mail|Sobretodo sobre mallas
itm_surcoat_over_mail_pl|Sobretodo sobre mallas
itm_brigandine_red|Brigantina
itm_brigandine_red_pl|Brigantina
itm_lamellar_armor|Armadura de láminas
itm_lamellar_armor_pl|Armadura de láminas
itm_scale_armor|Armadura de escamas
itm_scale_armor_pl|Armadura de escamas
itm_banded_armor|Armadura de bandas
itm_banded_armor_pl|Armadura de bandas
itm_cuir_bouilli|Cuero hervido
itm_cuir_bouilli_pl|Cuero hervido
itm_coat_of_plates|Gabán de placas
itm_coat_of_plates_pl|Gabán de placas
itm_coat_of_plates_red|Gabán de placas
itm_coat_of_plates_red_pl|Gabán de placas
itm_plate_armor|Armadura de placas
itm_plate_armor_pl|Armadura de placas
itm_black_armor|Armadura negra
itm_black_armor_pl|Armadura negra
itm_pelt_coat|Gabán de pieles
itm_pelt_coat_pl|Gabán de pieles
itm_khergit_elite_armor|Armadura khergita de élite
itm_khergit_elite_armor_pl|Armadura khergita de élite
itm_vaegir_elite_armor|Armadura vaegir de élite Elite
itm_vaegir_elite_armor_pl|Armadura vaegir de élite
itm_sarranid_elite_armor|Armadura sarraní de élite
itm_sarranid_elite_armor_pl|Armadura sarraní de élite
itm_sarranid_dress_a|Vestido
itm_sarranid_dress_a_pl|Vestido
itm_sarranid_dress_b|Vestido
itm_sarranid_dress_b_pl|Vestido
itm_sarranid_cloth_robe|Vestido raído
itm_sarranid_cloth_robe_pl|Vestido raído
itm_sarranid_cloth_robe_b|Vestido raído
itm_sarranid_cloth_robe_b_pl|Vestido raído
itm_skirmisher_armor|Armadura de escaramuzador
itm_skirmisher_armor_pl|Armadura de escaramuzador
itm_archers_vest|Chaleco acolchado de arquero
itm_archers_vest_pl|Chaleco acolchado de arquero
itm_sarranid_leather_armor|Armadura de cuero sarraní
itm_sarranid_leather_armor_pl|Armadura de cuero sarraní
itm_sarranid_cavalry_robe|Túnica de caballería
itm_sarranid_cavalry_robe_pl|Túnica de caballería
itm_arabian_armor_b|Armadura de guardia sarraní
itm_arabian_armor_b_pl|Armadura de guardia sarraní
itm_sarranid_mail_shirt|Camisa de mallas sarraní
itm_sarranid_mail_shirt_pl|Camisa de mallas sarraní
itm_mamluke_mail|Malla mameluca
itm_mamluke_mail_pl|Malla mameluca
itm_burlap_tunic|Túnica de arpillera
itm_burlap_tunic_pl|Túnica de arpillera
itm_heraldic_mail_with_surcoat|Malla heráldica con sobretodo
itm_heraldic_mail_with_surcoat_pl|Malla heráldica con sobretodo
itm_heraldic_mail_with_tunic|Malla heráldica
itm_heraldic_mail_with_tunic_pl|Malla heráldica
itm_heraldic_mail_with_tunic_b|Malla heráldica
itm_heraldic_mail_with_tunic_b_pl|Malla heráldica
itm_heraldic_mail_with_tabard|Malla heráldica con tabardo
itm_heraldic_mail_with_tabard_pl|Malla heráldica con tabardo
itm_swiss_armor|Armadura suiza
itm_swiss_armor_pl|Armadura suiza
itm_brigand_armor|Armadura de brigadier
itm_brigand_armor_pl|Armadura de brigadier
itm_rawhide_coatwhite|Abrigo de piel
itm_rawhide_coatwhite_pl|Abrigo de piel
itm_robeblack|Túnica negra
itm_robeblack_pl|Túnica negra
itm_robecross|Ropajes de monje
itm_robecross_pl|Ropajes de monje
itm_robewhite|Ropajes de sacerdote
itm_robewhite_pl|Ropajes de sacerdote
itm_robered|Túnica de capellán
itm_robered_pl|Túnica de capellán
itm_robepurple|Ropajes de obispo
itm_robepurple_pl|Ropajes de obispo
itm_courtly_outfitblue|Ropajes de la realeza francesa
itm_courtly_outfitblue_pl|Ropajes de la realeza francesa
itm_rich_outfitblue|Ropajes de rico francés
itm_rich_outfitblue_pl|Ropajes de rico francés
itm_court_dressblue|Vestido de la corte francés
itm_court_dressblue_pl|Vestido de la corte francés
itm_courtly_outfitred|Vestido de la realeza inglés
itm_courtly_outfitred_pl|Vestido de la realeza francés
itm_rich_outfitred|Ropajes de rico inglés
itm_rich_outfitred_pl|Ropajes de rico inglés
itm_court_dressred|Vestido de la corte inglés
itm_court_dressred_pl|Vestido de la corte inglés
itm_leather_vestblue|Gabán de cuero francés
itm_leather_vestblue_pl|Gabán de cuero francés
itm_leather_vestred|Gabán de cuero inglés
itm_leather_vestred_pl|Gabán de cuero inglés
itm_leather_vestgreen|Gabán de cuero
itm_leather_vestgreen_pl|Gabán de cuero
itm_padded_leatherblack|Cuero acolchado negro
itm_padded_leatherblack_pl|Cuero acolchado negro
itm_leather_jerkingreen|Jubón de cuero
itm_leather_jerkingreen_pl|Jubón de cuero
itm_leather_jerkinfur|Jubón de cuero con cota de malla
itm_leather_jerkinfur_pl|Jubón de cuero con cota de malla
itm_black_studded_leather_coat|Abrigo de cuero tachonado
itm_black_studded_leather_coat_pl|Abrigo de cuero tachonado
itm_black_brigandine|Brigantina negra
itm_black_brigandine_pl|Brigantina negra
itm_black_cuir_bouilli|Armadura de cuero hervido negro
itm_black_cuir_bouilli_pl|Armadura de cuero hervido negro
itm_byrnie_swiss1|Byrnie suizo
itm_byrnie_swiss1_pl|Byrnie suizo
itm_heraldric_armorlys|Armadura heráldica francesa
itm_heraldric_armorlys_pl|Armadura heráldica francesa
itm_heraldric_armor3lys|Armadura heráldica francesa
itm_heraldric_armor3lys_pl|Armadura heráldica francesa
itm_heraldric_armorbluewhite|Armadura heráldica francesa
itm_heraldric_armorbluewhite_pl|Armadura heráldica francesa
itm_heraldric_armorblueyellow|Armadura heráldica francesa
itm_heraldric_armorblueyellow_pl|Armadura heráldica francesa
itm_heraldric_armorlion|Armadura heráldica inglesa
itm_heraldric_armorlion_pl|Armadura heráldica inglesa
itm_heraldric_armorstripes|Armadura heráldica inglesa
itm_heraldric_armorstripes_pl|Armadura heráldica inglesa
itm_heraldric_armorredwhite|Armadura heráldica inglesa
itm_heraldric_armorredwhite_pl|Armadura heráldica inglesa
itm_heraldric_armorredyellow|Armadura heráldica inglesa
itm_heraldric_armorredyellow_pl|Armadura heráldica inglesa
itm_linen_tunic_swiss|Túnica de cuero suiza
itm_linen_tunic_swiss_pl|Túnica de cuero suiza
itm_dark_light_mail_and_plate|Armadura de placas y malla ligera
itm_dark_light_mail_and_plate_pl|Armadura de placas y malla ligera
itm_klepp_helmet|Bacinete con visera
itm_klepp_helmet_pl|Bacinete con visera
itm_pigface|Bacinete "cara de cerdo"
itm_pigface_pl|Bacinete "cara de cerdo"
itm_flemish_armet|Casco
itm_flemish_armet_pl|Casco
itm_greatbascinet1|Gran bacinete
itm_greatbascinet1_pl|Gran bacinete
itm_greathelm1|Gran yelmo
itm_greathelm1_pl|Gran yelmo
itm_greathelmwhat|Gran yelmo
itm_greathelmwhat_pl|Gran yelmo
itm_klappvisier|Bacinete
itm_klappvisier_pl|Bacinete
itm_peasant_man_e1|Túnica de yeoman inglés
itm_peasant_man_e1_pl|Túnica de yeoman inglés
itm_peasant_man_e2|Túnica de yeoman inglés
itm_peasant_man_e2_pl|Túnica de yeoman inglés
itm_peasant_man_f2|Túnica de yeoman francés
itm_peasant_man_f2_pl|Túnica de yeoman francés
itm_peasant_man_f1|Túnica de yeoman francés
itm_peasant_man_f1_pl|Túnica de yeoman francés
itm_tattered_leather_armor_e1|Armadura de cuero inglesa
itm_tattered_leather_armor_e1_pl|Armadura de cuero inglesa
itm_tattered_leather_armor_e2|Armadura de cuero inglesa
itm_tattered_leather_armor_e2_pl|Armadura de cuero inglesa
itm_tattered_leather_armor_f1|Armadura de cuero francesa
itm_tattered_leather_armor_f1_pl|Armadura de cuero francesa
itm_tattered_leather_armor_f2|Armadura de cuero francesa
itm_tattered_leather_armor_f2_pl|Armadura de cuero francesa
itm_leather_vest_e1|Chaleco de cuero inglés
itm_leather_vest_e1_pl|Chaleco de cuero inglés
itm_leather_vest_e2|Chaleco de cuero inglés
itm_leather_vest_e2_pl|Chaleco de cuero inglés
itm_leather_vest_f1|Chaleco de cuero francés
itm_leather_vest_f1_pl|Chaleco de cuero francés
itm_leather_vest_f2|Chaleco de cuero francés
itm_leather_vest_f2_pl|Chaleco de cuero francés
itm_white_gambeson_e1|Gambesón inglés
itm_white_gambeson_e1_pl|Gambesón inglés
itm_white_gambeson_f1|Gambesón francés
itm_white_gambeson_f1_pl|Gambesón francés
itm_padded_cloth_e1|Aketon inglés
itm_padded_cloth_e1_pl|Aketon inglés
itm_padded_cloth_f1|Aketón francés
itm_padded_cloth_f1_pl|Aketon francés
itm_padded_cloth_b_e1|Túnica acolchada inglesa
itm_padded_cloth_b_e1_pl|Túnica acolchada inglesa
itm_padded_cloth_b_f1|Túnica acolchada francesa
itm_padded_cloth_b_f1_pl|Túnica acolchada francesa
itm_ragged_leather_jerkin_e1|Jubón de cuero inglés
itm_ragged_leather_jerkin_e1_pl|Jubón de cuero inglés
itm_ragged_leather_jerkin_f1|Jubón de cuero francés
itm_ragged_leather_jerkin_f1_pl|Jubón de cuero francés
itm_padded_jack|Chaqueta de cuero
itm_padded_jack_pl|Chaqueta de cuero
itm_padded_jack_e|Chaqueta de cuero inglesa
itm_padded_jack_e_pl|Chaqueta de cuero inglesa
itm_leather_armor_e1|Cuero acolchado inglés
itm_leather_armor_e1_pl|Cuero acolchado inglés
itm_leather_armor_e2|Cuero acolchado inglés
itm_leather_armor_e2_pl|Cuero acolchado inglés
itm_leather_armor_f1|Cuero acolchado francés
itm_leather_armor_f1_pl|Cuero acolchado francés
itm_leather_armor_f2|Cuero acolchado francés
itm_leather_armor_f2_pl|Cuero acolchado francés
itm_leather_armor_e4|Abrigo de cuero tachonado inglés
itm_leather_armor_e4_pl|Abrigo de cuero tachonado inglés
itm_leather_armor_e3|Abrigo de cuero tachonado inglés
itm_leather_armor_e3_pl|Abrigo de cuero tachonado inglés
itm_leather_armor_f3|Abrigo de cuero tachonado francés
itm_leather_armor_f3_pl|Abrigo de cuero tachonado francés
itm_leather_armor_f4|Abrigo de cuero tachonado francés
itm_leather_armor_f4_pl|Abrigo de cuero tachonado francés
itm_haubergeon_e1|Haubergeon inglés
itm_haubergeon_e1_pl|Haubergeon inglés
itm_haubergeon_e2|Haubergeon inglés
itm_haubergeon_e2_pl|Haubergeon inglés
itm_haubergeon_f1|Haubergeon francés
itm_haubergeon_f1_pl|Haubergeon francés
itm_haubergeon_f2|Haubergeon francés
itm_haubergeon_f2_pl|Haubergeon francés
itm_mail_shirt_e1|Cota de malla inglesa
itm_mail_shirt_e1_pl|Cota de malla inglesa
itm_mail_shirt_e2|Cota de malla inglesa
itm_mail_shirt_e2_pl|Cota de malla inglesa
itm_mail_shirt_f1|Cota de malla francesa
itm_mail_shirt_f1_pl|Cota de malla francesa
itm_mail_shirt_f2|Cotade malla francesa
itm_mail_shirt_f2_pl|Cota de malla francesa
itm_mail_shirtdeer|Cota de malla
itm_mail_shirtdeer_pl|Cota de malla
itm_mail_shirtgreen|Cota de malla
itm_mail_shirtgreen_pl|Cota de malla
itm_mail_shirthre|Cota de malla
itm_mail_shirthre_pl|Cota de malla
itm_surcoat_over_mail_f1|Sobretodo con malla francés
itm_surcoat_over_mail_f1_pl|Sobretodo con malla francés
itm_surcoat_over_mail_f2|Sobretodo con malla francés
itm_surcoat_over_mail_f2_pl|Sobretodo con malla francés
itm_surcoat_over_mail_f3|Sobretodo con malla francés
itm_surcoat_over_mail_f3_pl|Sobretodo con malla francés
itm_surcoat_over_mail_f4|Sobretodo con malla francés
itm_surcoat_over_mail_f4_pl|Sobretodo con malla francés
itm_surcoat_over_mail_e1|Sobretodo con malla inglés
itm_surcoat_over_mail_e1_pl|Sobretodo con malla inglés
itm_surcoat_over_mail_e2|Sobretodo con malla inglés
itm_surcoat_over_mail_e2_pl|Sobretodo con malla inglés
itm_surcoat_over_mail_e3|Sobretodo con malla inglés
itm_surcoat_over_mail_e3_pl|Sobretodo con malla inglés
itm_surcoat_over_mail_e4|Sobretodo con malla inglés
itm_surcoat_over_mail_e4_pl|Sobretodo con malla inglés
itm_brigandine_e1|Brigantina inglesa
itm_brigandine_e1_pl|Brigantina inglesa
itm_brigandine_e2|Brigantina inglesa
itm_brigandine_e2_pl|Brigantina inglesa
itm_brigandine_f1|Brigantina francesa
itm_brigandine_f1_pl|Brigantina francesa
itm_brigandine_f2|Brigantina francesa
itm_brigandine_f2_pl|Brigantina francesa
itm_brigandine_g|Brigantina genovesa
itm_brigandine_g_pl|Brigantina genovesa
itm_brigandine_sl|Cota de malla de Sang Lys
itm_brigandine_sl_pl|Cota de malla de Sang Lys
itm_coat_of_plates_e1|Armadura de placas inglesa
itm_coat_of_plates_e1_pl|Armadura de placas inglesa
itm_coat_of_plates_e2|Armadura de placas inglesa
itm_coat_of_plates_e2_pl|Armadura de placas inglesa
itm_coat_of_plates_e3|Armadura de placas inglesa
itm_coat_of_plates_e3_pl|Armadura de placas inglesa
itm_coat_of_plates_f1|Armadura de placas francesa
itm_coat_of_plates_f1_pl|Armadura de placas francesa
itm_coat_of_plates_f2|Armadura de placas francesa
itm_coat_of_plates_f2_pl|Armadura de placas francesa
itm_coat_of_plates_f3|Armadura de placas francesa
itm_coat_of_plates_f3_pl|Armadura de placas francesa
itm_early_transitional_teu|Armadura de placas y sobretodo teutónico
itm_early_transitional_teu_pl|Armadura de placas y sobretodo teutónico
itm_early_transitional_hre|Armadura de placas y sobretodo del Sacro Imperio
itm_early_transitional_hre_pl|Armadura de placas y sobretodo del Sacro Imperio
itm_early_transitional_green|Armadura de placas y sobretodo
itm_early_transitional_green_pl|Armadura de placas y sobretodo
itm_early_transitional_horse|Armadura de malla y placas francesa pesada
itm_early_transitional_horse_pl|Armadura de malla y placas francesa pesada
itm_early_transitional_boar|Armadura de malla y placas francesa pesada
itm_early_transitional_boar_pl|Armadura de malla y placas francesa pesada
itm_early_transitional_white|Armadura de malla y placas pesada
itm_early_transitional_white_pl|Armadura de malla y placas pesada
itm_early_transitional_f1|Armadura de malla y placas francesa
itm_early_transitional_f1_pl|Armadura de malla y placas francesa
itm_early_transitional_f2|Armadura de malla y placas francesa
itm_early_transitional_f2_pl|Armadura de malla y placas francesa
itm_early_transitional_f3|Armadura de malla y placas francesa
itm_early_transitional_f3_pl|Armadura de malla y placas francesa
itm_early_transitional_f4|Armadura de malla y placas francesa
itm_early_transitional_f4_pl|Armadura de malla y placas francesa
itm_early_transitional_f5|Armadura de malla y placas francesa
itm_early_transitional_f5_pl|Armadura de malla y placas francesa
itm_early_transitional_e1|Armadura de malla y placas inglesa
itm_early_transitional_e1_pl|Armadura de malla y placas inglesa
itm_early_transitional_e2|Armadura de malla y placas inglesa
itm_early_transitional_e2_pl|Armadura de malla y placas inglesa
itm_early_transitional_e3|Armadura de malla y placas inglesa
itm_early_transitional_e3_pl|Armadura de malla y placas inglesa
itm_early_transitional_e4|Armadura de malla y placas inglesa
itm_early_transitional_e4_pl|Armadura de malla y placas inglesa
itm_early_transitional_e5|Armadura de malla y placas inglesa
itm_early_transitional_e5_pl|Armadura de malla y placas inglesa
itm_early_transitional_e6|Armadura de malla y placas inglesa
itm_early_transitional_e6_pl|Armadura de malla y placas inglesa
itm_early_transitional_e7|Armadura de malla y placas inglesa
itm_early_transitional_e7_pl|Armadura de malla y placas inglesa
itm_corrazina_blue|Corazzina
itm_corrazina_blue_pl|Corazzina
itm_corrazina_red|Corazzina
itm_corrazina_red_pl|Corazzina
itm_corrazina_green|Corazzina
itm_corrazina_green_pl|Corazzina
itm_corrazina_grey|Corazzina
itm_corrazina_grey_pl|Corazzina
itm_churburg_13_e|Amadura de placas completa
itm_churburg_13_e_pl|Amadura de placas completa
itm_churburg_13_brass_f|Amadura de placas completa y ornamentada
itm_churburg_13_brass_f_pl|Amadura de placas completa y ornamentada
itm_churburg_13|Amadura de placas completa
itm_churburg_13_pl|Amadura de placas completa
itm_churburg_13_brass|Amadura de placas completa y ornamentada
itm_churburg_13_brass_pl|Amadura de placas completa y ornamentada
itm_churburg_13_mail|Amadura de placas completa y ornamentada
itm_churburg_13_mail_pl|Amadura de placas completa y ornamentada
itm_early_transitional_heraldic|Armadura de malla y placas pesada
itm_early_transitional_heraldic_pl|Armadura de malla y placas pesada
itm_early_transitional_blue|Armadura de malla y placas pesada
itm_early_transitional_blue_pl|Armadura de malla y placas pesada
itm_early_transitional_orange|Armadura de malla y placas pesada
itm_early_transitional_orange_pl|Armadura de malla y placas pesada
itm_milanese_armour|Armadura milanesa
itm_milanese_armour_pl|Armadura milanesa
itm_gothic_armour|Armadura gótica
itm_gothic_armour_pl|Armadura gótica
itm_turret_hat_ruby|Toca cuadrada
itm_turret_hat_ruby_pl|Toca cuadrada
itm_turret_hat_blue|Toca cuadrada
itm_turret_hat_blue_pl|Toca cuadrada
itm_turret_hat_green|Barboquejo
itm_turret_hat_green_pl|Barboquejo
itm_head_wrappings|Vendajes
itm_head_wrappings_pl|Vendajes
itm_court_hat|Toca cuadrada
itm_court_hat_pl|Toca cuadrada
itm_wimple_a|Griñón
itm_wimple_a_pl|Griñón
itm_wimple_with_veil|Griñón con velo
itm_wimple_with_veil_pl|Griñón con velo
itm_straw_hat|Sombrero de paja
itm_straw_hat_pl|Sombrero de paja
itm_common_hood|Capucha
itm_common_hood_pl|Capucha
itm_hood_b|Capucha
itm_hood_b_pl|Capucha
itm_hood_c|Capucha
itm_hood_c_pl|Capucha
itm_hood_d|Capucha
itm_hood_d_pl|Capucha
itm_headcloth|Bandana
itm_headcloth_pl|Bandana
itm_woolen_hood|Capucha de lana
itm_woolen_hood_pl|Capucha de lana
itm_arming_cap|Crespina
itm_arming_cap_pl|Crespina
itm_fur_hat|Sombrero de piel
itm_fur_hat_pl|Sombrero de piel
itm_nomad_cap|Gorro nómada
itm_nomad_cap_pl|Gorro nómada
itm_nomad_cap_b|Gorro nómada
itm_nomad_cap_b_pl|Gorro nómada
itm_steppe_cap|Gorro de la estepa
itm_steppe_cap_pl|Gorro de la estepa
itm_padded_coif|Cofia acolchada
itm_padded_coif_pl|Cofia acolchada
itm_woolen_cap|Gorro de lana
itm_woolen_cap_pl|Gorro de lana
itm_felt_hat|Sombrero de fieltro
itm_felt_hat_pl|Sombrero de fieltro
itm_felt_hat_b|Sombrero de fieltro
itm_felt_hat_b_pl|Sombrero de fieltro
itm_leather_cap|Gorro de cuero
itm_leather_cap_pl|Gorro de cuero
itm_female_hood|Capucha de dama
itm_female_hood_pl|Capucha de dama
itm_leather_steppe_cap_a|Crespina de la estepa
itm_leather_steppe_cap_a_pl|Crespina de la estepa
itm_leather_steppe_cap_b|Crespina de la estepa 
itm_leather_steppe_cap_b_pl|Crespina de la estepa 
itm_leather_steppe_cap_c|Crespina de la estepa
itm_leather_steppe_cap_c_pl|Crespina de la estepa
itm_leather_warrior_cap|Gorro de cuero de guerrero
itm_leather_warrior_cap_pl|Gorro de cuero de guerrero
itm_skullcap|Gorro
itm_skullcap_pl|Gorro
itm_mail_coif|Cofia de malla
itm_mail_coif_pl|Cofia de malla
itm_footman_helmet|Yelmo militar
itm_footman_helmet_pl|Yelmo militar
itm_nasal_helmet|Yelmo nasal
itm_nasal_helmet_pl|Yelmo nasal
itm_norman_helmet|Casco acolchado
itm_norman_helmet_pl|Casco acolchado
itm_segmented_helmet|Yelmo segmentado
itm_segmented_helmet_pl|Yelmo segmentado
itm_helmet_with_neckguard|Yelmo con protección al cuello
itm_helmet_with_neckguard_pl|Yelmo con protección al cuello
itm_flat_topped_helmet|Yelmo chato
itm_flat_topped_helmet_pl|Yelmo chato
itm_kettle_hat|Capelina
itm_kettle_hat_pl|Capelina
itm_spiked_helmet|Yelmo de punta
itm_spiked_helmet_pl|Yelmo de punta
itm_nordic_helmet|Yelmo nórdico
itm_nordic_helmet_pl|Yelmo nórdico
itm_khergit_lady_hat|Sombrero de dama Khergita
itm_khergit_lady_hat_pl|Sombrero de dama Khergita
itm_khergit_lady_hat_b|Sombrero de cuero de dama Khergita
itm_khergit_lady_hat_b_pl|Sombrero de cuero de dama Khergita
itm_sarranid_felt_hat|Sombrero de fieltro sarraní
itm_sarranid_felt_hat_pl|Sombrero de fieltro sarraní
itm_turban|Turbante
itm_turban_pl|Turbante
itm_desert_turban|Turbante del desierto
itm_desert_turban_pl|Turbante del desierto
itm_sarranid_warrior_cap|Casco de guerrero sarraní
itm_sarranid_warrior_cap_pl|Casco de guerrero sarraní
itm_sarranid_horseman_helmet|Casco de jinete
itm_sarranid_horseman_helmet_pl|Casco de jinete
itm_sarranid_helmet1|Casco Keffiyeh sarraní
itm_sarranid_helmet1_pl|Casco Keffiyeh sarraní
itm_sarranid_mail_coif|Cofia de malla sarraní
itm_sarranid_mail_coif_pl|Cofia de malla sarraní
itm_sarranid_veiled_helmet|Casco con visera sarraní
itm_sarranid_veiled_helmet_pl|Casco con visera sarraní
itm_nordic_archer_helmet|Casco de cuero nórdico
itm_nordic_archer_helmet_pl|Casco de cuero nórdico
itm_nordic_veteran_archer_helmet|Casco de cuero nórdico
itm_nordic_veteran_archer_helmet_pl|Casco de cuero nórdico
itm_nordic_footman_helmet|Casco nórdico de soldado raso
itm_nordic_footman_helmet_pl|Casco nórdico de soldado raso
itm_nordic_fighter_helmet|Casco nórdico de guerrero
itm_nordic_fighter_helmet_pl|Casco nórdico de guerrero
itm_nordic_huscarl_helmet|Casco de campeón nórdico
itm_nordic_huscarl_helmet_pl|Casco de campeón nórdico
itm_nordic_warlord_helmet|Casco nórdico de señor guerrero
itm_nordic_warlord_helmet_pl|Casco nórdico de señor guerrero
itm_vaegir_fur_cap|Gorro de piel
itm_vaegir_fur_cap_pl|Gorro de piel
itm_vaegir_fur_helmet|Yelmo vaegir
itm_vaegir_fur_helmet_pl|Yelmo vaegir
itm_vaegir_spiked_helmet|Yelmo de punta
itm_vaegir_spiked_helmet_pl|Yelmo de punta
itm_vaegir_lamellar_helmet|Yelmo de láminas
itm_vaegir_lamellar_helmet_pl|Yelmo de láminas
itm_vaegir_noble_helmet|Yelmo de noble vaegir
itm_vaegir_noble_helmet_pl|Yelmo de noble vaegir
itm_vaegir_war_helmet|Yelmo vaegir de guerra
itm_vaegir_war_helmet_pl|Yelmo vaegir de guerra
itm_vaegir_mask|Máscara vaegir de guerra
itm_vaegir_mask_pl|Máscara vaegir de guerra
itm_bascinet|Bacinete
itm_bascinet_pl|Bacinete
itm_bascinet_2|Bacinete con aventail
itm_bascinet_2_pl|Bacinete con aventail
itm_bascinet_3|Bacinete con protector de nariz
itm_bascinet_3_pl|Bacinete con protector de nariz
itm_guard_helmet|Yelmo de guardia
itm_guard_helmet_pl|Yelmo de guardia
itm_black_helmet|Yelmo negro
itm_black_helmet_pl|Yelmo negro
itm_full_helm|Yelmo completo
itm_full_helm_pl|Yelmo completo
itm_great_helmet|Gran yelmo
itm_great_helmet_pl|Gran yelmo
itm_winged_great_helmet|Gran yelmo alado
itm_winged_great_helmet_pl|Gran yelmo alado
itm_common_hoodblack|Capucha negra
itm_common_hoodblack_pl|Capucha negra
itm_leather_capred|Gorro de sacerdote
itm_leather_capred_pl|Gorro de sacerdote
itm_leather_cappurple|Gorro de obispo
itm_leather_cappurple_pl|Gorro de obispo
itm_common_helm|Capelina angular
itm_common_helm_pl|Capelina angular
itm_war_helm|Yelmo con almófar
itm_war_helm_pl|Yelmo con almófar
itm_french_joustinghelmblackhorns|Yelmo de justas francés con cuernos
itm_french_joustinghelmblackhorns_pl|Yelmo de justas francés con cuernos
itm_french_joustinghelmcrow|Yelmo de justas francés de águila
itm_french_joustinghelmcrow_pl|Yelmo de justas francés de águila
itm_french_joustinghelmcrowwithwings|Yelmo de justas francés de cuervo
itm_french_joustinghelmcrowwithwings_pl|Yelmo de justas francés de cuervo
itm_english_inquisitorcrowfighterhelm|Yelmo de justas inglés
itm_english_inquisitorcrowfighterhelm_pl|Yelmo de justas inglés
itm_english_joustinghelmblackhorns|Yelmo de justas inglés con cuernos
itm_english_joustinghelmblackhorns_pl|Yelmo de justas inglés con cuernos
itm_english_joustinghelmcrow|Yelmo de justas inglés de águila
itm_english_joustinghelmcrow_pl|Yelmo de justas inglés de águila
itm_english_joustinghelmcrowwithwings|Yelmo de justas inglés de cuervo
itm_english_joustinghelmcrowwithwings_pl|Yelmo de justas inglés de cuervo
itm_black_helmetgrey|Barbuta
itm_black_helmetgrey_pl|Barbuta
itm_black_helmetgolden|Barbuta
itm_black_helmetgolden_pl|Barbuta
itm_crusader_helmet|Gran yelmo
itm_crusader_helmet_pl|Gran yelmo
itm_hood_f1|Capucha
itm_hood_f1_pl|Capucha
itm_woolen_cap_f1|Gorro de lana
itm_woolen_cap_f1_pl|Gorro de lana
itm_coif_new_f1|Cofia acolchada
itm_coif_new_f1_pl|Cofia acolchada
itm_felt_hat_f1|Gorro de fieltro
itm_felt_hat_f1_pl|Gorro de fieltro
itm_hood_e1|Capucha
itm_hood_e1_pl|Capucha
itm_woolen_cap_e1|Gorro de lana
itm_woolen_cap_e1_pl|Gorro de lana
itm_coif_new_e1|Cofia acolchada
itm_coif_new_e1_pl|Cofia acolchada
itm_felt_hat_e1|Gorro de fieltro
itm_felt_hat_e1_pl|Gorro de fieltro
itm_mail_coif_full|Cofia de malla completa
itm_mail_coif_full_pl|Cofia de malla completa
itm_kettlehat1|Capelina
itm_kettlehat1_pl|Capelina
itm_kettlehat1_painted|Capelina
itm_kettlehat1_painted_pl|Capelina
itm_kettlehat2|Capelina cuadrada
itm_kettlehat2_pl|Capelina cuadrada
itm_kettlehat2_painted|Capelina cuadrada
itm_kettlehat2_painted_pl|Capelina cuadrada
itm_byzantion|Capelina bizantina
itm_byzantion_pl|Capelina bizantina
itm_byzantion_painted|Capelina bizantina
itm_byzantion_painted_pl|Capelina bizantina
itm_oniontop_bascinet|Bacinete 
itm_oniontop_bascinet_pl|Bacinete
itm_great_helm_joust|Gran yelmo
itm_great_helm_joust_pl|Gran yelmo
itm_great_helm_grif|Gran yelmo
itm_great_helm_grif_pl|Gran yelmo
itm_tilting_helm_horns|Yelmo
itm_tilting_helm_horns_pl|Yelmo
itm_tilting_helmet|Yelmo
itm_tilting_helmet_pl|Yelmo
itm_tilting_helm_crow|Yelmo
itm_tilting_helm_crow_pl|Yelmo
itm_tilting_helm_unicorn|Yelmo
itm_tilting_helm_unicorn_pl|Yelmo
itm_tilting_helm_swan|Yelmo
itm_tilting_helm_swan_pl|Yelmo
itm_great_helm_wings_teut|Gran yelmo alado
itm_great_helm_wings_teut_pl|Gran yelmo alado
itm_great_helm_knobs|Gran yelmo
itm_great_helm_knobs_pl|Gran yelmo
itm_tilting_helm_horns_f|Yelmo
itm_tilting_helm_horns_f_pl|Yelmo
itm_great_helm_joust_f|Gran yelmo
itm_great_helm_joust_f_pl|Gran yelmo
itm_great_helm_grif_f|Gran yelmo
itm_great_helm_grif_f_pl|Gran yelmo
itm_tilting_helm_crow_f|Yelmo
itm_tilting_helm_crow_f_pl|Yelmo
itm_tilting_helm_unicorn_f|Yelmo
itm_tilting_helm_unicorn_f_pl|Yelmo
itm_tilting_helm_swan_f|Yelmo
itm_tilting_helm_swan_f_pl|Yelmo
itm_tilting_helm_unicorn_tall_f|Yelmo
itm_tilting_helm_unicorn_tall_f_pl|Yelmo
itm_sugarloaf|Gran yelmo
itm_sugarloaf_pl|Gran yelmo
itm_pigface_klappvisor|Bacinete "cara de cerdo"
itm_pigface_klappvisor_pl|Bacinete "cara de cerdo"
itm_hounskull|Bacinete
itm_hounskull_pl|Bacinete
itm_pigface_klappvisor_open|Bacinete "cara de cerdo"
itm_pigface_klappvisor_open_pl|Bacinete "cara de cerdo"
itm_visored_sallet|Sallet con visera
itm_visored_sallet_pl|Sallet con visera
itm_visored_sallet_coif|Sallet con visera y cofia
itm_visored_sallet_coif_pl|Sallet con visera y cofia
itm_open_sallet|Sallet abierto
itm_open_sallet_pl|Sallet abierto
itm_open_sallet_coif|Sallet abierto con cofia
itm_open_sallet_coif_pl|Sallet abierto con cofia
itm_1mace|Maza de aletas
itm_1mace_pl|Maza de aletas
itm_2mace|Maza de pinchos
itm_2mace_pl|Maza de pinchos
itm_4mace|Maza de guerra con pinchos
itm_4mace_pl|Maza de guerra con pinchos
itm_spiked_mace|Maza de pinchos
itm_spiked_mace_pl|Maza de pinchos
itm_1club|Palo de clavos
itm_1club_pl|Palo de clavos
itm_military_hammer|Martillo militar
itm_military_hammer_pl|Martillo militar
itm_1hammer|Martillo militar
itm_1hammer_pl|Martillo militar
itm_2hammer|Martillo de guerra con pinchos
itm_2hammer_pl|Martillo de guerra con pinchos
itm_3hammer|Martillo militar
itm_3hammer_pl|Martillo militar
itm_4hammer|Martillo de guerra
itm_4hammer_pl|Martillo de guerra
itm_5hammer|Martillo militar
itm_5hammer_pl|Martillo militar
itm_2polehammer|Martillo de guerra de acero
itm_2polehammer_pl|Martillo de guerra de acero
itm_3mace|Mazo de guerra con pinchos
itm_3mace_pl|Mazo de guerra con pinchos
itm_hersir|Hersir
itm_hersir_pl|Hersir
itm_huskarl|Huscarl
itm_huskarl_pl|Huscarl
itm_clontarf|Clontarf
itm_clontarf_pl|Clontarf
itm_jarl|Jarl
itm_jarl_pl|Jarl
itm_gotland|Gotland
itm_gotland_pl|Gotland
itm_berserkr|Berserker
itm_berserkr_pl|Berserker
itm_regent|Regente
itm_regent_pl|Regente
itm_mercenary|Mercenario
itm_mercenary_pl|Mercenario
itm_castellan|Castellano
itm_castellan_pl|Castellano
itm_sempach|Sempach
itm_sempach_pl|Sempach
itm_talhoffer|Talhoffer
itm_talhoffer_pl|Talhoffer
itm_agincourt|Agincourt
itm_agincourt_pl|Agincourt
itm_constable|Alguacil
itm_constable_pl|Alguacil
itm_steward|Mayordomo
itm_steward_pl|Mayordomo
itm_baron|Barón
itm_baron_pl|Barón
itm_crecy|Crecy
itm_crecy_pl|Crecy
itm_landgraf|Landgraf
itm_landgraf_pl|Landgraf
itm_duke|Duque
itm_duke_pl|Duque
itm_count|Conde
itm_count_pl|Conde
itm_gaddhjalt|Gaddhjalt
itm_gaddhjalt_pl|Gaddhjalt
itm_ritter|Ritter
itm_ritter_pl|Ritter
itm_reeve|Juez local
itm_reeve_pl|Juez local
itm_squire|Escudero
itm_squire_pl|Escudero
itm_laird|Laird
itm_laird_pl|Laird
itm_caithness|Caithness
itm_caithness_pl|Caithness
itm_templar|Templario
itm_templar_pl|Templario
itm_bayeux|Bayeux
itm_bayeux_pl|Bayeux
itm_hospitaller|Hospitalario
itm_hospitaller_pl|Hospitalario
itm_senlac|Senlac
itm_senlac_pl|Senlac
itm_knight|Caballero
itm_knight_pl|Caballero
itm_norman|Normando
itm_norman_pl|Normando
itm_poitiers|Poitiers
itm_poitiers_pl|Poitiers
itm_prince|Príncipe
itm_prince_pl|Príncipe
itm_sovereign|Soverano
itm_sovereign_pl|Soverano
itm_great_lance|Gran lanza
itm_great_lance_pl|Gran lanza
itm_jousting_lanceblueyellow|Lanza de justas francesa
itm_jousting_lanceblueyellow_pl|Lanza de justas francesa
itm_jousting_lancebluewhite|Lanza de justas francesa
itm_jousting_lancebluewhite_pl|Lanza de justas francesa
itm_jousting_lanceredyellow|Lanza de justas inglesa
itm_jousting_lanceredyellow_pl|Lanza de justas inglesa
itm_jousting_lanceredwhite|Lanza de justas inglesa
itm_jousting_lanceredwhite_pl|Lanza de justas inglesa
itm_jousting_lance|Lanza de justas
itm_jousting_lance_pl|Lanza de justas
itm_great_lanceblueyellow|Gran lanza francesa
itm_great_lanceblueyellow_pl|Gran lanza francesa
itm_great_lancebluewhite|Gran lanza francesa
itm_great_lancebluewhite_pl|Gran lanza francesa
itm_great_lanceredyellow|Gran lanza inglesa
itm_great_lanceredyellow_pl|Gran lanza inglesa
itm_great_lanceredwhite|Gran anza inglesa
itm_great_lanceredwhite_pl|Gran anza inglesa
itm_banner_kite_plain_diamonds|Bandera francesa
itm_banner_kite_plain_diamonds_pl|Bandera francesa
itm_banner_kite_plain_lys|Bandera francesa
itm_banner_kite_plain_lys_pl|Bandera francesa
itm_banner_kite_plain_ermine|Bandera francesa
itm_banner_kite_plain_ermine_pl|Bandera francesa
itm_banner_war_blue|Bandera francesa
itm_banner_war_blue_pl|Bandera francesa
itm_banner_war_horses|Bandera francesa
itm_banner_war_horses_pl|Bandera francesa
itm_banner_war_cross|Bandera francesa
itm_banner_war_cross_pl|Bandera francesa
itm_banner_war_eagle|Bandera francesa
itm_banner_war_eagle_pl|Bandera francesa
itm_banner_heraldric_lys|Bandera francesa
itm_banner_heraldric_lys_pl|Bandera francesa
itm_banner_heraldric_ermine|Bandera francesa
itm_banner_heraldric_ermine_pl|Bandera francesa
itm_banner_kite_metal_rose|Bandera inglesa
itm_banner_kite_metal_rose_pl|Bandera inglesa
itm_banner_kite_metal_squares|Bandera inglesa
itm_banner_kite_metal_squares_pl|Bandera inglesa
itm_banner_kite_plain_cross|Bandera inglesa
itm_banner_kite_plain_cross_pl|Bandera inglesa
itm_banner_war_red|Bandera inglesa
itm_banner_war_red_pl|Bandera inglesa
itm_banner_war_trees|Bandera inglesa
itm_banner_war_trees_pl|Bandera inglesa
itm_banner_war_flowers|Bandera inglesa
itm_banner_war_flowers_pl|Bandera inglesa
itm_banner_war_wales|Bandera inglesa
itm_banner_war_wales_pl|Bandera inglesa
itm_banner_heraldric_lions|Bandera inglesa
itm_banner_heraldric_lions_pl|Bandera inglesa
itm_banner_heraldric_stripes|Bandera inglesa
itm_banner_heraldric_stripes_pl|Bandera inglesa
itm_glaive|Guja
itm_glaive_pl|Guja
itm_1glaive|Guja
itm_1glaive_pl|Guja
itm_2glaive|Guja
itm_2glaive_pl|Guja
itm_3glaive|Guja
itm_3glaive_pl|Guja
itm_polearm|Arma enastada
itm_polearm_pl|Arma enastada
itm_poleaxe|Hacha enastada
itm_poleaxe_pl|Hacha enastada
itm_1halberd|Alabarda
itm_1halberd_pl|Alabarda
itm_2halberd|Alabarda
itm_2halberd_pl|Alabarda
itm_3halberd|Alabarda
itm_3halberd_pl|Alabarda
itm_4halberd|Alabarda
itm_4halberd_pl|Alabarda
itm_7halberd|Alabarda
itm_7halberd_pl|Alabarda
itm_6halberd|Alabarda
itm_6halberd_pl|Alabarda
itm_5halberd|Alabarda
itm_5halberd_pl|Alabarda
itm_bill|Guisarme
itm_bill_pl|Guisarme
itm_polehammer|Martillo enastado
itm_polehammer_pl|Martillo enastado
itm_1polehammer|Martillo enastado
itm_1polehammer_pl|Martillo enastado
itm_3polehammer|Martillo enastado
itm_3polehammer_pl|Martillo enastado
itm_mallet|Mazo
itm_mallet_pl|Mazo
itm_pop_bill|Guisarme
itm_pop_bill_pl|Guisarme
itm_pop_halberd|Alabarda
itm_pop_halberd_pl|Alabarda
itm_lui_vaegirhallberd|Alabarda
itm_lui_vaegirhallberd_pl|Alabarda
itm_jam_poleaxe|Hacha de petos
itm_jam_poleaxe_pl|Hacha de petos
itm_banner_jhoan|Bandera de Juana de Arco
itm_banner_jhoan_pl|Bandera de Juana de Arco
itm_knighthammerbastard|Martillo de guerra
itm_knighthammerbastard_pl|Martillo de guerra
itm_manhuntermaul|Martillo de guerra
itm_manhuntermaul_pl|Martillo de guerra
itm_empirewarhammer|Martillo de guerra enastado
itm_empirewarhammer_pl|Martillo de guerra enastado
itm_empirehammer|Martillo de guerra
itm_empirehammer_pl|Martillo de guerra
itm_inquisitionhammer|Martillo de guerra enastado
itm_inquisitionhammer_pl|Martillo de guerra enastado
itm_knighthammer|Martillo de guerra
itm_knighthammer_pl|Martillo de guerra
itm_knighthammerempire|Martillo enastado
itm_knighthammerempire_pl|Martillo enastado
itm_manhuntermace|Martillo de guerra
itm_manhuntermace_pl|Martillo de guerra
itm_lui_battleaxetwoh|Hacha de batalla
itm_lui_battleaxetwoh_pl|Hacha de batalla
itm_lui_battleaxeb|Hacha de batalla
itm_lui_battleaxeb_pl|Hacha de batalla
itm_lui_battleaxenew|Hacha de batalla
itm_lui_battleaxenew_pl|Hacha de batalla
itm_lui_battleaxenewb|Hacha de batalla
itm_lui_battleaxenewb_pl|Hacha de batalla
itm_lui_battleaxea|Hacha de batalla
itm_lui_battleaxea_pl|Hacha de batalla
itm_lui_knightbattleaxenew|Hacha de batalla
itm_lui_knightbattleaxenew_pl|Hacha de batalla
itm_lui_knightaxeonehb|Hacha de caballero
itm_lui_knightaxeonehb_pl|Hacha de caballero
itm_lui_knightaxeonehc|Hacha de caballero
itm_lui_knightaxeonehc_pl|Hacha de caballero
itm_lui_knightaxeoneh|Hacha de caballero
itm_lui_knightaxeoneh_pl|Hacha de caballero
itm_lui_knightaxeonehd|Hacha de caballero
itm_lui_knightaxeonehd_pl|Hacha de caballero
itm_lui_knightaxeonehe|Hacha de caballero
itm_lui_knightaxeonehe_pl|Hacha de caballero
itm_lui_knightaxetwoha|Hacha de caballero
itm_lui_knightaxetwoha_pl|Hacha de caballero
itm_lui_knightaxetwohb|Hacha de batalla
itm_lui_knightaxetwohb_pl|Hacha de batalla
itm_lui_smallhallberdb|Alabarda acortada
itm_lui_smallhallberdb_pl|Alabarda acortada
itm_lui_smallhallberda|Alabarda acortada
itm_lui_smallhallberda_pl|Alabarda acortada
itm_jam_scorpion|Alabarda acortada
itm_jam_scorpion_pl|Alabarda acortada
itm_falchion01|Bracamante
itm_falchion01_pl|Bracamante
itm_bastard_falchion|Bracamante bastardo
itm_bastard_falchion_pl|Bracamante bastardo
itm_square_falchion|Bracamante
itm_square_falchion_pl|Bracamante
itm_wooden_stick|Palo de madera
itm_wooden_stick_pl|Palo de madera
itm_cudgel|Garrote
itm_cudgel_pl|Garrote
itm_hammer|Martillo
itm_hammer_pl|Martillo
itm_club|Palo
itm_club_pl|Palo
itm_winged_mace|Maza de aletas
itm_winged_mace_pl|Maza de aletas
itm_maul|Mazo
itm_maul_pl|Mazo
itm_sledgehammer|Almádena
itm_sledgehammer_pl|Almádena
itm_warhammer|Martillo de guerra
itm_warhammer_pl|Martillo de guerra
itm_pickaxe|Pico
itm_pickaxe_pl|Pico
itm_spiked_club|Palo con pinchos
itm_spiked_club_pl|Palo con pinchos
itm_fighting_pick|Pico de guerra
itm_fighting_pick_pl|Pico de guerra
itm_military_pick|Pico militar
itm_military_pick_pl|Pico militar
itm_morningstar|Lucero del alba
itm_morningstar_pl|Lucero del alba
itm_sickle|Hoz
itm_sickle_pl|Hoz
itm_cleaver|Cuchillo desollador
itm_cleaver_pl|Cuchillo desollador
itm_knife|Cuchillo
itm_knife_pl|Cuchillo
itm_butchering_knife|Machete
itm_butchering_knife_pl|Machete
itm_dagger|Daga
itm_dagger_pl|Daga
itm_falchion|Alfanje
itm_falchion_pl|Alfanje
itm_scimitar|Cimitarra
itm_scimitar_pl|Cimitarra
itm_scimitar_b|Cimitarra de élite
itm_scimitar_b_pl|Cimitarra de élite
itm_arabian_sword_a|Espada oriental
itm_arabian_sword_a_pl|Espada oriental
itm_arabian_sword_b|Espada oriental
itm_arabian_sword_b_pl|Espada oriental
itm_sarranid_cavalry_sword|Espada de caballería oriental
itm_sarranid_cavalry_sword_pl|Espada de caballería oriental
itm_arabian_sword_d|Espada de guardia oriental
itm_arabian_sword_d_pl|Espada de guardia oriental
itm_great_sword|Espadón
itm_great_sword_pl|Espadón
itm_sword_of_war|Espadón de guerra
itm_sword_of_war_pl|Espadón de guerra
itm_hatchet|Hachuela
itm_hatchet_pl|Hachuela
itm_hand_axe|Hacha ligera
itm_hand_axe_pl|Hacha ligera
itm_fighting_axe|Hacha de combate
itm_fighting_axe_pl|Hacha de combate
itm_axe|Hacha
itm_axe_pl|Hacha
itm_voulge|Voulge
itm_voulge_pl|Voulge
itm_battle_axe|Hacha de batalla
itm_battle_axe_pl|Hacha de batalla
itm_war_axe|Hacha de guerra
itm_war_axe_pl|Hacha de guerra
itm_sword_two_handed_b|Mandoble
itm_sword_two_handed_b_pl|Mandoble
itm_sword_two_handed_a|Gran espada
itm_sword_two_handed_a_pl|Gran espada
itm_darkknightsword|Espadón de hoja ondulada
itm_darkknightsword_pl|Espadón de hoja ondulada
itm_estoc|Claymore de Caballero
itm_estoc_pl|Claymore de Caballero
itm_realclaymore|Claymore pesado
itm_realclaymore_pl|Claymore pesado
itm_realespadon|Montante pesado
itm_realespadon_pl|Montante pesado
itm_realespadona|Montante de caballero
itm_realespadona_pl|Montante de caballero
itm_realflambergeb|Espadón de hoja ondulada
itm_realflambergeb_pl|Espadón de hoja ondulada
itm_khergit_sword_two_handed_a|Sable a dos manos
itm_khergit_sword_two_handed_a_pl|Sable a dos manos
itm_khergit_sword_two_handed_b|Sable a dos manos
itm_khergit_sword_two_handed_b_pl|Sable a dos manos
itm_two_handed_cleaver|Cuchillo de guerra
itm_two_handed_cleaver_pl|Cuchillo de guerra
itm_military_cleaver_b|Cuchillo de soldado
itm_military_cleaver_b_pl|Cuchillo de soldado
itm_military_cleaver_c|Cuchillo militar
itm_military_cleaver_c_pl|Cuchillo militar
itm_military_sickle_a|Hoz militar
itm_military_sickle_a_pl|Hoz militar
itm_bastard_sword_a|Espada bastarda
itm_bastard_sword_a_pl|Espada bastarda
itm_bastard_sword_b|Espada bastarda pesada
itm_bastard_sword_b_pl|Espada bastarda pesada
itm_bastard_sword_c|Espada bastarda de guerra
itm_bastard_sword_c_pl|Espada bastarda de guerra
itm_one_handed_war_axe_a|Hacha de guerra ligera
itm_one_handed_war_axe_a_pl|Hacha de guerra ligera
itm_one_handed_battle_axe_a|Hacha de batalla ligera
itm_one_handed_battle_axe_a_pl|Hacha de batalla ligera
itm_one_handed_war_axe_b|Hacha de guerra ligera
itm_one_handed_war_axe_b_pl|Hacha de guerra ligera
itm_one_handed_battle_axe_b|Hacha de batalla ligera
itm_one_handed_battle_axe_b_pl|Hacha de batalla ligera
itm_one_handed_battle_axe_c|Hacha de batalla ligera
itm_one_handed_battle_axe_c_pl|Hacha de batalla ligera
itm_two_handed_axe|Hacha a dos manos
itm_two_handed_axe_pl|Hacha a dos manos
itm_two_handed_battle_axe_2|Hacha de guerra a dos manos
itm_two_handed_battle_axe_2_pl|Hacha de guerra a dos manos
itm_shortened_voulge|Voulge acortada
itm_shortened_voulge_pl|Voulge acortada
itm_great_axe|Gran hacha
itm_great_axe_pl|Gran hacha
itm_long_axe|Hacha de mango largo
itm_long_axe_pl|Hacha de mango largo
itm_long_axe_alt|Hacha de mango largo
itm_long_axe_alt_pl|Hacha de mango largo
itm_long_axe_b|Hacha de guerra de mango largo
itm_long_axe_b_pl|Hacha de guerra de mango largo
itm_long_axe_b_alt|Hacha de mango largo
itm_long_axe_b_alt_pl|Hacha de mango largo
itm_long_axe_c|Gran hacha de mango largo
itm_long_axe_c_pl|Gran hacha de mango largo
itm_long_axe_c_alt|Hacha de mango largo
itm_long_axe_c_alt_pl|Hacha de mango largo
itm_bardiche|Bardiche
itm_bardiche_pl|Bardiche
itm_great_bardiche|Gran Bardiche
itm_great_bardiche_pl|Gran Bardiche
itm_long_bardiche|Bardiche de mango largo
itm_long_bardiche_pl|Bardiche de mango largo
itm_great_long_bardiche|Gran bardiche de mango largo
itm_great_long_bardiche_pl|Gran bardiche de mango largo
itm_hafted_blade_b|Hoja con mango
itm_hafted_blade_b_pl|Hoja con mango
itm_hafted_blade_a|Hoja con mango
itm_hafted_blade_a_pl|Hoja con mango
itm_shortened_military_scythe|Archa militar recortada
itm_shortened_military_scythe_pl|Archa militar recortada
itm_sword_medieval_a|Espada
itm_sword_medieval_a_pl|Espada
itm_sword_medieval_b|Espada
itm_sword_medieval_b_pl|Espada
itm_sword_medieval_b_small|Espada corta
itm_sword_medieval_b_small_pl|Espada corta
itm_sword_medieval_c|Espada normanda
itm_sword_medieval_c_pl|Espada normanda
itm_sword_medieval_c_small|Espada corta normanda
itm_sword_medieval_c_small_pl|Espada corta normanda
itm_sword_medieval_c_long|Espada larga normanda
itm_sword_medieval_c_long_pl|Espada larga normanda
itm_sword_medieval_d_long|Espada larga normanda
itm_sword_medieval_d_long_pl|Espada larga normanda
itm_sword_viking_1|Espada nórdica
itm_sword_viking_1_pl|Espada nórdica
itm_sword_viking_2|Espada nórdica
itm_sword_viking_2_pl|Espada nórdica
itm_sword_viking_2_small|Espada nórdica corta
itm_sword_viking_2_small_pl|Espada nórdica corta
itm_sword_viking_3|Espada nórdica
itm_sword_viking_3_pl|Espada nórdica
itm_sword_viking_3_small|Espada nórdica
itm_sword_viking_3_small_pl|Espada nórdica
itm_sword_khergit_1|Sable nómada
itm_sword_khergit_1_pl|Sable nómada
itm_sword_khergit_2|Sable
itm_sword_khergit_2_pl|Sable
itm_sword_khergit_3|Sable
itm_sword_khergit_3_pl|Sable
itm_sword_khergit_4|Sable pesado
itm_sword_khergit_4_pl|Sable pesado
itm_mace_1|Palo con pinchos
itm_mace_1_pl|Palo con pinchos
itm_mace_2|Maza barreteada
itm_mace_2_pl|Maza barreteada
itm_mace_3|Maza de pinchos
itm_mace_3_pl|Maza de pinchos
itm_mace_4|Maza de aletas
itm_mace_4_pl|Maza de aletas
itm_club_with_spike_head|Porra con clavo
itm_club_with_spike_head_pl|Porra con clavo
itm_long_spiked_club|Palo largo con pinchos
itm_long_spiked_club_pl|Palo largo con pinchos
itm_long_hafted_knobbed_mace|Maza barreteada de mango largo
itm_long_hafted_knobbed_mace_pl|Maza barreteada de mango largo
itm_long_hafted_spiked_mace|Maza con pinchos de mango largo
itm_long_hafted_spiked_mace_pl|Maza con pinchos de mango largo
itm_sarranid_two_handed_mace_1|Maza de hierro
itm_sarranid_two_handed_mace_1_pl|Maza de hierro
itm_sarranid_mace_1|Maza de hierro
itm_sarranid_mace_1_pl|Maza de hierro
itm_sarranid_axe_a|Hacha de batalla de hierro
itm_sarranid_axe_a_pl|Hacha de batalla de hierro
itm_sarranid_axe_b|Hacha de guerra de hierro
itm_sarranid_axe_b_pl|Hacha de guerra de hierro
itm_sarranid_two_handed_axe_a|Hacha de batalla oriental
itm_sarranid_two_handed_axe_a_pl|Hacha de batalla oriental
itm_sarranid_two_handed_axe_b|Hacha de guerra oriental
itm_sarranid_two_handed_axe_b_pl|Hacha de guerra oriental
itm_scythe|Archa
itm_scythe_pl|Archa
itm_pitch_fork|Horca
itm_pitch_fork_pl|Horca
itm_military_fork|Horca militar
itm_military_fork_pl|Horca militar
itm_battle_fork|Horca de batalla
itm_battle_fork_pl|Horca de batalla
itm_boar_spear|Lanza de caza
itm_boar_spear_pl|Lanza de caza
itm_double_sided_lance|Lanza de doble punta
itm_double_sided_lance_pl|Lanza de doble punta
itm_staff|Bastón
itm_staff_pl|Bastón
itm_quarter_staff|Bastón largo
itm_quarter_staff_pl|Bastón largo
itm_iron_staff|Bastón de hierro
itm_iron_staff_pl|Bastón de hierro
itm_shortened_spear|Lanza recortada
itm_shortened_spear_pl|Lanza recortada
itm_spear|Lanza
itm_spear_pl|Lanza
itm_bamboo_spear|Lanza de bambú
itm_bamboo_spear_pl|Lanza de bambú
itm_war_spear|Lanza de guerra
itm_war_spear_pl|Lanza de guerra
itm_military_scythe|Archa militar
itm_military_scythe_pl|Archa militar
itm_light_lance|Lanza ligera de caballería
itm_light_lance_pl|Lanza ligera de caballería
itm_lance|Lanza de caballería
itm_lance_pl|Lanza de caballería
itm_heavy_lance|Lanza pesada de caballería
itm_heavy_lance_pl|Lanza pesada
itm_pike|Pica
itm_pike_pl|Pica
itm_ashwood_pike|Pica de fresno
itm_ashwood_pike_pl|Pica de fresno
itm_awlpike|Ahlspiess
itm_awlpike_pl|Ahlspiess
itm_awlpike_long|Ahlspiess larga
itm_awlpike_long_pl|Ahlspiess larga
itm_bec_de_corbin_a|Martillo de guerra
itm_bec_de_corbin_a_pl|Martillo de guerra
itm_bardiche_1|Bardiche
itm_bardiche_1_pl|Bardiche
itm_bardiche_2|Bardiche
itm_bardiche_2_pl|Bardiche
itm_bardiche_3|Bardiche
itm_bardiche_3_pl|Bardiche
itm_bardiche_4|Bardiche
itm_bardiche_4_pl|Bardiche
itm_bardiche_5|Bardiche
itm_bardiche_5_pl|Bardiche
itm_halberd_1|Alabarda
itm_halberd_1_pl|Alabarda
itm_halberd_2|Alabarda
itm_halberd_2_pl|Alabarda
itm_halberd_3|Alabarda
itm_halberd_3_pl|Alabarda
itm_halberd_4|Alabarda
itm_halberd_4_pl|Alabarda
itm_halberd_5|Alabarda
itm_halberd_5_pl|Alabarda
itm_halberd_6|Alabarda
itm_halberd_6_pl|Alabarda
itm_halberd_7|Alabarda
itm_halberd_7_pl|Alabarda
itm_halberd_8|Alabarda
itm_halberd_8_pl|Alabarda
itm_poleaxe_1|Hacha de petos
itm_poleaxe_1_pl|Hacha de petos
itm_poleaxe_2|Hacha de petos
itm_poleaxe_2_pl|Hacha de petos
itm_awlpike_1|Ahlspiess
itm_awlpike_1_pl|Ahlspiess
itm_awlpike_2|Ahlspiess
itm_awlpike_2_pl|Ahlspiess
itm_awlpike_3|Ahlspiess
itm_awlpike_3_pl|Ahlspiess
itm_awlpike_4|Ahlspiess
itm_awlpike_4_pl|Ahlspiess
itm_awlpike_5|Ahlspiess
itm_awlpike_5_pl|Ahlspiess
itm_awlpike_6|Ahlspiess
itm_awlpike_6_pl|Ahlspiess
itm_partisan_1|Partesana
itm_partisan_1_pl|Partesana
itm_partisan_2|Partesana
itm_partisan_2_pl|Partesana
itm_partisan_3|Partesana
itm_partisan_3_pl|Partesana
itm_ranseur_1|Ranseur
itm_ranseur_1_pl|Ranseur
itm_ranseur_2|Ranseur
itm_ranseur_2_pl|Ranseur
itm_spetum_1|Spetum
itm_spetum_1_pl|Spetum
itm_spetum_2|Spetum
itm_spetum_2_pl|Spetum
itm_spetum_3|Spetum
itm_spetum_3_pl|Spetum
itm_spetum_4|Spetum
itm_spetum_4_pl|Spetum
itm_fauchard_1|Fauchard
itm_fauchard_1_pl|Fauchard
itm_fauchard_2|Fauchard
itm_fauchard_2_pl|Fauchard
itm_lochaber_axe_1|Voulgue
itm_lochaber_axe_1_pl|Voulgue
itm_lochaber_axe_2|Voulgue
itm_lochaber_axe_2_pl|Voulgue
itm_lochaber_axe_3|Voulgue
itm_lochaber_axe_3_pl|Voulgue
itm_lochaber_axe_4|Voulgue
itm_lochaber_axe_4_pl|Voulgue
itm_shortened_lochaber_axe|Voulgue acortado
itm_shortened_lochaber_axe_pl|Voulgue acortado
itm_voulge_1|Voulge
itm_voulge_1_pl|Voulge
itm_voulge_2|Voulge
itm_voulge_2_pl|Voulge
itm_voulge_3|Voulge
itm_voulge_3_pl|Voulge
itm_voulge_4|Voulge
itm_voulge_4_pl|Voulge
itm_voulge_5|Voulge
itm_voulge_5_pl|Voulge
itm_bec_de_corbin|Bec de Corbin
itm_bec_de_corbin_pl|Bec de Corbin
itm_glaive_fork|Guja-Horca
itm_glaive_fork_pl|Guja-Horca
itm_glaive_guisarme_1|Guja-Gusarme
itm_glaive_guisarme_1_pl|Guja-Gusarme
itm_glaive_guisarme_2|Guja-Gusarme
itm_glaive_guisarme_2_pl|Guja-Gusarme
itm_fauchard_fork_1|Guja-Gusarme
itm_fauchard_fork_1_pl|Guja-Gusarme
itm_fauchard_fork_2|Guja-Gusarme
itm_fauchard_fork_2_pl|Guja-Gusarme
itm_lucern_hammer|Lucero del alba
itm_lucern_hammer_pl|Lucero del alba
itm_bill_1|Guisarme
itm_bill_1_pl|Guisarme
itm_bill_2|Guisarme
itm_bill_2_pl|Guisarme
itm_fork_1|Horca
itm_fork_1_pl|Horca
itm_fork_2|Horca
itm_fork_2_pl|Horca
itm_glaive_1|Guja
itm_glaive_1_pl|Guja
itm_glaive_2|Guja
itm_glaive_2_pl|Guja
itm_guisarme|Guisarme
itm_guisarme_pl|Guisarme
itm_lance_1|Gran lanza de madera
itm_lance_1_pl|Gran lanza de madera
itm_lance_2|Gran lanza
itm_lance_2_pl|Gran lanza
itm_lance_3|Gran lanza
itm_lance_3_pl|Gran lanza
itm_lance_4|Gran lanza de madera
itm_lance_4_pl|Gran lanza de madera
itm_lance_5|Gran lanza de madera
itm_lance_5_pl|Gran lanza de madera
itm_lance_6|Gran lanza
itm_lance_6_pl|Gran lanza
itm_lance_f2|Gran lanza
itm_lance_f2_pl|Gran lanza
itm_lance_f1|Gran lanza
itm_lance_f1_pl|Gran lanza
itm_lance_f3|Gran lanza
itm_lance_f3_pl|Gran lanza
itm_lance_e1|Gran lanza
itm_lance_e1_pl|Gran lanza
itm_lance_e2|Gran lanza
itm_lance_e2_pl|Gran lanza
itm_lance_e3|Gran lanza
itm_lance_e3_pl|Gran lanza
itm_lance_banner_e1|Gran lanza de madera
itm_lance_banner_e1_pl|Gran lanza de madera
itm_lance_banner_e2|Gran lanza de madera
itm_lance_banner_e2_pl|Gran lanza de madera
itm_lance_banner_e3|Gran lanza de madera
itm_lance_banner_e3_pl|Gran lanza de madera
itm_lance_banner_e4|Gran lanza de madera
itm_lance_banner_e4_pl|Gran lanza de madera
itm_lance_banner_f1|Gran lanza de madera
itm_lance_banner_f1_pl|Gran lanza de madera
itm_lance_banner_f2|Gran lanza de madera
itm_lance_banner_f2_pl|Gran lanza de madera
itm_lance_banner_f3|Gran lanza de madera
itm_lance_banner_f3_pl|Gran lanza de madera
itm_lance_banner_f4|Gran lanza de madera
itm_lance_banner_f4_pl|Gran lanza de madera
itm_lance_banner_tut|Gran lanza de madera
itm_lance_banner_tut_pl|Gran lanza de madera
itm_lance_white|Gran lanza de madera
itm_lance_white_pl|Gran lanza de madera
itm_lance_banner_jeanne|Bandera de Juana de Arco
itm_lance_banner_jeanne_pl|Bandera de Juana de Arco
itm_regent2|Espada familiar
itm_regent2_pl|Espada familiar
itm_dagger_medievale|Daga
itm_dagger_medievale_pl|Daga
itm_heater_shieldduguesclin|Escudo cometa de Du Guesclin
itm_heater_shieldduguesclin_pl|Escudo cometa de Du Guesclin
itm_heater_shield_chandos|Escudo cometa de Jhon Chando
itm_heater_shield_chandos_pl|Escudo cometa de Jhon Chando
itm_battle_shieldedwardiii|Escudo de batalla de Eduardo III
itm_battle_shieldedwardiii_pl|Escudo de batalla de Eduardo III
itm_battle_shieldblackprince|Escudo de batalla del Príncipe Negro
itm_battle_shieldblackprince_pl|Escudo de batalla del Príncipe Negro
itm_battle_shieldcharlesv|Escudo de batalla de Carlos V
itm_battle_shieldcharlesv_pl|Escudo de batalla de Carlos V
itm_jousting_shield_e1|Escudo inglés de justas
itm_jousting_shield_e1_pl|Escudo inglés de justas
itm_jousting_shield_e2|Escudo inglés de justas
itm_jousting_shield_e2_pl|Escudo inglés de justas
itm_woodenbuckler|Rodela de madera de arquero
itm_woodenbuckler_pl|Rodela de madera de arquero
itm_wooden_buckler1|Rodela de madera de arquero
itm_wooden_buckler1_pl|Rodela de madera de arquero
itm_metal_buckler|Rodela metálica de arquero
itm_metal_buckler_pl|Rodela metálica de arquero
itm_wooden_shieldblue|Escudo francés de madera
itm_wooden_shieldblue_pl|Escudo francés de madera
itm_wooden_shieldred|Escudo inglés de madera
itm_wooden_shieldred_pl|Escudo inglés de madera
itm_wooden_shieldbrown|Escudo marrón de madera
itm_wooden_shieldbrown_pl|Escudo marrón de madera
itm_large_shieldblueyellow|Escudo grande francés
itm_large_shieldblueyellow_pl|Escudo grande francés
itm_large_shieldbluewhite|Escudo grande francés
itm_large_shieldbluewhite_pl|Escudo grande francés
itm_large_shieldredyellow|Escudo grande inglés
itm_large_shieldredyellow_pl|Escudo grande inglés
itm_large_shieldredwhite|Escudo grande inglés
itm_large_shieldredwhite_pl|Escudo grande inglés
itm_large_shieldbrown|Escudo grande inglés
itm_large_shieldbrown_pl|Escudo grande inglés
itm_kite_shieldlys|Escudo cometa francés
itm_kite_shieldlys_pl|Escudo cometa francés
itm_kite_shielddiamonds|Escudo cometa francés
itm_kite_shielddiamonds_pl|Escudo cometa francés
itm_kite_shieldcrosses|Escudo cometa francés
itm_kite_shieldcrosses_pl|Escudo cometa francés
itm_kite_shieldreddragon|Escudo cometa inglés
itm_kite_shieldreddragon_pl|Escudo cometa inglés
itm_kite_shield_diagonals|Escudo cometa francés
itm_kite_shield_diagonals_pl|Escudo cometa francés
itm_kite_shield_fishes|Escudo cometa francés
itm_kite_shield_fishes_pl|Escudo cometa francés
itm_kite_shield_rose|Escudo cometa inglés
itm_kite_shield_rose_pl|Escudo cometa inglés
itm_kite_shield_spiral|Escudo cometa inglés
itm_kite_shield_spiral_pl|Escudo cometa inglés
itm_kite_shield_squares|Escudo cometa inglés
itm_kite_shield_squares_pl|Escudo cometa inglés
itm_war_shield3lys|Escudo de guerra francés
itm_war_shield3lys_pl|Escudo de guerra francés
itm_war_shieldhorses|Escudo de guerra francés
itm_war_shieldhorses_pl|Escudo de guerra francés
itm_war_shieldcross|Escudo de guerra francés
itm_war_shieldcross_pl|Escudo de guerra francés
itm_war_shieldeagle|Escudo de guerra francés
itm_war_shieldeagle_pl|Escudo de guerra francés
itm_war_shield3lions|Escudo de guerra inglés
itm_war_shield3lions_pl|Escudo de guerra inglés
itm_war_shieldtrees|Escudo de guerra inglés
itm_war_shieldtrees_pl|Escudo de guerra inglés
itm_war_shieldflowers|Escudo de guerra inglés
itm_war_shieldflowers_pl|Escudo de guerra inglés
itm_war_shieldwales|Escudo de guerra galés
itm_war_shieldwales_pl|Escudo de guerra galés
itm_battle_shieldbluecross|Escudo de batalla francés
itm_battle_shieldbluecross_pl|Escudo de batalla francés
itm_battle_shieldbluecrosses|Escudo de batalla francés
itm_battle_shieldbluecrosses_pl|Escudo de batalla francés
itm_battle_shieldbluefishes|Escudo de batalla francés
itm_battle_shieldbluefishes_pl|Escudo de batalla francés
itm_battle_shieldbluelysstripes|Escudo de batalla francés
itm_battle_shieldbluelysstripes_pl|Escudo de batalla francés
itm_battle_shieldredcross|Escudo de batalla inglés
itm_battle_shieldredcross_pl|Escudo de batalla inglés
itm_battle_shieldredcrosses|Escudo de batalla inglés
itm_battle_shieldredcrosses_pl|Escudo de batalla inglés
itm_battle_shieldreddiamonds|Escudo de batalla inglés
itm_battle_shieldreddiamonds_pl|Escudo de batalla inglés
itm_battle_shieldredlions|Escudo de batalla inglés
itm_battle_shieldredlions_pl|Escudo de batalla inglés
itm_heraldric_shieldblue3lys|Escudo heráldico
itm_heraldric_shieldblue3lys_pl|Escudo heráldico
itm_heraldric_shieldblueerminestripes|Escudo heráldico francés
itm_heraldric_shieldblueerminestripes_pl|Escudo heráldico francés
itm_heraldric_shieldbluelys|Escudo heráldico francés
itm_heraldric_shieldbluelys_pl|Escudo heráldico francés
itm_heraldric_shieldblueermine|Escudo heráldico francés
itm_heraldric_shieldblueermine_pl|Escudo heráldico francés
itm_heraldric_shieldred3lions|Escudo heráldico inglés
itm_heraldric_shieldred3lions_pl|Escudo heráldico inglés
itm_heraldric_shieldredstripes|Escudo heráldico inglés
itm_heraldric_shieldredstripes_pl|Escudo heráldico inglés
itm_heraldric_shieldredblack|Escudo heráldico inglés
itm_heraldric_shieldredblack_pl|Escudo heráldico inglés
itm_heraldric_shieldredlys|Escudo heráldico inglés
itm_heraldric_shieldredlys_pl|Escudo heráldico inglés
itm_heater_shieldblue|Escudo cometa francés
itm_heater_shieldblue_pl|Escudo cometa francés
itm_heater_shieldred|Escudo cometa inglés
itm_heater_shieldred_pl|Escudo cometa inglés
itm_heater_shieldnoble|Escudo cometa
itm_heater_shieldnoble_pl|Escudo cometa
itm_heater_shieldboar|Escudo cometa
itm_heater_shieldboar_pl|Escudo cometa
itm_heater_shieldblack|Escudo cometa
itm_heater_shieldblack_pl|Escudo cometa
itm_heater_shieldgreen|Escudo cometa
itm_heater_shieldgreen_pl|Escudo cometa
itm_heater_shieldhorse|Escudo cometa de jinete
itm_heater_shieldhorse_pl|Escudo cometa de jinete
itm_heater_shieldhre|Escudo cometa
itm_heater_shieldhre_pl|Escudo cometa
itm_shield_heater_c|Escudo cometa
itm_shield_heater_c_pl|Escudo cometa
itm_steel_buckler1|Rodela de acero
itm_steel_buckler1_pl|Rodela de acero
itm_steel_buckler2|Rodela de acero
itm_steel_buckler2_pl|Rodela de acero
itm_wooden_shield|Escudo de madera
itm_wooden_shield_pl|Escudo de madera
itm_nordic_shield|Escudo nórdico
itm_nordic_shield_pl|Escudo nórdico
itm_fur_covered_shield|Escudo de pieles
itm_fur_covered_shield_pl|Escudo de pieles
itm_steel_shield|Escudo de acero
itm_steel_shield_pl|Escudo de acero
itm_plate_covered_round_shield|Broquel de placas
itm_plate_covered_round_shield_pl|Broquel de placas
itm_leather_covered_round_shield|Broquel de cuero
itm_leather_covered_round_shield_pl|Broquel de cuero
itm_hide_covered_round_shield|Broquel de pieles
itm_hide_covered_round_shield_pl|Broquel de pieles
itm_norman_shield_1|Escudo de lágrima
itm_norman_shield_1_pl|Escudo de lágrima
itm_norman_shield_2|Escudo de lágrima
itm_norman_shield_2_pl|Escudo de lágrima
itm_norman_shield_3|Escudo de lágrima
itm_norman_shield_3_pl|Escudo de lágrima
itm_norman_shield_4|Escudo de lágrima
itm_norman_shield_4_pl|Escudo de lágrima
itm_norman_shield_5|Escudo de lágrima
itm_norman_shield_5_pl|Escudo de lágrima
itm_norman_shield_6|Escudo de lágrima
itm_norman_shield_6_pl|Escudo de lágrima
itm_norman_shield_7|Escudo de lágrima
itm_norman_shield_7_pl|Escudo de lágrima
itm_norman_shield_8|Escudo de lágrima
itm_norman_shield_8_pl|Escudo de lágrima
itm_tab_shield_round_a|Broquel viejo
itm_tab_shield_round_a_pl|Broquel viejo
itm_tab_shield_round_b|Broquel corriente
itm_tab_shield_round_b_pl|Broquel corriente
itm_tab_shield_round_c|Broquel
itm_tab_shield_round_c_pl|Broquel
itm_tab_shield_round_d|Broquel pesado
itm_tab_shield_round_d_pl|Broquel pesado
itm_tab_shield_round_e|Broquel de campeón nórdico
itm_tab_shield_round_e_pl|Broquel de campeón nórdico
itm_tab_shield_kite_a|Escudo de lágrima viejo
itm_tab_shield_kite_a_pl|Escudo de lágrima viejo
itm_tab_shield_kite_b|Escudo de lágrima corriente
itm_tab_shield_kite_b_pl|Escudo de lágrima corriente
itm_tab_shield_kite_c|Escudo de lágrima
itm_tab_shield_kite_c_pl|Escudo de lágrima
itm_tab_shield_kite_d|Escudo de lágrima pesado
itm_tab_shield_kite_d_pl|Escudo de lágrima pesado
itm_tab_shield_kite_cav_a|Escudo de lágrima de jinete
itm_tab_shield_kite_cav_a_pl|Escudo de lágrima de jinete
itm_tab_shield_kite_cav_b|Escudo de lágrima de caballero
itm_tab_shield_kite_cav_b_pl|Escudo de lágrima de caballero
itm_tab_shield_heater_a|Viejo Escudo cometa
itm_tab_shield_heater_a_pl|Viejo Escudo cometa
itm_tab_shield_heater_b|Escudo cometa corriente
itm_tab_shield_heater_b_pl|Escudo cometa corriente
itm_tab_shield_heater_c|Escudo cometa
itm_tab_shield_heater_c_pl|Escudo cometa
itm_tab_shield_heater_d|Escudo cometa pesado
itm_tab_shield_heater_d_pl|Escudo cometa pesado
itm_tab_shield_heater_cav_a|Escudo cometa de jinete
itm_tab_shield_heater_cav_a_pl|Escudo cometa de jinete
itm_tab_shield_heater_cav_b|Escudo cometa de caballero
itm_tab_shield_heater_cav_b_pl|Escudo cometa de caballero
itm_tab_shield_pavise_a|Pavés viejo
itm_tab_shield_pavise_a_pl|Pavés viejo
itm_tab_shield_pavise_b|Pavés corriente
itm_tab_shield_pavise_b_pl|Pavés corriente
itm_tab_shield_pavise_c|Pavés
itm_tab_shield_pavise_c_pl|Pavés
itm_tab_shield_pavise_d|Pavés pesado
itm_tab_shield_pavise_d_pl|Pavés pesado
itm_tab_shield_small_round_a|Escudo de caballería corriente
itm_tab_shield_small_round_a_pl|Escudo de caballería corriente
itm_tab_shield_small_round_b|Escudo de caballería redondo
itm_tab_shield_small_round_b_pl|Escudo de caballería redondo
itm_tab_shield_small_round_c|Escudo de caballería de élite
itm_tab_shield_small_round_c_pl|Escudo de caballería de élite
itm_darts|Dardos
itm_darts_pl|Dardos
itm_war_darts|Dardo de guerra
itm_war_darts_pl|Dardo de guerra
itm_javelin|Jabalina
itm_javelin_pl|Jabalina
itm_javelin_melee|Jabalina de cuerpo a cuerpo
itm_javelin_melee_pl|Jabalina de cuerpo a cuerpo
itm_throwing_spears|Lanza liviana
itm_throwing_spears_pl|Lanza liviana
itm_throwing_spear_melee|lanzas livianas
itm_throwing_spear_melee_pl|lanzas livianas
itm_jarid|Djerids
itm_jarid_pl|Djerids
itm_jarid_melee|Djerids
itm_jarid_melee_pl|Djerids
itm_stones|Piedras
itm_stones_pl|Piedras
itm_throwing_knives|Cuchillos arrojadizos
itm_throwing_knives_pl|Cuchillos arrojadizos
itm_throwing_daggers|Dagas arrojadizas
itm_throwing_daggers_pl|Dagas arrojadizas
itm_light_throwing_axes|Hachas livianas de lanzar
itm_light_throwing_axes_pl|Hachas livianas de lanzar
itm_light_throwing_axes_melee|Hacha liviana de lanzar
itm_light_throwing_axes_melee_pl|Hacha liviana de lanzar
itm_throwing_axes|Hachas arrojadizas
itm_throwing_axes_pl|Hachas arrojadizas
itm_throwing_axes_melee|Hacha de lanzar
itm_throwing_axes_melee_pl|Hacha de lanzar
itm_heavy_throwing_axes|Hachas pesadas de lanzar
itm_heavy_throwing_axes_pl|Hachas pesadas de lanzar
itm_heavy_throwing_axes_melee|Hacha pesada de lanzar
itm_heavy_throwing_axes_melee_pl|Hacha pesada de lanzar
itm_hunting_bow|Arco de cazaitm_hunting_bow_pl|Arco de caza
itm_short_bow|Arco corto
itm_short_bow_pl|Arco corto
itm_nomad_bow|Arco nómada
itm_nomad_bow_pl|Arco nómada
itm_long_bow|Arco largo
itm_long_bow_pl|Arco largo
itm_khergit_bow|Arco Khergita
itm_khergit_bow_pl|Arco Khergita
itm_strong_bow|Arco compuesto
itm_strong_bow_pl|Arco compuesto
itm_war_bow|Arco de guerra
itm_war_bow_pl|Arco de guerra
itm_hunting_crossbow|Ballesta de caza
itm_hunting_crossbow_pl|Ballesta de caza
itm_light_crossbow|Ballesta ligera
itm_light_crossbow_pl|Ballesta ligera
itm_crossbow|Ballesta
itm_crossbow_pl|Ballesta
itm_heavy_crossbow|Ballesta pesada
itm_heavy_crossbow_pl|Ballesta pesada
itm_sniper_crossbow|Ballesta de asedio
itm_sniper_crossbow_pl|Ballesta de asedio
itm_flintlock_pistol|Pistola de chispa
itm_flintlock_pistol_pl|Pistola de chispa
itm_flintlock_pistol_1|Pistola de mecha
itm_flintlock_pistol_1_pl|Pistola de mecha
itm_flintlock_rifle|Rifle de mecha
itm_flintlock_rifle_pl|Rifle de mecha
itm_arquebus|Arcabuz
itm_arquebus_pl|Arcabuz
itm_blunderbus|Trabuco
itm_blunderbus_pl|Trabuco
itm_matchlock_2|Arcabuz
itm_matchlock_2_pl|Arcabuz
itm_matchlock_1|Culebrina de mano
itm_matchlock_1_pl|Culebrina de mano
itm_torch|Antorcha
itm_torch_pl|Antorcha
itm_lyre|Lira
itm_lyre_pl|Lira
itm_lute|Flauta
itm_lute_pl|Flauta
itm_strange_armor|Armadura extraña
itm_strange_armor_pl|Armadura extraña
itm_strange_boots|Botas extrañas
itm_strange_boots_pl|Botas extrañas
itm_strange_helmet|Yelmo extraño
itm_strange_helmet_pl|Yelmo extraño
itm_strange_sword|Espada extraña
itm_strange_sword_pl|Espada extraña
itm_strange_great_sword|Gran espada extraña
itm_strange_great_sword_pl|Gran espada extraña
itm_strange_short_sword|Espada corta extraña
itm_strange_short_sword_pl|Espada corta extraña
itm_court_dress|Vestido de corte
itm_court_dress_pl|Vestido de corte
itm_rich_outfit|Vestimentas lujosas
itm_rich_outfit_pl|Vestimentas lujosas
itm_khergit_guard_armor|Armadura de guardia khergita
itm_khergit_guard_armor_pl|Armadura de guardia khergita
itm_felt_steppe_cap|Gorro de la estepa
itm_felt_steppe_cap_pl|Gorro de la estepa
itm_khergit_war_helmet|Yelmo de guerra khergita
itm_khergit_war_helmet_pl|Yelmo de guerra khergita
itm_khergit_helmet|Yelmo khergita
itm_khergit_helmet_pl|Yelmo khergita
itm_khergit_guard_boots|Botas de guardia khergita
itm_khergit_guard_boots_pl|Botas de guardia khergita
itm_khergit_guard_helmet|Yelmo de guardia khergita
itm_khergit_guard_helmet_pl|Yelmo de guardia khergita
itm_khergit_cavalry_helmet|Yelmo de caballería khergita
itm_khergit_cavalry_helmet_pl|Yelmo de caballería khergita
itm_black_hood|Capucha negra
itm_black_hood_pl|Capucha negra
itm_light_leather|Chaqueta de cuero ligera
itm_light_leather_pl|Chaqueta de cuero ligera
itm_light_leather_boots|Botas de cuero ligeras
itm_light_leather_boots_pl|Botas de cuero ligeras
itm_mail_and_plate|Armadura de malla y placas
itm_mail_and_plate_pl|Armadura de malla y placas
itm_light_mail_and_plate|Armadura de malla y placas ligera
itm_light_mail_and_plate_pl|Armadura de malla y placas ligera
itm_byzantion_helmet_a|Yelmo bizantino
itm_byzantion_helmet_a_pl|Yelmo bizantino
itm_magyar_helmet_a|Casco magiar
itm_magyar_helmet_a_pl|Casco magiar
itm_rus_helmet_a|Yelmo ruso
itm_rus_helmet_a_pl|Yelmo ruso
itm_sipahi_helmet_a|Yelmo de Sipahi
itm_sipahi_helmet_a_pl|Yelmo de Sipahi
itm_shahi|Shahi
itm_khergit_guard_armor|Armadura de Guardia Khergita
itm_khergit_guard_armor_pl|Armadura de Guardia Khergita
itm_felt_steppe_cap|Gorro estepario de fieltro
itm_felt_steppe_cap_pl|Gorro estepario de fieltro
itm_khergit_war_helmet|Yelmo de guerra Khergita
itm_khergit_war_helmet_pl|Yelmo de guerra Khergita
itm_khergit_helmet|Yelmo Khergita
itm_khergit_helmet_pl|Yelmo Khergita
itm_khergit_guard_boots|Botas de Guardia Khergita
itm_khergit_guard_boots_pl|Botas de Guardia Khergita
itm_khergit_guard_helmet|Yelmo de Guardia Khergita
itm_khergit_guard_helmet_pl|Yelmo de Guardia Khergita
itm_khergit_cavalry_helmet|Yelmo de caballería Khergita
itm_khergit_cavalry_helmet_pl|Yelmo de caballería Khergita
itm_black_hood|Capucha negra
itm_black_hood_pl|Capucha negra
itm_light_leather|Armadura ligera de cuero
itm_light_leather_pl|Armadura ligera de cuero
itm_light_leather_boots|Botas ligeras de cuero
itm_light_leather_boots_pl|Botas ligeras de cuero
itm_mail_and_plate|Malla y placas
itm_mail_and_plate_pl|Malla y placas
itm_light_mail_and_plate|Malla y placas ligeras
itm_light_mail_and_plate_pl|Malla y placas ligeras
itm_byzantion_helmet_a|Yelmo bizantino
itm_byzantion_helmet_a_pl|Yelmo bizantino
itm_magyar_helmet_a|Yelmo maygar
itm_magyar_helmet_a_pl|Yelmo maygar
itm_rus_helmet_a|Yelmo Ruso
itm_rus_helmet_a_pl|Yelmo Ruso
itm_sipahi_helmet_a|Yelmo Cipayo
itm_sipahi_helmet_a_pl|Yelmo Cipayo
itm_shahi|Shahi
itm_shahi_pl|Shahi
itm_rabati|Rabati
itm_rabati_pl|Rabati
itm_tunic_with_green_cape|Túnica verde con capa
itm_tunic_with_green_cape_pl|Túnica verde con capa
itm_keys|Llavero
itm_keys_pl|Llavero
itm_bride_dress|Vestido de novia
itm_bride_dress_pl|Vestido de novia
itm_bride_crown|Corona de flores
itm_bride_crown_pl|Corona de flores
itm_bride_shoes|Zapatos de novia
itm_bride_shoes_pl|Zapatos de novia
itm_practice_bow_2|Arco de práctica
itm_practice_bow_2_pl|Arco de práctica
itm_practice_arrows_2|Flechas de práctica
itm_practice_arrows_2_pl|Flechas de práctica
itm_plate_boots|Botas de placas
itm_plate_boots_pl|Botas de placas
itm_mail_boots_for_tableau|Botas de malla
itm_mail_boots_for_tableau_pl|Botas de malla
itm_warhorse_sarranid|Caballo de guerra oriental
itm_warhorse_sarranid_pl|Caballo de guerra oriental
itm_warhorse_steppe|Corcel oriental
itm_warhorse_steppe_pl|Corcel oriental
itm_flamberge|Zweihander de hoja ondulada
itm_flamberge_pl|Zweihander de hoja ondulada
itm_chapel_de_fer|Chapel-De-Fer
itm_chapel_de_fer_pl|Chapel-De-Fer
itm_plate_mittens|Mitones de placas
itm_plate_mittens_pl|Mitones de placas
itm_bnw_gauntlets|Guanteletes negros y blancos
itm_bnw_gauntlets_pl|Guanteletes negros y blancos
itm_bear_paw_shoes|Zapatos de piel de oso
itm_bear_paw_shoes_pl|Zapatos de piel de oso
itm_combed_morion|Morrión abombado
itm_combed_morion_pl|Morrión abombado
itm_combed_morion_blued|Morrión abombado
itm_combed_morion_blued_pl|Morrión abombado
itm_bnw_armour|Armadura blanca y negra
itm_bnw_armour_pl|Armadura blanca y negra
itm_plan_1|Instrucciones para la fabricación de espadas
itm_plan_1_pl|Instrucciones para la fabricación de espadas
itm_plan_2|Instrucciones para la fabricación de flechas
itm_plan_2_pl|Instrucciones para la fabricación de flechas
itm_plan_3|Instrucciones para la fabricación de virotes
itm_plan_3_pl|Instrucciones para la fabricación de virotes
itm_plan_4|Instrucciones para la fabricación de un escudo
itm_plan_4_pl|Instrucciones para la fabricación de un escudo
itm_plan_5|Instrucciones para la fabricación de arcos
itm_plan_5_pl|Instrucciones para la fabricación de arcos
itm_plan_6|Instrucciones para la fabricación de ballestas
itm_plan_6_pl|Instrucciones para la fabricación de ballestas
itm_plan_7|Instrucciones para la fabricación de lanzas
itm_plan_7_pl|Instrucciones para la fabricación de lanzas
itm_plan_8|Instrucciones para la fabricación de una armadura de placas simple
itm_plan_8_pl|Instrucciones para la fabricación de una armadura de placas simple
itm_plan_9|Receta de una sopa de verduras
itm_plan_9_pl|Receta de una sopa de verduras
itm_plan_10|Receta de un potaje de coles
itm_plan_10_pl|Receta de un potaje de coles
itm_plan_11|Receta de una sopa de pescado
itm_plan_11_pl|Receta de una sopa de pesaco
itm_plis|Carta
itm_plis_pl|Carta
itm_plis_caen|Falsa invitación para el banquete de Caen
itm_plis_caen_pl|Falsa invitación para el banquete de Caen
itm_plis_toul|Carta de los rebeldes. Parece un código.
itm_plis_toul_pl|Carta de los rebeldes. Parece un código.
itm_plis_recomandation|Carta de recomendación para nombrarme vasallo
itm_plis_recomandation_pl|Carta de recomendación para nombrarme vasallo
itm_chevaliere|Caballero
itm_chevaliere_pl|Caballero
itm_medaille|Medalla de Mathieu
itm_medaille_pl|Medalla de Mathieu
itm_plume|Plumas
itm_plume_pl|Plumas
itm_poison|Pescado
itm_poison_pl|Pescado
itm_pier|Piedra de afilar
itm_pier_pl|Piedra de afilar
itm_bois|Madera
itm_bois_pl|Madera
itm_alchimi|Alcohol de alquimista
itm_alchimi_pl|Alcohol de alquimista
itm_corde|Cuerda
itm_corde_pl|Cuerda
itm_cuir|Cuero
itm_cuir_pl|Cuero
itm_champiv|Champiñones venenosos
itm_champiv_pl|Champiñones venenosos
itm_enclume|Yunque
itm_enclume_pl|Yunque
itm_cle_1|Llave
itm_cle_1_pl|Llave
itm_cle_2|Llave del cofre del chambelán
itm_cle_2_pl|Llave del cofre del chambelán
itm_epee_jeanne_charles|Espada misteriosa
itm_epee_jeanne_charles_pl|Espada misteriosa
itm_daggerspecial_medievale|Daga envenenada
itm_daggerspecial_medievale_pl|Daga envenenada
itm_bolts5|Virotes
itm_bolts5_pl|Virotes
itm_throwing_daggers_poison|Dagas envenenadas
itm_throwing_daggers_poison_pl|Dagas envenenadas
itm_boltsspecial|Virotes envenenados
itm_boltsspecial_pl|Virotes envenenados
itm_arrows_speciale|Flechas envenenadas
itm_arrows_speciale_pl|Flechas envenenadas
itm_espee_ecuyer|Espada con blasón
itm_espee_ecuyer_pl|Espada con blasón
itm_heraldic_churburg_13_tabard|Armadura heráldica de placas
itm_heraldic_churburg_13_tabard_pl|Armadura heráldica de placas
itm_heraldic_churburg_13_brass_tabard|Armadura heráldica de placas ornamentada
itm_heraldic_churburg_13_brass_tabard_pl|Armadura heráldica de placas ornamentada
itm_lettre0|Carta para el maestro del gremio de mercaderes de Montpelier
itm_lettre0_pl|Carta para el maestro del gremio de mercaderes de Montpelier
itm_lettre1|Carta para el maestro del gremio de mercaderes de Marsella
itm_lettre1_pl|Carta para el maestro del gremio de mercaderes de Marsella
itm_lettre2|Carta para el maestro del gremio de mercaderes de Paris
itm_lettre2_pl|Carta para el maestro del gremio de mercaderes de Paris
itm_lettre3|Carta para el maestro del gremio de mercaderes de Dijon
itm_lettre3_pl|Carta para el maestro del gremio de mercaderes de Dijon
itm_lettre4|Carta para el maestro del gremio de mercaderes de Caen
itm_lettre4_pl|Carta para el maestro del gremio de mercaderes de Caen
itm_lettre5|Cargamento del vendedor de libros de Burdeos
itm_lettre5_pl|Cargamento del vendedor de libros de Burdeos
itm_lettre6|Cargamento del armero de París
itm_lettre6_pl|Cargamento del armero de París
itm_lettre7|Cargamento del armero de Aviñón
itm_lettre7_pl|Cargamento del armero de Aviñón
itm_lettre9|Cargamento del herrero de Reims
itm_lettre9_pl|Cargamento del herrero de Reims
itm_orl_leather_apron|Delantal de maestro herrero
itm_orl_leather_apron_pl|Delantal de maestro herrero
itm_bb_armet|Casco
itm_bb_armet_pl|Casco
itm_bb_hounskull_bp|Bacinete con plumas
itm_bb_hounskull_bp_pl|Bacinete con plumas
itm_bb_greathelm_bp|Casco pesado con plumas
itm_bb_greathelm_bp_pl|Casco pesado con plumas
itm_bb_massivehelm_bp|Casco con plumas
itm_bb_massivehelm_bp_pl|Casco con plumas
itm_bb_chivalhelm_vp|Capelina con plumas
itm_bb_chivalhelm_vp_pl|Capelina con plumas
itm_bb_greathelm_rp|Casco pesado con plumas
itm_bb_greathelm_rp_pl|Casco pesado con plumas
itm_bb_hounskull_yp|Bacinete con plumas
itm_bb_hounskull_yp_pl|Bacinete con plumas
itm_bb_complet_plates_b|Armadura de placas francesa completa
itm_bb_complet_plates_b_pl|Armadura de placas francesa completa
itm_bb_complet_plates_r|Armadura de placas inglesa completa
itm_bb_complet_plates_r_pl|Armadura de placas inglesa completa
itm_charger_blue_lanciers|Cheballo de guerra con armadura completa
itm_charger_blue_lanciers_pl|Caballo de guerra con armadura completa
itm_weapon_lanceier_f1|Gran lanza de caballero noble
itm_weapon_lanceier_f1_pl|Gran lanza de caballero noble
itm_weapon_lanceier_f2|Gran lanza de caballero noble
itm_weapon_lanceier_f2_pl|Gran lanza de caballero noble
itm_bb_noble_hat|Cofia con plumas de noble
itm_bb_noble_hat_pl|Cofia con plumas de noble
itm_bb_noble_hat_simple|Cofia de noble
itm_bb_noble_hat_simple_pl|Cofia de noble
itm_chaudron|Caldero
itm_chaudron_pl|Caldero
itm_ustensil|Utensilios de cocina
itm_ustensil_pl|Utensilios de cocina
itm_coif_crown_h|Yelmo real de Enrique V
itm_coif_crown_h_pl|Yelmo real de Enrique V
itm_joust_warhorse_f1|Caballo de justas
itm_joust_warhorse_f1_pl|Caballo de justas
itm_joust_warhorse_en1|Caballo de justas
itm_joust_warhorse_en1_pl|Caballo de justas
itm_items_end|Fin de objetos
itm_items_end_pl|Fin de objetos
