p_zendar|Zendar
p_town_1|París
p_town_2|Reims
p_town_3|Angers
p_town_4|Bourges
p_town_5|Metz
p_town_6|Dijón
p_town_7|Montpellier
p_town_8|Marsella
p_town_9|Caen
p_town_10|Limoges
p_town_11|Calais
p_town_12|Rouen
p_town_13|Toulouse
p_town_14|Burdeos
p_town_15|Orleans
p_town_16|Tours
p_town_17|Poitiers
p_town_18|Aviñón
p_town_19|Cherburgo
p_town_20|Lyon
p_town_21|Auxerre
p_town_22|Rennes
p_castle_1|Castillo de Cherburgo
p_castle_2|Castillo de Amiens
p_castle_3|Castillo de Chartres
p_castle_4|Castillo de Brest
p_castle_5|Castillo de Troyes
p_castle_6|Castillo de La Rochelle
p_castle_7|Castillo de Angouleme
p_castle_8|Castillo de Moulins
p_castle_9|Castillo de Clermont
p_castle_10|Castillo de Lyon
p_castle_11|Castillo de Le Mans
p_castle_12|Castillo de Bayona
p_castle_13|Castillo de Auch
p_castle_14|Castillo de Tarbes
p_castle_15|Castillo de Albé
p_castle_16|Castillo de Carcasona
p_castle_17|Castillo de Donjon de Grenoble
p_castle_18|Castillo de St.Malo
p_castle_19|Castillo de Amberes
p_castle_20|Castillo de Peronne
p_castle_21|Castillo de Verneuil
p_castle_22|Castillo de Chateauroux
p_castle_23|Castillo de Laval
p_castle_24|Castillo de Senlis
p_castle_25|Castillo de Turenne
p_castle_26|Castillo de Aurillac
p_castle_27|Castillo de Nevers
p_castle_28|Castillo de Monterean
p_castle_29|Castillo de Dieppe
p_castle_30|Castillo de Rodez
p_castle_31|Castillo de Le Puy
p_castle_32|Castillo de Cahors
p_castle_33|Castillo de Nantes
p_castle_34|Castillo de Neufchateau
p_castle_35|Castillo de Chalons
p_castle_36|Castillo de Albret
p_castle_37|Castillo de Montargis
p_castle_38|Castillo de Bruges
p_castle_39|Castillo de Thouars
p_castle_40|Castillo de Agincourt
p_castle_41|Monte st Michel
p_castle_42|Puente de Poitier
p_castle_43|Puente de Tours
p_castle_44|Puente de Bordeau
p_castle_45|Puente fortifie
p_castle_46|Puente de Bourges
p_castle_47|Puente des tourelles
p_castle_48|Castillo de Chinon
p_village_1|Aldea de Bruges
p_village_2|Aldea de Boulogne
p_village_3|Lille
p_village_4|Abbeville
p_village_5|Nemours
p_village_6|Mayenne
p_village_7|Laon
p_village_8|Soissons
p_village_9|Aldea de Senlis
p_village_10|Beaumont
p_village_11|Aldea de Chalons
p_village_12|Bar
p_village_13|Joinville
p_village_14|Melun
p_village_15|Sens
p_village_16|Aldea de Dieppe
p_village_17|Harcourt
p_village_18|Bayeux
p_village_19|Lisieux
p_village_20|Harfleur
p_village_21|Honflew
p_village_22|Quimper
p_village_23|Aldea de Laval
p_village_24|Graon
p_village_25|Blois
p_village_26|Levet
p_village_27|Vierzon
p_village_28|Aldea de Chateauroux
p_village_29|Aldea de Nevers
p_village_30|Fontenay
p_village_31|Niort
p_village_32|La Tremouille
p_village_33|Gueret
p_village_34|Rochefort
p_village_35|Saintes
p_village_36|Soyaux
p_village_37|Aldea de Turenne
p_village_38|Perigueux
p_village_39|Aldea de Aurillac
p_village_40|Aldea Moulins 
p_village_41|Langres
p_village_42|Beaune
p_village_43|Chalon
p_village_44|Macon
p_village_45|Vienne
p_village_46|Aldea de Clermont 
p_village_47|Valence
p_village_48|Briancon
p_village_49|Fecamp
p_village_50|Aldea de Verneuilo 
p_village_51|Castillon
p_village_52|Aldea de Cahors 
p_village_53|Agen
p_village_54|Montauban
p_village_55|Foix
p_village_56|Narbona
p_village_57|Sete
p_village_58|Nimes
p_village_59|Arlés
p_village_60|Toulon
p_village_61|Dax
p_village_62|Alencon
p_village_63|Aldea de Albret 
p_village_64|Bretigny
p_village_65|Aldea de Thouars 
p_village_66|Aldea de Peronne 
p_village_67|Aldea de Agincourt
p_village_68|Ghent
p_village_69|Vannes
p_village_70|Guines
p_village_71|Lunoges
p_village_72|Elaye
p_village_73|Maupertuis
p_village_74|Hesdin
p_village_75|Autun
p_village_76|Arras
p_village_77|Aldea de Monterean 
p_village_78|Aldea de Montargis 
p_village_79|Evreux
p_village_80|Albi
p_village_81|La Teste de Buch
p_village_82|Beauvoir
p_village_83|Aldea de Le Puy 
p_village_84|Aldea de Rodez 
p_village_85|Boves
p_village_86|Gien
p_village_87|Formigny
p_village_88|Aldea de Neufchateau 
p_village_89|Cosne
p_village_90|Vaucouleurs
p_village_91|Brest
p_village_92|St Brieut
p_village_93|Troyes
p_village_94|Lunery
p_salt_mine|Mina de sal
p_four_ways_inn|Posada de los cuatro caminos
p_test_scene|scene de prueba
p_battlefields|campos de batalla
p_dhorak_keep|Fuerte Dhorak
p_training_ground|Campo de entrenamiento
p_training_ground_1|Campo de entrenamiento
p_training_ground_2|Campo de entrenamiento
p_training_ground_3|Campo de entrenamiento
p_training_ground_4|Campo de entrenamiento
p_training_ground_5|Campo de entrenamiento
p_bridge_1|1
p_bridge_2|2
p_bridge_3|3
p_bridge_4|4
p_bridge_5|5
p_bridge_6|6
p_bridge_7|7
p_bridge_8|8
p_bridge_9|9
p_bridge_10|10
p_bridge_11|11
p_bridge_12|12
p_bridge_13|13
p_bridge_14|14
p_bridge_15|15
p_camp_anglais|Campamento Inglés
p_toul_village|Aldea de Toul
p_camp_ofrebels|Campamento de los Rebeldes
p_place_forte_b|Fortaleza Borgoñona
p_tour_despins|Torre de los pinos
p_fermemat|Granja de Mathieu
p_chasse_camp|Campo de tiro
p_fierbois|Santa Caterina de Fierbois
p_rouen_foret|Bosque de Rouen
p_looter_spawn_point|Saqueadores
p_steppe_bandit_spawn_point|la estepa
p_taiga_bandit_spawn_point|la tundra
p_forest_bandit_spawn_point|el bosque
p_mountain_bandit_spawn_point|las tierras altas
p_sea_raider_spawn_point_1|la costa
p_sea_raider_spawn_point_2|la costa
p_black_khergit_spawn_point_1|Rebeldes
p_black_khergit_spawn_point_2|Rebeldes
p_sang_lys_spawn_point_1|Compañía del lirio de sangre 
